TMS320C2000 Assembler PC v6.2.0 Tue May 25 14:03:59 2021

Tools Copyright (c) 1996-2013 Texas Instruments Incorporated
temperature.asm                                                      PAGE    1

       1              ;***************************************************************
       2              ;* TMS320C2000 C/C++ Codegen                         PC v6.2.0 *
       3              ;* Date/Time created: Tue May 25 14:03:58 2021                 *
       4              ;***************************************************************
       5                      .compiler_opts --float_support=fpu32 --hll_source=on --mem_model:code=flat --mem_model:data=large --o
       6        0002  FP      .set    XAR2
       7              
       8              $C$DW$CU        .dwtag  DW_TAG_compile_unit
       9                      .dwattr $C$DW$CU, DW_AT_name("../temperature.c")
      10                      .dwattr $C$DW$CU, DW_AT_producer("TMS320C2000 C/C++ Codegen PC v6.2.0 Copyright (c) 1996-2013 Texas I
      11                      .dwattr $C$DW$CU, DW_AT_TI_version(0x01)
      12                      .dwattr $C$DW$CU, DW_AT_comp_dir("C:\Users\aen17\Desktop\Working\SVN\Repository\EBuilding\PTM078")
      13                      .global _TempTable
      14 00000000               .sect   ".econst:_TempTable"
      15                      .clink
      16                      .align  2
      17 00000000       _TempTable:
      18 00000000 FFC9          .bits   -55,16                  ; _TempTable[0]._temp @ 0
      19 00000001               .space  16
      20 00000002 FE66          .xfloat $strtod("0x1.fffcccp+11")               ; _TempTable[0]._adval[0] @ 32
         00000003 457F 
      21 00000004 FE66          .xfloat $strtod("0x1.fffcccp+11")               ; _TempTable[0]._adval[1] @ 64
         00000005 457F 
      22 00000006 FFCE          .bits   -50,16                  ; _TempTable[1]._temp @ 96
      23 00000007               .space  16
      24 00000008 2CCD          .xfloat $strtod("0x1.f8599ap+11")               ; _TempTable[1]._adval[0] @ 128
         00000009 457C 
      25 0000000a 6666          .xfloat $strtod("0x1.f0ccccp+11")               ; _TempTable[1]._adval[1] @ 160
         0000000b 4578 
      26 0000000c FFD3          .bits   -45,16                  ; _TempTable[2]._temp @ 192
      27 0000000d               .space  16
      28 0000000e A000          .xfloat $strtod("0x1.f54p+11")          ; _TempTable[2]._adval[0] @ 224
         0000000f 457A 
      29 00000010 019A          .xfloat $strtod("0x1.ec0334p+11")               ; _TempTable[2]._adval[1] @ 256
         00000011 4576 
      30 00000012 FFD8          .bits   -40,16                  ; _TempTable[3]._temp @ 288
      31 00000013               .space  16
      32 00000014 8CCD          .xfloat $strtod("0x1.f1199ap+11")               ; _TempTable[3]._adval[0] @ 320
         00000015 4578 
      33 00000016 0B33          .xfloat $strtod("0x1.e61666p+11")               ; _TempTable[3]._adval[1] @ 352
         00000017 4573 
      34 00000018 FFDD          .bits   -35,16                  ; _TempTable[4]._temp @ 384
      35 00000019               .space  16
      36 0000001a CE66          .xfloat $strtod("0x1.eb9cccp+11")               ; _TempTable[4]._adval[0] @ 416
         0000001b 4575 
      37 0000001c 54CD          .xfloat $strtod("0x1.dea99ap+11")               ; _TempTable[4]._adval[1] @ 448
         0000001d 456F 
      38 0000001e FFE2          .bits   -30,16                  ; _TempTable[5]._temp @ 480
      39 0000001f               .space  16
      40 00000020 4000          .xfloat $strtod("0x1.e48p+11")          ; _TempTable[5]._adval[0] @ 512
         00000021 4572 
      41 00000022 D666          .xfloat $strtod("0x1.d5acccp+11")               ; _TempTable[5]._adval[1] @ 544
         00000023 456A 
      42 00000024 FFE7          .bits   -25,16                  ; _TempTable[6]._temp @ 576
      43 00000025               .space  16
TMS320C2000 Assembler PC v6.2.0 Tue May 25 14:03:59 2021

Tools Copyright (c) 1996-2013 Texas Instruments Incorporated
temperature.asm                                                      PAGE    2

      44 00000026 B4CD          .xfloat $strtod("0x1.db699ap+11")               ; _TempTable[6]._adval[0] @ 608
         00000027 456D 
      45 00000028 64CD          .xfloat $strtod("0x1.cac99ap+11")               ; _TempTable[6]._adval[1] @ 640
         00000029 4565 
      46 0000002a FFEC          .bits   -20,16                  ; _TempTable[7]._temp @ 672
      47 0000002b               .space  16
      48 0000002c 0800          .xfloat $strtod("0x1.d01p+11")          ; _TempTable[7]._adval[0] @ 704
         0000002d 4568 
      49 0000002e 0666          .xfloat $strtod("0x1.be0cccp+11")               ; _TempTable[7]._adval[1] @ 736
         0000002f 455F 
      50 00000030 FFF1          .bits   -15,16                  ; _TempTable[8]._temp @ 768
      51 00000031               .space  16
      52 00000032 1333          .xfloat $strtod("0x1.c22666p+11")               ; _TempTable[8]._adval[0] @ 800
         00000033 4561 
      53 00000034 9333          .xfloat $strtod("0x1.af2666p+11")               ; _TempTable[8]._adval[1] @ 832
         00000035 4557 
      54 00000036 FFF6          .bits   -10,16                  ; _TempTable[9]._temp @ 864
      55 00000037               .space  16
      56 00000038 C333          .xfloat $strtod("0x1.b18666p+11")               ; _TempTable[9]._adval[0] @ 896
         00000039 4558 
      57 0000003a 299A          .xfloat $strtod("0x1.9e5334p+11")               ; _TempTable[9]._adval[1] @ 928
         0000003b 454F 
      58 0000003c FFFB          .bits   -5,16                   ; _TempTable[10]._temp @ 960
      59 0000003d               .space  16
      60 0000003e 04CD          .xfloat $strtod("0x1.9e099ap+11")               ; _TempTable[10]._adval[0] @ 992
         0000003f 454F 
      61 00000040 A333          .xfloat $strtod("0x1.8b4666p+11")               ; _TempTable[10]._adval[1] @ 1024
         00000041 4545 
      62 00000042 0000          .bits   0,16                    ; _TempTable[11]._temp @ 1056
      63 00000043               .space  16
      64 00000044 EE66          .xfloat $strtod("0x1.87dcccp+11")               ; _TempTable[11]._adval[0] @ 1088
         00000045 4543 
      65 00000046 499A          .xfloat $strtod("0x1.769334p+11")               ; _TempTable[11]._adval[1] @ 1120
         00000047 453B 
      66 00000048 0005          .bits   5,16                    ; _TempTable[12]._temp @ 1152
      67 00000049               .space  16
      68 0000004a 9E66          .xfloat $strtod("0x1.6f3cccp+11")               ; _TempTable[12]._adval[0] @ 1184
         0000004b 4537 
      69 0000004c 14CD          .xfloat $strtod("0x1.60299ap+11")               ; _TempTable[12]._adval[1] @ 1216
         0000004d 4530 
      70 0000004e 000A          .bits   10,16                   ; _TempTable[13]._temp @ 1248
      71 0000004f               .space  16
      72 00000050 5666          .xfloat $strtod("0x1.54acccp+11")               ; _TempTable[13]._adval[0] @ 1280
         00000051 452A 
      73 00000052 6666          .xfloat $strtod("0x1.48ccccp+11")               ; _TempTable[13]._adval[1] @ 1312
         00000053 4524 
      74 00000054 000F          .bits   15,16                   ; _TempTable[14]._temp @ 1344
      75 00000055               .space  16
      76 00000056 6333          .xfloat $strtod("0x1.38c666p+11")               ; _TempTable[14]._adval[0] @ 1376
         00000057 451C 
      77 00000058 4666          .xfloat $strtod("0x1.308cccp+11")               ; _TempTable[14]._adval[1] @ 1408
         00000059 4518 
      78 0000005a 0014          .bits   20,16                   ; _TempTable[15]._temp @ 1440
      79 0000005b               .space  16
      80 0000005c 2333          .xfloat $strtod("0x1.1c4666p+11")               ; _TempTable[15]._adval[0] @ 1472
TMS320C2000 Assembler PC v6.2.0 Tue May 25 14:03:59 2021

Tools Copyright (c) 1996-2013 Texas Instruments Incorporated
temperature.asm                                                      PAGE    3

         0000005d 450E 
      81 0000005e 1333          .xfloat $strtod("0x1.182666p+11")               ; _TempTable[15]._adval[1] @ 1504
         0000005f 450C 
      82 00000060 0019          .bits   25,16                   ; _TempTable[16]._temp @ 1536
      83 00000061               .space  16
      84 00000062 F000          .xfloat $strtod("0x1.ffep+10")          ; _TempTable[16]._adval[0] @ 1568
         00000063 44FF 
      85 00000064 F000          .xfloat $strtod("0x1.ffep+10")          ; _TempTable[16]._adval[1] @ 1600
         00000065 44FF 
      86 00000066 001E          .bits   30,16                   ; _TempTable[17]._temp @ 1632
      87 00000067               .space  16
      88 00000068 6666          .xfloat $strtod("0x1.c8ccccp+10")               ; _TempTable[17]._adval[0] @ 1664
         00000069 44E4 
      89 0000006a 5CCD          .xfloat $strtod("0x1.d0b99ap+10")               ; _TempTable[17]._adval[1] @ 1696
         0000006b 44E8 
      90 0000006c 0023          .bits   35,16                   ; _TempTable[18]._temp @ 1728
      91 0000006d               .space  16
      92 0000006e 399A          .xfloat $strtod("0x1.947334p+10")               ; _TempTable[18]._adval[0] @ 1760
         0000006f 44CA 
      93 00000070 B333          .xfloat $strtod("0x1.a36666p+10")               ; _TempTable[18]._adval[1] @ 1792
         00000071 44D1 
      94 00000072 0028          .bits   40,16                   ; _TempTable[19]._temp @ 1824
      95 00000073               .space  16
      96 00000074 E666          .xfloat $strtod("0x1.63ccccp+10")               ; _TempTable[19]._adval[0] @ 1856
         00000075 44B1 
      97 00000076 7333          .xfloat $strtod("0x1.78e666p+10")               ; _TempTable[19]._adval[1] @ 1888
         00000077 44BC 
      98 00000078 002D          .bits   45,16                   ; _TempTable[20]._temp @ 1920
      99 00000079               .space  16
     100 0000007a A333          .xfloat $strtod("0x1.374666p+10")               ; _TempTable[20]._adval[0] @ 1952
         0000007b 449B 
     101 0000007c 9666          .xfloat $strtod("0x1.512cccp+10")               ; _TempTable[20]._adval[1] @ 1984
         0000007d 44A8 
     102 0000007e 0032          .bits   50,16                   ; _TempTable[21]._temp @ 2016
     103 0000007f               .space  16
     104 00000080 9333          .xfloat $strtod("0x1.0f2666p+10")               ; _TempTable[21]._adval[0] @ 2048
         00000081 4487 
     105 00000082 6333          .xfloat $strtod("0x1.2cc666p+10")               ; _TempTable[21]._adval[1] @ 2080
         00000083 4496 
     106 00000084 0037          .bits   55,16                   ; _TempTable[22]._temp @ 2112
     107 00000085               .space  16
     108 00000086 6666          .xfloat $strtod("0x1.d6ccccp+9")                ; _TempTable[22]._adval[0] @ 2144
         00000087 446B 
     109 00000088 B666          .xfloat $strtod("0x1.0b6cccp+10")               ; _TempTable[22]._adval[1] @ 2176
         00000089 4485 
     110 0000008a 003C          .bits   60,16                   ; _TempTable[23]._temp @ 2208
     111 0000008b               .space  16
     112 0000008c F99A          .xfloat $strtod("0x1.97f334p+9")                ; _TempTable[23]._adval[0] @ 2240
         0000008d 444B 
     113 0000008e 7333          .xfloat $strtod("0x1.dae666p+9")                ; _TempTable[23]._adval[1] @ 2272
         0000008f 446D 
     114 00000090 0041          .bits   65,16                   ; _TempTable[24]._temp @ 2304
     115 00000091               .space  16
     116 00000092 799A          .xfloat $strtod("0x1.60f334p+9")                ; _TempTable[24]._adval[0] @ 2336
         00000093 4430 
TMS320C2000 Assembler PC v6.2.0 Tue May 25 14:03:59 2021

Tools Copyright (c) 1996-2013 Texas Instruments Incorporated
temperature.asm                                                      PAGE    4

     117 00000094 799A          .xfloat $strtod("0x1.a4f334p+9")                ; _TempTable[24]._adval[1] @ 2368
         00000095 4452 
     118 00000096 0046          .bits   70,16                   ; _TempTable[25]._temp @ 2400
     119 00000097               .space  16
     120 00000098 A000          .xfloat $strtod("0x1.314p+9")           ; _TempTable[25]._adval[0] @ 2432
         00000099 4418 
     121 0000009a 8666          .xfloat $strtod("0x1.750cccp+9")                ; _TempTable[25]._adval[1] @ 2464
         0000009b 443A 
     122 0000009c 004B          .bits   75,16                   ; _TempTable[26]._temp @ 2496
     123 0000009d               .space  16
     124 0000009e 0CCD          .xfloat $strtod("0x1.08199ap+9")                ; _TempTable[26]._adval[0] @ 2528
         0000009f 4404 
     125 000000a0 2CCD          .xfloat $strtod("0x1.4a599ap+9")                ; _TempTable[26]._adval[1] @ 2560
         000000a1 4425 
     126 000000a2 0050          .bits   80,16                   ; _TempTable[27]._temp @ 2592
     127 000000a3               .space  16
     128 000000a4 CCCD          .xfloat $strtod("0x1.c9999ap+8")                ; _TempTable[27]._adval[0] @ 2624
         000000a5 43E4 
     129 000000a6 599A          .xfloat $strtod("0x1.24b334p+9")                ; _TempTable[27]._adval[1] @ 2656
         000000a7 4412 
     130 000000a8 0055          .bits   85,16                   ; _TempTable[28]._temp @ 2688
     131 000000a9               .space  16
     132 000000aa 4000          .xfloat $strtod("0x1.8c8p+8")           ; _TempTable[28]._adval[0] @ 2720
         000000ab 43C6 
     133 000000ac B99A          .xfloat $strtod("0x1.037334p+9")                ; _TempTable[28]._adval[1] @ 2752
         000000ad 4401 
     134 000000ae 005A          .bits   90,16                   ; _TempTable[29]._temp @ 2784
     135 000000af               .space  16
     136 000000b0 199A          .xfloat $strtod("0x1.583334p+8")                ; _TempTable[29]._adval[0] @ 2816
         000000b1 43AC 
     137 000000b2 199A          .xfloat $strtod("0x1.cc3334p+8")                ; _TempTable[29]._adval[1] @ 2848
         000000b3 43E6 
     138 000000b4 005F          .bits   95,16                   ; _TempTable[30]._temp @ 2880
     139 000000b5               .space  16
     140 000000b6 A666          .xfloat $strtod("0x1.2b4cccp+8")                ; _TempTable[30]._adval[0] @ 2912
         000000b7 4395 
     141 000000b8 4000          .xfloat $strtod("0x1.988p+8")           ; _TempTable[30]._adval[1] @ 2944
         000000b9 43CC 
     142 000000ba 0064          .bits   100,16                  ; _TempTable[31]._temp @ 2976
     143 000000bb               .space  16
     144 000000bc 599A          .xfloat $strtod("0x1.04b334p+8")                ; _TempTable[31]._adval[0] @ 3008
         000000bd 4382 
     145 000000be 8CCD          .xfloat $strtod("0x1.6b199ap+8")                ; _TempTable[31]._adval[1] @ 3040
         000000bf 43B5 
     146 000000c0 0069          .bits   105,16                  ; _TempTable[32]._temp @ 3072
     147 000000c1               .space  16
     148 000000c2 999A          .xfloat $strtod("0x1.c73334p+7")                ; _TempTable[32]._adval[0] @ 3104
         000000c3 4363 
     149 000000c4 A666          .xfloat $strtod("0x1.434cccp+8")                ; _TempTable[32]._adval[1] @ 3136
         000000c5 43A1 
     150 000000c6 006E          .bits   110,16                  ; _TempTable[33]._temp @ 3168
     151 000000c7               .space  16
     152 000000c8 3333          .xfloat $strtod("0x1.8e6666p+7")                ; _TempTable[33]._adval[0] @ 3200
         000000c9 4347 
     153 000000ca 3333          .xfloat $strtod("0x1.206666p+8")                ; _TempTable[33]._adval[1] @ 3232
TMS320C2000 Assembler PC v6.2.0 Tue May 25 14:03:59 2021

Tools Copyright (c) 1996-2013 Texas Instruments Incorporated
temperature.asm                                                      PAGE    5

         000000cb 4390 
     154 000000cc 0073          .bits   115,16                  ; _TempTable[34]._temp @ 3264
     155 000000cd               .space  16
     156 000000ce 999A          .xfloat $strtod("0x1.5d3334p+7")                ; _TempTable[34]._adval[0] @ 3296
         000000cf 432E 
     157 000000d0 0000          .xfloat $strtod("0x1.fcp+7")            ; _TempTable[34]._adval[1] @ 3328
         000000d1 437E 
     158 000000d2 0078          .bits   120,16                  ; _TempTable[35]._temp @ 3360
     159 000000d3               .space  16
     160 000000d4 6666          .xfloat $strtod("0x1.32ccccp+7")                ; _TempTable[35]._adval[0] @ 3392
         000000d5 4319 
     161 000000d6 0000          .xfloat $strtod("0x1.c2p+7")            ; _TempTable[35]._adval[1] @ 3424
         000000d7 4361 
     162 000000d8 007D          .bits   125,16                  ; _TempTable[36]._temp @ 3456
     163 000000d9               .space  16
     164 000000da 0000          .xfloat $strtod("0x0p+0")               ; _TempTable[36]._adval[0] @ 3488
         000000db 0000 
     165 000000dc 0000          .xfloat $strtod("0x0p+0")               ; _TempTable[36]._adval[1] @ 3520
         000000dd 0000 
     166              
     167              $C$DW$1 .dwtag  DW_TAG_variable, DW_AT_name("TempTable")
     168                      .dwattr $C$DW$1, DW_AT_TI_symbol_name("_TempTable")
     169                      .dwattr $C$DW$1, DW_AT_location[DW_OP_addr _TempTable]
     170                      .dwattr $C$DW$1, DW_AT_type(*$C$DW$T$23)
     171                      .dwattr $C$DW$1, DW_AT_external
     172              ;       C:\ti\ccsv5\tools\compiler\c2000_6.2.0\bin\ac2000.exe -@C:\\Users\\ADMINI~1\\AppData\\Local\\Temp\\23
     173              
     174              ;***************************************************************
     175              ;* TYPE INFORMATION                                            *
     176              ;***************************************************************
     177              
     178              $C$DW$T$20      .dwtag  DW_TAG_structure_type
     179                      .dwattr $C$DW$T$20, DW_AT_byte_size(0x06)
     180              $C$DW$2 .dwtag  DW_TAG_member
     181                      .dwattr $C$DW$2, DW_AT_type(*$C$DW$T$8)
     182                      .dwattr $C$DW$2, DW_AT_name("temp")
     183                      .dwattr $C$DW$2, DW_AT_TI_symbol_name("_temp")
     184                      .dwattr $C$DW$2, DW_AT_data_member_location[DW_OP_plus_uconst 0x0]
     185                      .dwattr $C$DW$2, DW_AT_accessibility(DW_ACCESS_public)
     186              $C$DW$3 .dwtag  DW_TAG_member
     187                      .dwattr $C$DW$3, DW_AT_type(*$C$DW$T$19)
     188                      .dwattr $C$DW$3, DW_AT_name("adval")
     189                      .dwattr $C$DW$3, DW_AT_TI_symbol_name("_adval")
     190                      .dwattr $C$DW$3, DW_AT_data_member_location[DW_OP_plus_uconst 0x2]
     191                      .dwattr $C$DW$3, DW_AT_accessibility(DW_ACCESS_public)
     192                      .dwendtag $C$DW$T$20
     193              
     194              $C$DW$T$21      .dwtag  DW_TAG_typedef, DW_AT_name("TTempTable")
     195                      .dwattr $C$DW$T$21, DW_AT_type(*$C$DW$T$20)
     196                      .dwattr $C$DW$T$21, DW_AT_language(DW_LANG_C)
     197              $C$DW$4 .dwtag  DW_TAG_TI_far_type
     198                      .dwattr $C$DW$4, DW_AT_type(*$C$DW$T$21)
     199              $C$DW$T$22      .dwtag  DW_TAG_const_type
     200                      .dwattr $C$DW$T$22, DW_AT_type(*$C$DW$4)
     201              
TMS320C2000 Assembler PC v6.2.0 Tue May 25 14:03:59 2021

Tools Copyright (c) 1996-2013 Texas Instruments Incorporated
temperature.asm                                                      PAGE    6

     202              $C$DW$T$23      .dwtag  DW_TAG_array_type
     203                      .dwattr $C$DW$T$23, DW_AT_type(*$C$DW$T$22)
     204                      .dwattr $C$DW$T$23, DW_AT_language(DW_LANG_C)
     205                      .dwattr $C$DW$T$23, DW_AT_byte_size(0xde)
     206              $C$DW$5 .dwtag  DW_TAG_subrange_type
     207                      .dwattr $C$DW$5, DW_AT_upper_bound(0x24)
     208                      .dwendtag $C$DW$T$23
     209              
     210              $C$DW$T$4       .dwtag  DW_TAG_base_type
     211                      .dwattr $C$DW$T$4, DW_AT_encoding(DW_ATE_boolean)
     212                      .dwattr $C$DW$T$4, DW_AT_name("bool")
     213                      .dwattr $C$DW$T$4, DW_AT_byte_size(0x01)
     214              $C$DW$T$5       .dwtag  DW_TAG_base_type
     215                      .dwattr $C$DW$T$5, DW_AT_encoding(DW_ATE_signed_char)
     216                      .dwattr $C$DW$T$5, DW_AT_name("signed char")
     217                      .dwattr $C$DW$T$5, DW_AT_byte_size(0x01)
     218              $C$DW$T$6       .dwtag  DW_TAG_base_type
     219                      .dwattr $C$DW$T$6, DW_AT_encoding(DW_ATE_unsigned_char)
     220                      .dwattr $C$DW$T$6, DW_AT_name("unsigned char")
     221                      .dwattr $C$DW$T$6, DW_AT_byte_size(0x01)
     222              $C$DW$T$7       .dwtag  DW_TAG_base_type
     223                      .dwattr $C$DW$T$7, DW_AT_encoding(DW_ATE_signed_char)
     224                      .dwattr $C$DW$T$7, DW_AT_name("wchar_t")
     225                      .dwattr $C$DW$T$7, DW_AT_byte_size(0x01)
     226              $C$DW$T$8       .dwtag  DW_TAG_base_type
     227                      .dwattr $C$DW$T$8, DW_AT_encoding(DW_ATE_signed)
     228                      .dwattr $C$DW$T$8, DW_AT_name("short")
     229                      .dwattr $C$DW$T$8, DW_AT_byte_size(0x01)
     230              $C$DW$T$9       .dwtag  DW_TAG_base_type
     231                      .dwattr $C$DW$T$9, DW_AT_encoding(DW_ATE_unsigned)
     232                      .dwattr $C$DW$T$9, DW_AT_name("unsigned short")
     233                      .dwattr $C$DW$T$9, DW_AT_byte_size(0x01)
     234              $C$DW$T$10      .dwtag  DW_TAG_base_type
     235                      .dwattr $C$DW$T$10, DW_AT_encoding(DW_ATE_signed)
     236                      .dwattr $C$DW$T$10, DW_AT_name("int")
     237                      .dwattr $C$DW$T$10, DW_AT_byte_size(0x01)
     238              $C$DW$T$11      .dwtag  DW_TAG_base_type
     239                      .dwattr $C$DW$T$11, DW_AT_encoding(DW_ATE_unsigned)
     240                      .dwattr $C$DW$T$11, DW_AT_name("unsigned int")
     241                      .dwattr $C$DW$T$11, DW_AT_byte_size(0x01)
     242              $C$DW$T$12      .dwtag  DW_TAG_base_type
     243                      .dwattr $C$DW$T$12, DW_AT_encoding(DW_ATE_signed)
     244                      .dwattr $C$DW$T$12, DW_AT_name("long")
     245                      .dwattr $C$DW$T$12, DW_AT_byte_size(0x02)
     246              $C$DW$T$13      .dwtag  DW_TAG_base_type
     247                      .dwattr $C$DW$T$13, DW_AT_encoding(DW_ATE_unsigned)
     248                      .dwattr $C$DW$T$13, DW_AT_name("unsigned long")
     249                      .dwattr $C$DW$T$13, DW_AT_byte_size(0x02)
     250              $C$DW$T$14      .dwtag  DW_TAG_base_type
     251                      .dwattr $C$DW$T$14, DW_AT_encoding(DW_ATE_signed)
     252                      .dwattr $C$DW$T$14, DW_AT_name("long long")
     253                      .dwattr $C$DW$T$14, DW_AT_byte_size(0x04)
     254              $C$DW$T$15      .dwtag  DW_TAG_base_type
     255                      .dwattr $C$DW$T$15, DW_AT_encoding(DW_ATE_unsigned)
     256                      .dwattr $C$DW$T$15, DW_AT_name("unsigned long long")
TMS320C2000 Assembler PC v6.2.0 Tue May 25 14:03:59 2021

Tools Copyright (c) 1996-2013 Texas Instruments Incorporated
temperature.asm                                                      PAGE    7

     257                      .dwattr $C$DW$T$15, DW_AT_byte_size(0x04)
     258              $C$DW$T$16      .dwtag  DW_TAG_base_type
     259                      .dwattr $C$DW$T$16, DW_AT_encoding(DW_ATE_float)
     260                      .dwattr $C$DW$T$16, DW_AT_name("float")
     261                      .dwattr $C$DW$T$16, DW_AT_byte_size(0x02)
     262              
     263              $C$DW$T$19      .dwtag  DW_TAG_array_type
     264                      .dwattr $C$DW$T$19, DW_AT_type(*$C$DW$T$16)
     265                      .dwattr $C$DW$T$19, DW_AT_language(DW_LANG_C)
     266                      .dwattr $C$DW$T$19, DW_AT_byte_size(0x04)
     267              $C$DW$6 .dwtag  DW_TAG_subrange_type
     268                      .dwattr $C$DW$6, DW_AT_upper_bound(0x01)
     269                      .dwendtag $C$DW$T$19
     270              
     271              $C$DW$T$17      .dwtag  DW_TAG_base_type
     272                      .dwattr $C$DW$T$17, DW_AT_encoding(DW_ATE_float)
     273                      .dwattr $C$DW$T$17, DW_AT_name("double")
     274                      .dwattr $C$DW$T$17, DW_AT_byte_size(0x02)
     275              $C$DW$T$18      .dwtag  DW_TAG_base_type
     276                      .dwattr $C$DW$T$18, DW_AT_encoding(DW_ATE_float)
     277                      .dwattr $C$DW$T$18, DW_AT_name("long double")
     278                      .dwattr $C$DW$T$18, DW_AT_byte_size(0x04)
     279                      .dwattr $C$DW$CU, DW_AT_language(DW_LANG_C)
     280              
     281              ;***************************************************************
     282              ;* DWARF CIE ENTRIES                                           *
     283              ;***************************************************************
     284              
     285              $C$DW$CIE       .dwcie 78
     286                      .dwcfi  cfa_register, 20
     287                      .dwcfi  cfa_offset, 0
     288                      .dwcfi  undefined, 0
     289                      .dwcfi  undefined, 1
     290                      .dwcfi  undefined, 2
     291                      .dwcfi  undefined, 3
     292                      .dwcfi  undefined, 20
     293                      .dwcfi  undefined, 21
     294                      .dwcfi  undefined, 22
     295                      .dwcfi  undefined, 23
     296                      .dwcfi  undefined, 24
     297                      .dwcfi  undefined, 25
     298                      .dwcfi  undefined, 26
     299                      .dwcfi  undefined, 28
     300                      .dwcfi  undefined, 29
     301                      .dwcfi  undefined, 30
     302                      .dwcfi  undefined, 31
     303                      .dwcfi  undefined, 32
     304                      .dwcfi  undefined, 33
     305                      .dwcfi  undefined, 34
     306                      .dwcfi  undefined, 35
     307                      .dwcfi  undefined, 36
     308                      .dwcfi  undefined, 37
     309                      .dwcfi  undefined, 38
     310                      .dwcfi  undefined, 75
     311                      .dwcfi  undefined, 76
TMS320C2000 Assembler PC v6.2.0 Tue May 25 14:03:59 2021

Tools Copyright (c) 1996-2013 Texas Instruments Incorporated
temperature.asm                                                      PAGE    8

     312                      .dwcfi  undefined, 77
     313                      .dwcfi  undefined, 4
     314                      .dwcfi  undefined, 6
     315                      .dwcfi  undefined, 8
     316                      .dwcfi  undefined, 10
     317                      .dwcfi  undefined, 12
     318                      .dwcfi  undefined, 14
     319                      .dwcfi  undefined, 16
     320                      .dwcfi  undefined, 17
     321                      .dwcfi  undefined, 18
     322                      .dwcfi  undefined, 19
     323                      .dwcfi  undefined, 5
     324                      .dwcfi  undefined, 7
     325                      .dwcfi  undefined, 9
     326                      .dwcfi  undefined, 11
     327                      .dwcfi  undefined, 13
     328                      .dwcfi  undefined, 15
     329                      .dwcfi  undefined, 43
     330                      .dwcfi  undefined, 44
     331                      .dwcfi  undefined, 47
     332                      .dwcfi  undefined, 48
     333                      .dwcfi  undefined, 51
     334                      .dwcfi  undefined, 52
     335                      .dwcfi  undefined, 55
     336                      .dwcfi  undefined, 56
     337                      .dwcfi  undefined, 59
     338                      .dwcfi  undefined, 60
     339                      .dwcfi  undefined, 63
     340                      .dwcfi  undefined, 64
     341                      .dwcfi  undefined, 67
     342                      .dwcfi  undefined, 68
     343                      .dwcfi  undefined, 71
     344                      .dwcfi  undefined, 72
     345                      .dwcfi  undefined, 73
     346                      .dwcfi  undefined, 74
     347                      .dwcfi  undefined, 39
     348                      .dwcfi  undefined, 40
     349                      .dwcfi  undefined, 27
     350                      .dwcfi  undefined, 78
     351                      .dwendentry
     352              
     353              ;***************************************************************
     354              ;* DWARF REGISTER MAP                                          *
     355              ;***************************************************************
     356              
     357              $C$DW$7 .dwtag  DW_TAG_TI_assign_register, DW_AT_name("AL")
     358                      .dwattr $C$DW$7, DW_AT_location[DW_OP_reg0]
     359              $C$DW$8 .dwtag  DW_TAG_TI_assign_register, DW_AT_name("AH")
     360                      .dwattr $C$DW$8, DW_AT_location[DW_OP_reg1]
     361              $C$DW$9 .dwtag  DW_TAG_TI_assign_register, DW_AT_name("PL")
     362                      .dwattr $C$DW$9, DW_AT_location[DW_OP_reg2]
     363              $C$DW$10        .dwtag  DW_TAG_TI_assign_register, DW_AT_name("PH")
     364                      .dwattr $C$DW$10, DW_AT_location[DW_OP_reg3]
     365              $C$DW$11        .dwtag  DW_TAG_TI_assign_register, DW_AT_name("SP")
     366                      .dwattr $C$DW$11, DW_AT_location[DW_OP_reg20]
TMS320C2000 Assembler PC v6.2.0 Tue May 25 14:03:59 2021

Tools Copyright (c) 1996-2013 Texas Instruments Incorporated
temperature.asm                                                      PAGE    9

     367              $C$DW$12        .dwtag  DW_TAG_TI_assign_register, DW_AT_name("XT")
     368                      .dwattr $C$DW$12, DW_AT_location[DW_OP_reg21]
     369              $C$DW$13        .dwtag  DW_TAG_TI_assign_register, DW_AT_name("T")
     370                      .dwattr $C$DW$13, DW_AT_location[DW_OP_reg22]
     371              $C$DW$14        .dwtag  DW_TAG_TI_assign_register, DW_AT_name("ST0")
     372                      .dwattr $C$DW$14, DW_AT_location[DW_OP_reg23]
     373              $C$DW$15        .dwtag  DW_TAG_TI_assign_register, DW_AT_name("ST1")
     374                      .dwattr $C$DW$15, DW_AT_location[DW_OP_reg24]
     375              $C$DW$16        .dwtag  DW_TAG_TI_assign_register, DW_AT_name("PC")
     376                      .dwattr $C$DW$16, DW_AT_location[DW_OP_reg25]
     377              $C$DW$17        .dwtag  DW_TAG_TI_assign_register, DW_AT_name("RPC")
     378                      .dwattr $C$DW$17, DW_AT_location[DW_OP_reg26]
     379              $C$DW$18        .dwtag  DW_TAG_TI_assign_register, DW_AT_name("FP")
     380                      .dwattr $C$DW$18, DW_AT_location[DW_OP_reg28]
     381              $C$DW$19        .dwtag  DW_TAG_TI_assign_register, DW_AT_name("DP")
     382                      .dwattr $C$DW$19, DW_AT_location[DW_OP_reg29]
     383              $C$DW$20        .dwtag  DW_TAG_TI_assign_register, DW_AT_name("SXM")
     384                      .dwattr $C$DW$20, DW_AT_location[DW_OP_reg30]
     385              $C$DW$21        .dwtag  DW_TAG_TI_assign_register, DW_AT_name("PM")
     386                      .dwattr $C$DW$21, DW_AT_location[DW_OP_reg31]
     387              $C$DW$22        .dwtag  DW_TAG_TI_assign_register, DW_AT_name("OVM")
     388                      .dwattr $C$DW$22, DW_AT_location[DW_OP_regx 0x20]
     389              $C$DW$23        .dwtag  DW_TAG_TI_assign_register, DW_AT_name("PAGE0")
     390                      .dwattr $C$DW$23, DW_AT_location[DW_OP_regx 0x21]
     391              $C$DW$24        .dwtag  DW_TAG_TI_assign_register, DW_AT_name("AMODE")
     392                      .dwattr $C$DW$24, DW_AT_location[DW_OP_regx 0x22]
     393              $C$DW$25        .dwtag  DW_TAG_TI_assign_register, DW_AT_name("INTM")
     394                      .dwattr $C$DW$25, DW_AT_location[DW_OP_regx 0x23]
     395              $C$DW$26        .dwtag  DW_TAG_TI_assign_register, DW_AT_name("IFR")
     396                      .dwattr $C$DW$26, DW_AT_location[DW_OP_regx 0x24]
     397              $C$DW$27        .dwtag  DW_TAG_TI_assign_register, DW_AT_name("IER")
     398                      .dwattr $C$DW$27, DW_AT_location[DW_OP_regx 0x25]
     399              $C$DW$28        .dwtag  DW_TAG_TI_assign_register, DW_AT_name("V")
     400                      .dwattr $C$DW$28, DW_AT_location[DW_OP_regx 0x26]
     401              $C$DW$29        .dwtag  DW_TAG_TI_assign_register, DW_AT_name("PSEUDO")
     402                      .dwattr $C$DW$29, DW_AT_location[DW_OP_regx 0x4b]
     403              $C$DW$30        .dwtag  DW_TAG_TI_assign_register, DW_AT_name("PSEUDOH")
     404                      .dwattr $C$DW$30, DW_AT_location[DW_OP_regx 0x4c]
     405              $C$DW$31        .dwtag  DW_TAG_TI_assign_register, DW_AT_name("VOL")
     406                      .dwattr $C$DW$31, DW_AT_location[DW_OP_regx 0x4d]
     407              $C$DW$32        .dwtag  DW_TAG_TI_assign_register, DW_AT_name("AR0")
     408                      .dwattr $C$DW$32, DW_AT_location[DW_OP_reg4]
     409              $C$DW$33        .dwtag  DW_TAG_TI_assign_register, DW_AT_name("AR1")
     410                      .dwattr $C$DW$33, DW_AT_location[DW_OP_reg6]
     411              $C$DW$34        .dwtag  DW_TAG_TI_assign_register, DW_AT_name("AR2")
     412                      .dwattr $C$DW$34, DW_AT_location[DW_OP_reg8]
     413              $C$DW$35        .dwtag  DW_TAG_TI_assign_register, DW_AT_name("AR3")
     414                      .dwattr $C$DW$35, DW_AT_location[DW_OP_reg10]
     415              $C$DW$36        .dwtag  DW_TAG_TI_assign_register, DW_AT_name("AR4")
     416                      .dwattr $C$DW$36, DW_AT_location[DW_OP_reg12]
     417              $C$DW$37        .dwtag  DW_TAG_TI_assign_register, DW_AT_name("AR5")
     418                      .dwattr $C$DW$37, DW_AT_location[DW_OP_reg14]
     419              $C$DW$38        .dwtag  DW_TAG_TI_assign_register, DW_AT_name("AR6")
     420                      .dwattr $C$DW$38, DW_AT_location[DW_OP_reg16]
     421              $C$DW$39        .dwtag  DW_TAG_TI_assign_register, DW_AT_name("XAR6")
TMS320C2000 Assembler PC v6.2.0 Tue May 25 14:03:59 2021

Tools Copyright (c) 1996-2013 Texas Instruments Incorporated
temperature.asm                                                      PAGE   10

     422                      .dwattr $C$DW$39, DW_AT_location[DW_OP_reg17]
     423              $C$DW$40        .dwtag  DW_TAG_TI_assign_register, DW_AT_name("AR7")
     424                      .dwattr $C$DW$40, DW_AT_location[DW_OP_reg18]
     425              $C$DW$41        .dwtag  DW_TAG_TI_assign_register, DW_AT_name("XAR7")
     426                      .dwattr $C$DW$41, DW_AT_location[DW_OP_reg19]
     427              $C$DW$42        .dwtag  DW_TAG_TI_assign_register, DW_AT_name("XAR0")
     428                      .dwattr $C$DW$42, DW_AT_location[DW_OP_reg5]
     429              $C$DW$43        .dwtag  DW_TAG_TI_assign_register, DW_AT_name("XAR1")
     430                      .dwattr $C$DW$43, DW_AT_location[DW_OP_reg7]
     431              $C$DW$44        .dwtag  DW_TAG_TI_assign_register, DW_AT_name("XAR2")
     432                      .dwattr $C$DW$44, DW_AT_location[DW_OP_reg9]
     433              $C$DW$45        .dwtag  DW_TAG_TI_assign_register, DW_AT_name("XAR3")
     434                      .dwattr $C$DW$45, DW_AT_location[DW_OP_reg11]
     435              $C$DW$46        .dwtag  DW_TAG_TI_assign_register, DW_AT_name("XAR4")
     436                      .dwattr $C$DW$46, DW_AT_location[DW_OP_reg13]
     437              $C$DW$47        .dwtag  DW_TAG_TI_assign_register, DW_AT_name("XAR5")
     438                      .dwattr $C$DW$47, DW_AT_location[DW_OP_reg15]
     439              $C$DW$48        .dwtag  DW_TAG_TI_assign_register, DW_AT_name("R0HL")
     440                      .dwattr $C$DW$48, DW_AT_location[DW_OP_regx 0x2b]
     441              $C$DW$49        .dwtag  DW_TAG_TI_assign_register, DW_AT_name("R0H")
     442                      .dwattr $C$DW$49, DW_AT_location[DW_OP_regx 0x2c]
     443              $C$DW$50        .dwtag  DW_TAG_TI_assign_register, DW_AT_name("R1HL")
     444                      .dwattr $C$DW$50, DW_AT_location[DW_OP_regx 0x2f]
     445              $C$DW$51        .dwtag  DW_TAG_TI_assign_register, DW_AT_name("R1H")
     446                      .dwattr $C$DW$51, DW_AT_location[DW_OP_regx 0x30]
     447              $C$DW$52        .dwtag  DW_TAG_TI_assign_register, DW_AT_name("R2HL")
     448                      .dwattr $C$DW$52, DW_AT_location[DW_OP_regx 0x33]
     449              $C$DW$53        .dwtag  DW_TAG_TI_assign_register, DW_AT_name("R2H")
     450                      .dwattr $C$DW$53, DW_AT_location[DW_OP_regx 0x34]
     451              $C$DW$54        .dwtag  DW_TAG_TI_assign_register, DW_AT_name("R3HL")
     452                      .dwattr $C$DW$54, DW_AT_location[DW_OP_regx 0x37]
     453              $C$DW$55        .dwtag  DW_TAG_TI_assign_register, DW_AT_name("R3H")
     454                      .dwattr $C$DW$55, DW_AT_location[DW_OP_regx 0x38]
     455              $C$DW$56        .dwtag  DW_TAG_TI_assign_register, DW_AT_name("R4HL")
     456                      .dwattr $C$DW$56, DW_AT_location[DW_OP_regx 0x3b]
     457              $C$DW$57        .dwtag  DW_TAG_TI_assign_register, DW_AT_name("R4H")
     458                      .dwattr $C$DW$57, DW_AT_location[DW_OP_regx 0x3c]
     459              $C$DW$58        .dwtag  DW_TAG_TI_assign_register, DW_AT_name("R5HL")
     460                      .dwattr $C$DW$58, DW_AT_location[DW_OP_regx 0x3f]
     461              $C$DW$59        .dwtag  DW_TAG_TI_assign_register, DW_AT_name("R5H")
     462                      .dwattr $C$DW$59, DW_AT_location[DW_OP_regx 0x40]
     463              $C$DW$60        .dwtag  DW_TAG_TI_assign_register, DW_AT_name("R6HL")
     464                      .dwattr $C$DW$60, DW_AT_location[DW_OP_regx 0x43]
     465              $C$DW$61        .dwtag  DW_TAG_TI_assign_register, DW_AT_name("R6H")
     466                      .dwattr $C$DW$61, DW_AT_location[DW_OP_regx 0x44]
     467              $C$DW$62        .dwtag  DW_TAG_TI_assign_register, DW_AT_name("R7HL")
     468                      .dwattr $C$DW$62, DW_AT_location[DW_OP_regx 0x47]
     469              $C$DW$63        .dwtag  DW_TAG_TI_assign_register, DW_AT_name("R7H")
     470                      .dwattr $C$DW$63, DW_AT_location[DW_OP_regx 0x48]
     471              $C$DW$64        .dwtag  DW_TAG_TI_assign_register, DW_AT_name("RBL")
     472                      .dwattr $C$DW$64, DW_AT_location[DW_OP_regx 0x49]
     473              $C$DW$65        .dwtag  DW_TAG_TI_assign_register, DW_AT_name("RB")
     474                      .dwattr $C$DW$65, DW_AT_location[DW_OP_regx 0x4a]
     475              $C$DW$66        .dwtag  DW_TAG_TI_assign_register, DW_AT_name("STFL")
     476                      .dwattr $C$DW$66, DW_AT_location[DW_OP_regx 0x27]
TMS320C2000 Assembler PC v6.2.0 Tue May 25 14:03:59 2021

Tools Copyright (c) 1996-2013 Texas Instruments Incorporated
temperature.asm                                                      PAGE   11

     477              $C$DW$67        .dwtag  DW_TAG_TI_assign_register, DW_AT_name("STF")
     478                      .dwattr $C$DW$67, DW_AT_location[DW_OP_regx 0x28]
     479              $C$DW$68        .dwtag  DW_TAG_TI_assign_register, DW_AT_name("FPUHAZ")
     480                      .dwattr $C$DW$68, DW_AT_location[DW_OP_reg27]
     481              $C$DW$69        .dwtag  DW_TAG_TI_assign_register, DW_AT_name("CIE_RETA")
     482                      .dwattr $C$DW$69, DW_AT_location[DW_OP_regx 0x4e]
     483                      .dwendtag $C$DW$CU
     484              

No Assembly Errors, No Assembly Warnings
