TMS320C2000 Assembler PC v6.2.0 Mon Aug 31 10:04:18 2020

Tools Copyright (c) 1996-2013 Texas Instruments Incorporated
buffer.asm                                                           PAGE    1

       1              ;***************************************************************
       2              ;* TMS320C2000 C/C++ Codegen                         PC v6.2.0 *
       3              ;* Date/Time created: Mon Aug 31 10:04:18 2020                 *
       4              ;***************************************************************
       5                      .compiler_opts --float_support=fpu32 --hll_source=on --mem_model:code=flat --mem_model:data=large --o
       6        0002  FP      .set    XAR2
       7              
       8              $C$DW$CU        .dwtag  DW_TAG_compile_unit
       9                      .dwattr $C$DW$CU, DW_AT_name("../buffer.c")
      10                      .dwattr $C$DW$CU, DW_AT_producer("TMS320C2000 C/C++ Codegen PC v6.2.0 Copyright (c) 1996-2013 Texas I
      11                      .dwattr $C$DW$CU, DW_AT_TI_version(0x01)
      12                      .dwattr $C$DW$CU, DW_AT_comp_dir("C:\Users\aen17\Desktop\Working\SVN\Repository\R_Module_48V_Standard
      13 00000000       _MeasBuffer:    .usect  ".ebss",1050,1,1
      14              $C$DW$1 .dwtag  DW_TAG_variable, DW_AT_name("MeasBuffer")
      15                      .dwattr $C$DW$1, DW_AT_TI_symbol_name("_MeasBuffer")
      16                      .dwattr $C$DW$1, DW_AT_type(*$C$DW$T$22)
      17                      .dwattr $C$DW$1, DW_AT_location[DW_OP_addr _MeasBuffer]
      18              ;       C:\ti\ccsv5\tools\compiler\c2000_6.2.0\bin\ac2000.exe -@C:\\Users\\ADMINI~1\\AppData\\Local\\Temp\\04
      19 00000000               .sect   ".text"
      20                      .global _BUF_Init
      21              
      22              $C$DW$2 .dwtag  DW_TAG_subprogram, DW_AT_name("BUF_Init")
      23                      .dwattr $C$DW$2, DW_AT_low_pc(_BUF_Init)
      24                      .dwattr $C$DW$2, DW_AT_high_pc(0x00)
      25                      .dwattr $C$DW$2, DW_AT_TI_symbol_name("_BUF_Init")
      26                      .dwattr $C$DW$2, DW_AT_external
      27                      .dwattr $C$DW$2, DW_AT_TI_begin_file("../buffer.c")
      28                      .dwattr $C$DW$2, DW_AT_TI_begin_line(0x25)
      29                      .dwattr $C$DW$2, DW_AT_TI_begin_column(0x06)
      30                      .dwattr $C$DW$2, DW_AT_TI_max_frame_size(-4)
      31                      .dwpsn  file "../buffer.c",line 38,column 1,is_stmt,address _BUF_Init
      32              
      33                      .dwfde $C$DW$CIE, _BUF_Init
      34              $C$DW$3 .dwtag  DW_TAG_formal_parameter, DW_AT_name("channel")
      35                      .dwattr $C$DW$3, DW_AT_TI_symbol_name("_channel")
      36                      .dwattr $C$DW$3, DW_AT_type(*$C$DW$T$10)
      37                      .dwattr $C$DW$3, DW_AT_location[DW_OP_reg0]
      38              
      39              ;***************************************************************
      40              ;* FNAME: _BUF_Init                     FR SIZE:   2           *
      41              ;*                                                             *
      42              ;* FUNCTION ENVIRONMENT                                        *
      43              ;*                                                             *
      44              ;* FUNCTION PROPERTIES                                         *
      45              ;*                            0 Parameter,  1 Auto,  0 SOE     *
      46              ;***************************************************************
      47              
      48 00000000       _BUF_Init:
      49                      .dwcfi  cfa_offset, -2
      50                      .dwcfi  save_reg_to_mem, 26, 0
      51                      .dwcfi  save_reg_to_reg, 78, 26
      52 00000000 FE02          ADDB      SP,#2                 ; [CPU_U] 
      53                      .dwcfi  cfa_offset, -4
      54              $C$DW$4 .dwtag  DW_TAG_variable, DW_AT_name("channel")
      55                      .dwattr $C$DW$4, DW_AT_TI_symbol_name("_channel")
TMS320C2000 Assembler PC v6.2.0 Mon Aug 31 10:04:18 2020

Tools Copyright (c) 1996-2013 Texas Instruments Incorporated
buffer.asm                                                           PAGE    2

      56                      .dwattr $C$DW$4, DW_AT_type(*$C$DW$T$10)
      57                      .dwattr $C$DW$4, DW_AT_location[DW_OP_breg20 -1]
      58 00000001 9641          MOV       *-SP[1],AL            ; [CPU_] |38| 
      59                      .dwpsn  file "../buffer.c",line 39,column 3,is_stmt
      60 00000002 2D41          MOV       T,*-SP[1]             ; [CPU_] |39| 
      61 00000003 8F00-         MOVL      XAR4,#_MeasBuffer+64  ; [CPU_U] |39| 
         00000004 0040 
      62 00000005 3546          MPYB      ACC,T,#70             ; [CPU_] |39| 
      63 00000006 5601          ADDL      XAR4,ACC              ; [CPU_] |39| 
         00000007 00A4 
      64 00000008 2BC4          MOV       *+XAR4[0],#0          ; [CPU_] |39| 
      65                      .dwpsn  file "../buffer.c",line 40,column 3,is_stmt
      66 00000009 2D41          MOV       T,*-SP[1]             ; [CPU_] |40| 
      67 0000000a 8F00-         MOVL      XAR4,#_MeasBuffer+65  ; [CPU_U] |40| 
         0000000b 0041 
      68 0000000c 3546          MPYB      ACC,T,#70             ; [CPU_] |40| 
      69 0000000d 5601          ADDL      XAR4,ACC              ; [CPU_] |40| 
         0000000e 00A4 
      70 0000000f 2BC4          MOV       *+XAR4[0],#0          ; [CPU_] |40| 
      71                      .dwpsn  file "../buffer.c",line 41,column 3,is_stmt
      72 00000010 2D41          MOV       T,*-SP[1]             ; [CPU_] |41| 
      73 00000011 BE00          MOVB      XAR6,#0               ; [CPU_] |41| 
      74 00000012 8F00-         MOVL      XAR4,#_MeasBuffer+66  ; [CPU_U] |41| 
         00000013 0042 
      75 00000014 3546          MPYB      ACC,T,#70             ; [CPU_] |41| 
      76 00000015 5601          ADDL      XAR4,ACC              ; [CPU_] |41| 
         00000016 00A4 
      77 00000017 C2C4          MOVL      *+XAR4[0],XAR6        ; [CPU_] |41| 
      78                      .dwpsn  file "../buffer.c",line 42,column 1,is_stmt
      79 00000018 FE82          SUBB      SP,#2                 ; [CPU_U] 
      80                      .dwcfi  cfa_offset, -2
      81              $C$DW$5 .dwtag  DW_TAG_TI_branch
      82                      .dwattr $C$DW$5, DW_AT_low_pc(0x00)
      83                      .dwattr $C$DW$5, DW_AT_TI_return
      84 00000019 0006          LRETR     ; [CPU_] 
      85                      ; return occurs ; [] 
      86                      .dwattr $C$DW$2, DW_AT_TI_end_file("../buffer.c")
      87                      .dwattr $C$DW$2, DW_AT_TI_end_line(0x2a)
      88                      .dwattr $C$DW$2, DW_AT_TI_end_column(0x01)
      89                      .dwendentry
      90                      .dwendtag $C$DW$2
      91              
      92 0000001a               .sect   ".text"
      93                      .global _BUF_Count
      94              
      95              $C$DW$6 .dwtag  DW_TAG_subprogram, DW_AT_name("BUF_Count")
      96                      .dwattr $C$DW$6, DW_AT_low_pc(_BUF_Count)
      97                      .dwattr $C$DW$6, DW_AT_high_pc(0x00)
      98                      .dwattr $C$DW$6, DW_AT_TI_symbol_name("_BUF_Count")
      99                      .dwattr $C$DW$6, DW_AT_external
     100                      .dwattr $C$DW$6, DW_AT_type(*$C$DW$T$9)
     101                      .dwattr $C$DW$6, DW_AT_TI_begin_file("../buffer.c")
     102                      .dwattr $C$DW$6, DW_AT_TI_begin_line(0x2c)
     103                      .dwattr $C$DW$6, DW_AT_TI_begin_column(0x08)
     104                      .dwattr $C$DW$6, DW_AT_TI_max_frame_size(-4)
TMS320C2000 Assembler PC v6.2.0 Mon Aug 31 10:04:18 2020

Tools Copyright (c) 1996-2013 Texas Instruments Incorporated
buffer.asm                                                           PAGE    3

     105                      .dwpsn  file "../buffer.c",line 44,column 30,is_stmt,address _BUF_Count
     106              
     107                      .dwfde $C$DW$CIE, _BUF_Count
     108              $C$DW$7 .dwtag  DW_TAG_formal_parameter, DW_AT_name("channel")
     109                      .dwattr $C$DW$7, DW_AT_TI_symbol_name("_channel")
     110                      .dwattr $C$DW$7, DW_AT_type(*$C$DW$T$10)
     111                      .dwattr $C$DW$7, DW_AT_location[DW_OP_reg0]
     112              
     113              ;***************************************************************
     114              ;* FNAME: _BUF_Count                    FR SIZE:   2           *
     115              ;*                                                             *
     116              ;* FUNCTION ENVIRONMENT                                        *
     117              ;*                                                             *
     118              ;* FUNCTION PROPERTIES                                         *
     119              ;*                            0 Parameter,  1 Auto,  0 SOE     *
     120              ;***************************************************************
     121              
     122 0000001a       _BUF_Count:
     123                      .dwcfi  cfa_offset, -2
     124                      .dwcfi  save_reg_to_mem, 26, 0
     125                      .dwcfi  save_reg_to_reg, 78, 26
     126 0000001a FE02          ADDB      SP,#2                 ; [CPU_U] 
     127                      .dwcfi  cfa_offset, -4
     128              $C$DW$8 .dwtag  DW_TAG_variable, DW_AT_name("channel")
     129                      .dwattr $C$DW$8, DW_AT_TI_symbol_name("_channel")
     130                      .dwattr $C$DW$8, DW_AT_type(*$C$DW$T$10)
     131                      .dwattr $C$DW$8, DW_AT_location[DW_OP_breg20 -1]
     132 0000001b 9641          MOV       *-SP[1],AL            ; [CPU_] |44| 
     133                      .dwpsn  file "../buffer.c",line 45,column 3,is_stmt
     134 0000001c 2D41          MOV       T,*-SP[1]             ; [CPU_] |45| 
     135 0000001d 8F00-         MOVL      XAR4,#_MeasBuffer+64  ; [CPU_U] |45| 
         0000001e 0040 
     136 0000001f 3546          MPYB      ACC,T,#70             ; [CPU_] |45| 
     137 00000020 5601          ADDL      XAR4,ACC              ; [CPU_] |45| 
         00000021 00A4 
     138 00000022 92C4          MOV       AL,*+XAR4[0]          ; [CPU_] |45| 
     139                      .dwpsn  file "../buffer.c",line 46,column 1,is_stmt
     140 00000023 FE82          SUBB      SP,#2                 ; [CPU_U] 
     141                      .dwcfi  cfa_offset, -2
     142              $C$DW$9 .dwtag  DW_TAG_TI_branch
     143                      .dwattr $C$DW$9, DW_AT_low_pc(0x00)
     144                      .dwattr $C$DW$9, DW_AT_TI_return
     145 00000024 0006          LRETR     ; [CPU_] 
     146                      ; return occurs ; [] 
     147                      .dwattr $C$DW$6, DW_AT_TI_end_file("../buffer.c")
     148                      .dwattr $C$DW$6, DW_AT_TI_end_line(0x2e)
     149                      .dwattr $C$DW$6, DW_AT_TI_end_column(0x01)
     150                      .dwendentry
     151                      .dwendtag $C$DW$6
     152              
     153 00000025               .sect   ".text"
     154                      .global _BUF_Write
     155              
     156              $C$DW$10        .dwtag  DW_TAG_subprogram, DW_AT_name("BUF_Write")
     157                      .dwattr $C$DW$10, DW_AT_low_pc(_BUF_Write)
TMS320C2000 Assembler PC v6.2.0 Mon Aug 31 10:04:18 2020

Tools Copyright (c) 1996-2013 Texas Instruments Incorporated
buffer.asm                                                           PAGE    4

     158                      .dwattr $C$DW$10, DW_AT_high_pc(0x00)
     159                      .dwattr $C$DW$10, DW_AT_TI_symbol_name("_BUF_Write")
     160                      .dwattr $C$DW$10, DW_AT_external
     161                      .dwattr $C$DW$10, DW_AT_TI_begin_file("../buffer.c")
     162                      .dwattr $C$DW$10, DW_AT_TI_begin_line(0x31)
     163                      .dwattr $C$DW$10, DW_AT_TI_begin_column(0x06)
     164                      .dwattr $C$DW$10, DW_AT_TI_max_frame_size(-10)
     165                      .dwpsn  file "../buffer.c",line 50,column 1,is_stmt,address _BUF_Write
     166              
     167                      .dwfde $C$DW$CIE, _BUF_Write
     168              $C$DW$11        .dwtag  DW_TAG_formal_parameter, DW_AT_name("channel")
     169                      .dwattr $C$DW$11, DW_AT_TI_symbol_name("_channel")
     170                      .dwattr $C$DW$11, DW_AT_type(*$C$DW$T$10)
     171                      .dwattr $C$DW$11, DW_AT_location[DW_OP_reg0]
     172              $C$DW$12        .dwtag  DW_TAG_formal_parameter, DW_AT_name("val")
     173                      .dwattr $C$DW$12, DW_AT_TI_symbol_name("_val")
     174                      .dwattr $C$DW$12, DW_AT_type(*$C$DW$T$9)
     175                      .dwattr $C$DW$12, DW_AT_location[DW_OP_reg1]
     176              
     177              ;***************************************************************
     178              ;* FNAME: _BUF_Write                    FR SIZE:   8           *
     179              ;*                                                             *
     180              ;* FUNCTION ENVIRONMENT                                        *
     181              ;*                                                             *
     182              ;* FUNCTION PROPERTIES                                         *
     183              ;*                            0 Parameter,  8 Auto,  0 SOE     *
     184              ;***************************************************************
     185              
     186 00000025       _BUF_Write:
     187                      .dwcfi  cfa_offset, -2
     188                      .dwcfi  save_reg_to_mem, 26, 0
     189                      .dwcfi  save_reg_to_reg, 78, 26
     190 00000025 FE08          ADDB      SP,#8                 ; [CPU_U] 
     191                      .dwcfi  cfa_offset, -10
     192              $C$DW$13        .dwtag  DW_TAG_variable, DW_AT_name("channel")
     193                      .dwattr $C$DW$13, DW_AT_TI_symbol_name("_channel")
     194                      .dwattr $C$DW$13, DW_AT_type(*$C$DW$T$10)
     195                      .dwattr $C$DW$13, DW_AT_location[DW_OP_breg20 -1]
     196              $C$DW$14        .dwtag  DW_TAG_variable, DW_AT_name("val")
     197                      .dwattr $C$DW$14, DW_AT_TI_symbol_name("_val")
     198                      .dwattr $C$DW$14, DW_AT_type(*$C$DW$T$9)
     199                      .dwattr $C$DW$14, DW_AT_location[DW_OP_breg20 -2]
     200              $C$DW$15        .dwtag  DW_TAG_variable, DW_AT_name("index")
     201                      .dwattr $C$DW$15, DW_AT_TI_symbol_name("_index")
     202                      .dwattr $C$DW$15, DW_AT_type(*$C$DW$T$9)
     203                      .dwattr $C$DW$15, DW_AT_location[DW_OP_breg20 -3]
     204              $C$DW$16        .dwtag  DW_TAG_variable, DW_AT_name("index_n")
     205                      .dwattr $C$DW$16, DW_AT_TI_symbol_name("_index_n")
     206                      .dwattr $C$DW$16, DW_AT_type(*$C$DW$T$9)
     207                      .dwattr $C$DW$16, DW_AT_location[DW_OP_breg20 -4]
     208              $C$DW$17        .dwtag  DW_TAG_variable, DW_AT_name("n")
     209                      .dwattr $C$DW$17, DW_AT_TI_symbol_name("_n")
     210                      .dwattr $C$DW$17, DW_AT_type(*$C$DW$T$9)
     211                      .dwattr $C$DW$17, DW_AT_location[DW_OP_breg20 -5]
     212              $C$DW$18        .dwtag  DW_TAG_variable, DW_AT_name("sum")
TMS320C2000 Assembler PC v6.2.0 Mon Aug 31 10:04:18 2020

Tools Copyright (c) 1996-2013 Texas Instruments Incorporated
buffer.asm                                                           PAGE    5

     213                      .dwattr $C$DW$18, DW_AT_TI_symbol_name("_sum")
     214                      .dwattr $C$DW$18, DW_AT_type(*$C$DW$T$13)
     215                      .dwattr $C$DW$18, DW_AT_location[DW_OP_breg20 -8]
     216 00000026 9742          MOV       *-SP[2],AH            ; [CPU_] |50| 
     217 00000027 9641          MOV       *-SP[1],AL            ; [CPU_] |50| 
     218                      .dwpsn  file "../buffer.c",line 56,column 3,is_stmt
     219 00000028 2D41          MOV       T,*-SP[1]             ; [CPU_] |56| 
     220 00000029 76C0-         MOVL      XAR7,#_MeasBuffer+64  ; [CPU_U] |56| 
         0000002a 0040 
     221 0000002b 3546          MPYB      ACC,T,#70             ; [CPU_] |56| 
     222 0000002c 5601          ADDL      XAR7,ACC              ; [CPU_] |56| 
         0000002d 00A7 
     223 0000002e 92C7          MOV       AL,*XAR7              ; [CPU_] |56| 
     224 0000002f 9645          MOV       *-SP[5],AL            ; [CPU_] |56| 
     225                      .dwpsn  file "../buffer.c",line 57,column 3,is_stmt
     226 00000030 76C0-         MOVL      XAR7,#_MeasBuffer+65  ; [CPU_U] |57| 
         00000031 0041 
     227 00000032 3546          MPYB      ACC,T,#70             ; [CPU_] |57| 
     228 00000033 5601          ADDL      XAR7,ACC              ; [CPU_] |57| 
         00000034 00A7 
     229 00000035 92C7          MOV       AL,*XAR7              ; [CPU_] |57| 
     230 00000036 9643          MOV       *-SP[3],AL            ; [CPU_] |57| 
     231                      .dwpsn  file "../buffer.c",line 59,column 3,is_stmt
     232 00000037 9245          MOV       AL,*-SP[5]            ; [CPU_] |59| 
     233 00000038 9443          ADD       AL,*-SP[3]            ; [CPU_] |59| 
     234 00000039 903F          ANDB      AL,#0x3f              ; [CPU_] |59| 
     235 0000003a 9644          MOV       *-SP[4],AL            ; [CPU_] |59| 
     236                      .dwpsn  file "../buffer.c",line 60,column 3,is_stmt
     237 0000003b 9245          MOV       AL,*-SP[5]            ; [CPU_] |60| 
     238 0000003c 5240          CMPB      AL,#64                ; [CPU_] |60| 
     239 0000003d 6805          B         $C$L1,LO              ; [CPU_] |60| 
     240                      ; branchcc occurs ; [] |60| 
     241                      .dwpsn  file "../buffer.c",line 62,column 5,is_stmt
     242 0000003e 9243          MOV       AL,*-SP[3]            ; [CPU_] |62| 
     243 0000003f 9C01          ADDB      AL,#1                 ; [CPU_] |62| 
     244 00000040 903F          ANDB      AL,#0x3f              ; [CPU_] |62| 
     245 00000041 9643          MOV       *-SP[3],AL            ; [CPU_] |62| 
     246 00000042       $C$L1:    
     247                      .dwpsn  file "../buffer.c",line 64,column 3,is_stmt
     248 00000042 3546          MPYB      ACC,T,#70             ; [CPU_] |64| 
     249 00000043 8F00-         MOVL      XAR4,#_MeasBuffer+66  ; [CPU_U] |64| 
         00000044 0042 
     250 00000045 5601          ADDL      XAR4,ACC              ; [CPU_] |64| 
         00000046 00A4 
     251 00000047 06C4          MOVL      ACC,*+XAR4[0]         ; [CPU_] |64| 
     252 00000048 1E48          MOVL      *-SP[8],ACC           ; [CPU_] |64| 
     253                      .dwpsn  file "../buffer.c",line 65,column 3,is_stmt
     254 00000049 9245          MOV       AL,*-SP[5]            ; [CPU_] |65| 
     255 0000004a 5240          CMPB      AL,#64                ; [CPU_] |65| 
     256 0000004b 680A          B         $C$L2,LO              ; [CPU_] |65| 
     257                      ; branchcc occurs ; [] |65| 
     258                      .dwpsn  file "../buffer.c",line 66,column 5,is_stmt
     259 0000004c 5844          MOVZ      AR0,*-SP[4]           ; [CPU_] |66| 
     260 0000004d 3546          MPYB      ACC,T,#70             ; [CPU_] |66| 
     261 0000004e 8F00-         MOVL      XAR4,#_MeasBuffer     ; [CPU_U] |66| 
TMS320C2000 Assembler PC v6.2.0 Mon Aug 31 10:04:18 2020

Tools Copyright (c) 1996-2013 Texas Instruments Incorporated
buffer.asm                                                           PAGE    6

         0000004f 0000 
     262 00000050 5601          ADDL      XAR4,ACC              ; [CPU_] |66| 
         00000051 00A4 
     263 00000052 0E94          MOVU      ACC,*+XAR4[AR0]       ; [CPU_] |66| 
     264 00000053 5641          SUBL      *-SP[8],ACC           ; [CPU_] |66| 
         00000054 0048 
     265 00000055       $C$L2:    
     266                      .dwpsn  file "../buffer.c",line 68,column 3,is_stmt
     267 00000055 5844          MOVZ      AR0,*-SP[4]           ; [CPU_] |68| 
     268 00000056 8842          MOVZ      AR6,*-SP[2]           ; [CPU_] |68| 
     269 00000057 3546          MPYB      ACC,T,#70             ; [CPU_] |68| 
     270 00000058 8F00-         MOVL      XAR4,#_MeasBuffer     ; [CPU_U] |68| 
         00000059 0000 
     271 0000005a 5601          ADDL      XAR4,ACC              ; [CPU_] |68| 
         0000005b 00A4 
     272 0000005c 7E94          MOV       *+XAR4[AR0],AR6       ; [CPU_] |68| 
     273                      .dwpsn  file "../buffer.c",line 69,column 3,is_stmt
     274 0000005d 0E42          MOVU      ACC,*-SP[2]           ; [CPU_] |69| 
     275 0000005e 0748          ADDL      ACC,*-SP[8]           ; [CPU_] |69| 
     276 0000005f 1E48          MOVL      *-SP[8],ACC           ; [CPU_] |69| 
     277                      .dwpsn  file "../buffer.c",line 70,column 3,is_stmt
     278 00000060 2D41          MOV       T,*-SP[1]             ; [CPU_] |70| 
     279 00000061 C448          MOVL      XAR6,*-SP[8]          ; [CPU_] |70| 
     280 00000062 8F00-         MOVL      XAR4,#_MeasBuffer+66  ; [CPU_U] |70| 
         00000063 0042 
     281 00000064 3546          MPYB      ACC,T,#70             ; [CPU_] |70| 
     282 00000065 5601          ADDL      XAR4,ACC              ; [CPU_] |70| 
         00000066 00A4 
     283 00000067 C2C4          MOVL      *+XAR4[0],XAR6        ; [CPU_] |70| 
     284                      .dwpsn  file "../buffer.c",line 71,column 3,is_stmt
     285 00000068 9245          MOV       AL,*-SP[5]            ; [CPU_] |71| 
     286 00000069 5240          CMPB      AL,#64                ; [CPU_] |71| 
     287 0000006a 6702          B         $C$L3,HIS             ; [CPU_] |71| 
     288                      ; branchcc occurs ; [] |71| 
     289                      .dwpsn  file "../buffer.c",line 71,column 25,is_stmt
     290 0000006b 0A45          INC       *-SP[5]               ; [CPU_] |71| 
     291 0000006c       $C$L3:    
     292                      .dwpsn  file "../buffer.c",line 72,column 3,is_stmt
     293 0000006c 2D41          MOV       T,*-SP[1]             ; [CPU_] |72| 
     294 0000006d 8843          MOVZ      AR6,*-SP[3]           ; [CPU_] |72| 
     295 0000006e 8F00-         MOVL      XAR4,#_MeasBuffer+65  ; [CPU_U] |72| 
         0000006f 0041 
     296 00000070 3546          MPYB      ACC,T,#70             ; [CPU_] |72| 
     297 00000071 5601          ADDL      XAR4,ACC              ; [CPU_] |72| 
         00000072 00A4 
     298 00000073 7EC4          MOV       *+XAR4[0],AR6         ; [CPU_] |72| 
     299                      .dwpsn  file "../buffer.c",line 73,column 3,is_stmt
     300 00000074 2D41          MOV       T,*-SP[1]             ; [CPU_] |73| 
     301 00000075 8845          MOVZ      AR6,*-SP[5]           ; [CPU_] |73| 
     302 00000076 8F00-         MOVL      XAR4,#_MeasBuffer+64  ; [CPU_U] |73| 
         00000077 0040 
     303 00000078 3546          MPYB      ACC,T,#70             ; [CPU_] |73| 
     304 00000079 5601          ADDL      XAR4,ACC              ; [CPU_] |73| 
         0000007a 00A4 
     305 0000007b 7EC4          MOV       *+XAR4[0],AR6         ; [CPU_] |73| 
TMS320C2000 Assembler PC v6.2.0 Mon Aug 31 10:04:18 2020

Tools Copyright (c) 1996-2013 Texas Instruments Incorporated
buffer.asm                                                           PAGE    7

     306                      .dwpsn  file "../buffer.c",line 78,column 3,is_stmt
     307 0000007c 2D41          MOV       T,*-SP[1]             ; [CPU_] |78| 
     308 0000007d 8848          MOVZ      AR6,*-SP[8]           ; [CPU_] |78| 
     309 0000007e 8F00-         MOVL      XAR4,#_MeasBuffer+68  ; [CPU_U] |78| 
         0000007f 0044 
     310 00000080 3546          MPYB      ACC,T,#70             ; [CPU_] |78| 
     311 00000081 5601          ADDL      XAR4,ACC              ; [CPU_] |78| 
         00000082 00A4 
     312 00000083 7EC4          MOV       *+XAR4[0],AR6         ; [CPU_] |78| 
     313                      .dwpsn  file "../buffer.c",line 79,column 1,is_stmt
     314 00000084 FE88          SUBB      SP,#8                 ; [CPU_U] 
     315                      .dwcfi  cfa_offset, -2
     316              $C$DW$19        .dwtag  DW_TAG_TI_branch
     317                      .dwattr $C$DW$19, DW_AT_low_pc(0x00)
     318                      .dwattr $C$DW$19, DW_AT_TI_return
     319 00000085 0006          LRETR     ; [CPU_] 
     320                      ; return occurs ; [] 
     321                      .dwattr $C$DW$10, DW_AT_TI_end_file("../buffer.c")
     322                      .dwattr $C$DW$10, DW_AT_TI_end_line(0x4f)
     323                      .dwattr $C$DW$10, DW_AT_TI_end_column(0x01)
     324                      .dwendentry
     325                      .dwendtag $C$DW$10
     326              
     327 00000086               .sect   ".text"
     328                      .global _BUF_Sum
     329              
     330              $C$DW$20        .dwtag  DW_TAG_subprogram, DW_AT_name("BUF_Sum")
     331                      .dwattr $C$DW$20, DW_AT_low_pc(_BUF_Sum)
     332                      .dwattr $C$DW$20, DW_AT_high_pc(0x00)
     333                      .dwattr $C$DW$20, DW_AT_TI_symbol_name("_BUF_Sum")
     334                      .dwattr $C$DW$20, DW_AT_external
     335                      .dwattr $C$DW$20, DW_AT_type(*$C$DW$T$13)
     336                      .dwattr $C$DW$20, DW_AT_TI_begin_file("../buffer.c")
     337                      .dwattr $C$DW$20, DW_AT_TI_begin_line(0x51)
     338                      .dwattr $C$DW$20, DW_AT_TI_begin_column(0x08)
     339                      .dwattr $C$DW$20, DW_AT_TI_max_frame_size(-4)
     340                      .dwpsn  file "../buffer.c",line 82,column 1,is_stmt,address _BUF_Sum
     341              
     342                      .dwfde $C$DW$CIE, _BUF_Sum
     343              $C$DW$21        .dwtag  DW_TAG_formal_parameter, DW_AT_name("channel")
     344                      .dwattr $C$DW$21, DW_AT_TI_symbol_name("_channel")
     345                      .dwattr $C$DW$21, DW_AT_type(*$C$DW$T$10)
     346                      .dwattr $C$DW$21, DW_AT_location[DW_OP_reg0]
     347              
     348              ;***************************************************************
     349              ;* FNAME: _BUF_Sum                      FR SIZE:   2           *
     350              ;*                                                             *
     351              ;* FUNCTION ENVIRONMENT                                        *
     352              ;*                                                             *
     353              ;* FUNCTION PROPERTIES                                         *
     354              ;*                            0 Parameter,  1 Auto,  0 SOE     *
     355              ;***************************************************************
     356              
     357 00000086       _BUF_Sum:
     358                      .dwcfi  cfa_offset, -2
TMS320C2000 Assembler PC v6.2.0 Mon Aug 31 10:04:18 2020

Tools Copyright (c) 1996-2013 Texas Instruments Incorporated
buffer.asm                                                           PAGE    8

     359                      .dwcfi  save_reg_to_mem, 26, 0
     360                      .dwcfi  save_reg_to_reg, 78, 26
     361 00000086 FE02          ADDB      SP,#2                 ; [CPU_U] 
     362                      .dwcfi  cfa_offset, -4
     363              $C$DW$22        .dwtag  DW_TAG_variable, DW_AT_name("channel")
     364                      .dwattr $C$DW$22, DW_AT_TI_symbol_name("_channel")
     365                      .dwattr $C$DW$22, DW_AT_type(*$C$DW$T$10)
     366                      .dwattr $C$DW$22, DW_AT_location[DW_OP_breg20 -1]
     367 00000087 9641          MOV       *-SP[1],AL            ; [CPU_] |82| 
     368                      .dwpsn  file "../buffer.c",line 83,column 3,is_stmt
     369 00000088 2D41          MOV       T,*-SP[1]             ; [CPU_] |83| 
     370 00000089 8F00-         MOVL      XAR4,#_MeasBuffer+66  ; [CPU_U] |83| 
         0000008a 0042 
     371 0000008b 3546          MPYB      ACC,T,#70             ; [CPU_] |83| 
     372 0000008c 5601          ADDL      XAR4,ACC              ; [CPU_] |83| 
         0000008d 00A4 
     373 0000008e 06C4          MOVL      ACC,*+XAR4[0]         ; [CPU_] |83| 
     374                      .dwpsn  file "../buffer.c",line 84,column 1,is_stmt
     375 0000008f FE82          SUBB      SP,#2                 ; [CPU_U] 
     376                      .dwcfi  cfa_offset, -2
     377              $C$DW$23        .dwtag  DW_TAG_TI_branch
     378                      .dwattr $C$DW$23, DW_AT_low_pc(0x00)
     379                      .dwattr $C$DW$23, DW_AT_TI_return
     380 00000090 0006          LRETR     ; [CPU_] 
     381                      ; return occurs ; [] 
     382                      .dwattr $C$DW$20, DW_AT_TI_end_file("../buffer.c")
     383                      .dwattr $C$DW$20, DW_AT_TI_end_line(0x54)
     384                      .dwattr $C$DW$20, DW_AT_TI_end_column(0x01)
     385                      .dwendentry
     386                      .dwendtag $C$DW$20
     387              
     388 00000091               .sect   ".text"
     389                      .global _BUF_Mean
     390              
     391              $C$DW$24        .dwtag  DW_TAG_subprogram, DW_AT_name("BUF_Mean")
     392                      .dwattr $C$DW$24, DW_AT_low_pc(_BUF_Mean)
     393                      .dwattr $C$DW$24, DW_AT_high_pc(0x00)
     394                      .dwattr $C$DW$24, DW_AT_TI_symbol_name("_BUF_Mean")
     395                      .dwattr $C$DW$24, DW_AT_external
     396                      .dwattr $C$DW$24, DW_AT_type(*$C$DW$T$9)
     397                      .dwattr $C$DW$24, DW_AT_TI_begin_file("../buffer.c")
     398                      .dwattr $C$DW$24, DW_AT_TI_begin_line(0x56)
     399                      .dwattr $C$DW$24, DW_AT_TI_begin_column(0x08)
     400                      .dwattr $C$DW$24, DW_AT_TI_max_frame_size(-6)
     401                      .dwpsn  file "../buffer.c",line 87,column 1,is_stmt,address _BUF_Mean
     402              
     403                      .dwfde $C$DW$CIE, _BUF_Mean
     404              $C$DW$25        .dwtag  DW_TAG_formal_parameter, DW_AT_name("channel")
     405                      .dwattr $C$DW$25, DW_AT_TI_symbol_name("_channel")
     406                      .dwattr $C$DW$25, DW_AT_type(*$C$DW$T$10)
     407                      .dwattr $C$DW$25, DW_AT_location[DW_OP_reg0]
     408              
     409              ;***************************************************************
     410              ;* FNAME: _BUF_Mean                     FR SIZE:   4           *
     411              ;*                                                             *
TMS320C2000 Assembler PC v6.2.0 Mon Aug 31 10:04:18 2020

Tools Copyright (c) 1996-2013 Texas Instruments Incorporated
buffer.asm                                                           PAGE    9

     412              ;* FUNCTION ENVIRONMENT                                        *
     413              ;*                                                             *
     414              ;* FUNCTION PROPERTIES                                         *
     415              ;*                            0 Parameter,  3 Auto,  0 SOE     *
     416              ;***************************************************************
     417              
     418 00000091       _BUF_Mean:
     419                      .dwcfi  cfa_offset, -2
     420                      .dwcfi  save_reg_to_mem, 26, 0
     421                      .dwcfi  save_reg_to_reg, 78, 26
     422 00000091 FE04          ADDB      SP,#4                 ; [CPU_U] 
     423                      .dwcfi  cfa_offset, -6
     424              $C$DW$26        .dwtag  DW_TAG_variable, DW_AT_name("channel")
     425                      .dwattr $C$DW$26, DW_AT_TI_symbol_name("_channel")
     426                      .dwattr $C$DW$26, DW_AT_type(*$C$DW$T$10)
     427                      .dwattr $C$DW$26, DW_AT_location[DW_OP_breg20 -1]
     428              $C$DW$27        .dwtag  DW_TAG_variable, DW_AT_name("n")
     429                      .dwattr $C$DW$27, DW_AT_TI_symbol_name("_n")
     430                      .dwattr $C$DW$27, DW_AT_type(*$C$DW$T$9)
     431                      .dwattr $C$DW$27, DW_AT_location[DW_OP_breg20 -2]
     432              $C$DW$28        .dwtag  DW_TAG_variable, DW_AT_name("res")
     433                      .dwattr $C$DW$28, DW_AT_TI_symbol_name("_res")
     434                      .dwattr $C$DW$28, DW_AT_type(*$C$DW$T$9)
     435                      .dwattr $C$DW$28, DW_AT_location[DW_OP_breg20 -3]
     436 00000092 9641          MOV       *-SP[1],AL            ; [CPU_] |87| 
     437                      .dwpsn  file "../buffer.c",line 90,column 3,is_stmt
     438 00000093 2D41          MOV       T,*-SP[1]             ; [CPU_] |90| 
     439 00000094 76C0-         MOVL      XAR7,#_MeasBuffer+64  ; [CPU_U] |90| 
         00000095 0040 
     440 00000096 3546          MPYB      ACC,T,#70             ; [CPU_] |90| 
     441 00000097 5601          ADDL      XAR7,ACC              ; [CPU_] |90| 
         00000098 00A7 
     442 00000099 92C7          MOV       AL,*XAR7              ; [CPU_] |90| 
     443 0000009a 9642          MOV       *-SP[2],AL            ; [CPU_] |90| 
     444                      .dwpsn  file "../buffer.c",line 91,column 3,is_stmt
     445 0000009b EC0E          BF        $C$L4,EQ              ; [CPU_] |91| 
     446                      ; branchcc occurs ; [] |91| 
     447                      .dwpsn  file "../buffer.c",line 91,column 12,is_stmt
     448 0000009c 3546          MPYB      ACC,T,#70             ; [CPU_] |91| 
     449 0000009d 8F00-         MOVL      XAR4,#_MeasBuffer+66  ; [CPU_U] |91| 
         0000009e 0042 
     450 0000009f 8842          MOVZ      AR6,*-SP[2]           ; [CPU_] |91| 
     451 000000a0 5601          ADDL      XAR4,ACC              ; [CPU_] |91| 
         000000a1 00A4 
     452 000000a2 A3C4          MOVL      P,*+XAR4[0]           ; [CPU_] |91| 
     453 000000a3 0200          MOVB      ACC,#0                ; [CPU_] |91| 
     454 000000a4 F61F          RPT       #31
     455 000000a5 5617  ||     SUBCUL    ACC,XAR6              ; [CPU_] |91| 
         000000a6 00A6 
     456 000000a7 3F43          MOV       *-SP[3],P             ; [CPU_] |91| 
     457 000000a8 6F02          B         $C$L5,UNC             ; [CPU_] |91| 
     458                      ; branch occurs ; [] |91| 
     459 000000a9       $C$L4:    
     460                      .dwpsn  file "../buffer.c",line 92,column 8,is_stmt
     461 000000a9 2B43          MOV       *-SP[3],#0            ; [CPU_] |92| 
TMS320C2000 Assembler PC v6.2.0 Mon Aug 31 10:04:18 2020

Tools Copyright (c) 1996-2013 Texas Instruments Incorporated
buffer.asm                                                           PAGE   10

     462 000000aa       $C$L5:    
     463                      .dwpsn  file "../buffer.c",line 93,column 3,is_stmt
     464 000000aa 9243          MOV       AL,*-SP[3]            ; [CPU_] |93| 
     465                      .dwpsn  file "../buffer.c",line 94,column 1,is_stmt
     466 000000ab FE84          SUBB      SP,#4                 ; [CPU_U] 
     467                      .dwcfi  cfa_offset, -2
     468              $C$DW$29        .dwtag  DW_TAG_TI_branch
     469                      .dwattr $C$DW$29, DW_AT_low_pc(0x00)
     470                      .dwattr $C$DW$29, DW_AT_TI_return
     471 000000ac 0006          LRETR     ; [CPU_] 
     472                      ; return occurs ; [] 
     473                      .dwattr $C$DW$24, DW_AT_TI_end_file("../buffer.c")
     474                      .dwattr $C$DW$24, DW_AT_TI_end_line(0x5e)
     475                      .dwattr $C$DW$24, DW_AT_TI_end_column(0x01)
     476                      .dwendentry
     477                      .dwendtag $C$DW$24
     478              
     479 000000ad               .sect   ".text"
     480                      .global _BUF_SumLast
     481              
     482              $C$DW$30        .dwtag  DW_TAG_subprogram, DW_AT_name("BUF_SumLast")
     483                      .dwattr $C$DW$30, DW_AT_low_pc(_BUF_SumLast)
     484                      .dwattr $C$DW$30, DW_AT_high_pc(0x00)
     485                      .dwattr $C$DW$30, DW_AT_TI_symbol_name("_BUF_SumLast")
     486                      .dwattr $C$DW$30, DW_AT_external
     487                      .dwattr $C$DW$30, DW_AT_type(*$C$DW$T$13)
     488                      .dwattr $C$DW$30, DW_AT_TI_begin_file("../buffer.c")
     489                      .dwattr $C$DW$30, DW_AT_TI_begin_line(0x60)
     490                      .dwattr $C$DW$30, DW_AT_TI_begin_column(0x08)
     491                      .dwattr $C$DW$30, DW_AT_TI_max_frame_size(-14)
     492                      .dwpsn  file "../buffer.c",line 96,column 51,is_stmt,address _BUF_SumLast
     493              
     494                      .dwfde $C$DW$CIE, _BUF_SumLast
     495              $C$DW$31        .dwtag  DW_TAG_formal_parameter, DW_AT_name("channel")
     496                      .dwattr $C$DW$31, DW_AT_TI_symbol_name("_channel")
     497                      .dwattr $C$DW$31, DW_AT_type(*$C$DW$T$10)
     498                      .dwattr $C$DW$31, DW_AT_location[DW_OP_reg0]
     499              $C$DW$32        .dwtag  DW_TAG_formal_parameter, DW_AT_name("nb")
     500                      .dwattr $C$DW$32, DW_AT_TI_symbol_name("_nb")
     501                      .dwattr $C$DW$32, DW_AT_type(*$C$DW$T$10)
     502                      .dwattr $C$DW$32, DW_AT_location[DW_OP_reg1]
     503              $C$DW$33        .dwtag  DW_TAG_formal_parameter, DW_AT_name("filter")
     504                      .dwattr $C$DW$33, DW_AT_TI_symbol_name("_filter")
     505                      .dwattr $C$DW$33, DW_AT_type(*$C$DW$T$26)
     506                      .dwattr $C$DW$33, DW_AT_location[DW_OP_reg12]
     507              
     508              ;***************************************************************
     509              ;* FNAME: _BUF_SumLast                  FR SIZE:  12           *
     510              ;*                                                             *
     511              ;* FUNCTION ENVIRONMENT                                        *
     512              ;*                                                             *
     513              ;* FUNCTION PROPERTIES                                         *
     514              ;*                            0 Parameter, 11 Auto,  0 SOE     *
     515              ;***************************************************************
     516              
TMS320C2000 Assembler PC v6.2.0 Mon Aug 31 10:04:18 2020

Tools Copyright (c) 1996-2013 Texas Instruments Incorporated
buffer.asm                                                           PAGE   11

     517 000000ad       _BUF_SumLast:
     518                      .dwcfi  cfa_offset, -2
     519                      .dwcfi  save_reg_to_mem, 26, 0
     520                      .dwcfi  save_reg_to_reg, 78, 26
     521 000000ad FE0C          ADDB      SP,#12                ; [CPU_U] 
     522                      .dwcfi  cfa_offset, -14
     523              $C$DW$34        .dwtag  DW_TAG_variable, DW_AT_name("channel")
     524                      .dwattr $C$DW$34, DW_AT_TI_symbol_name("_channel")
     525                      .dwattr $C$DW$34, DW_AT_type(*$C$DW$T$10)
     526                      .dwattr $C$DW$34, DW_AT_location[DW_OP_breg20 -1]
     527              $C$DW$35        .dwtag  DW_TAG_variable, DW_AT_name("nb")
     528                      .dwattr $C$DW$35, DW_AT_TI_symbol_name("_nb")
     529                      .dwattr $C$DW$35, DW_AT_type(*$C$DW$T$10)
     530                      .dwattr $C$DW$35, DW_AT_location[DW_OP_breg20 -2]
     531              $C$DW$36        .dwtag  DW_TAG_variable, DW_AT_name("filter")
     532                      .dwattr $C$DW$36, DW_AT_TI_symbol_name("_filter")
     533                      .dwattr $C$DW$36, DW_AT_type(*$C$DW$T$26)
     534                      .dwattr $C$DW$36, DW_AT_location[DW_OP_breg20 -3]
     535              $C$DW$37        .dwtag  DW_TAG_variable, DW_AT_name("index")
     536                      .dwattr $C$DW$37, DW_AT_TI_symbol_name("_index")
     537                      .dwattr $C$DW$37, DW_AT_type(*$C$DW$T$9)
     538                      .dwattr $C$DW$37, DW_AT_location[DW_OP_breg20 -4]
     539              $C$DW$38        .dwtag  DW_TAG_variable, DW_AT_name("i")
     540                      .dwattr $C$DW$38, DW_AT_TI_symbol_name("_i")
     541                      .dwattr $C$DW$38, DW_AT_type(*$C$DW$T$9)
     542                      .dwattr $C$DW$38, DW_AT_location[DW_OP_breg20 -5]
     543              $C$DW$39        .dwtag  DW_TAG_variable, DW_AT_name("sum")
     544                      .dwattr $C$DW$39, DW_AT_TI_symbol_name("_sum")
     545                      .dwattr $C$DW$39, DW_AT_type(*$C$DW$T$13)
     546                      .dwattr $C$DW$39, DW_AT_location[DW_OP_breg20 -8]
     547              $C$DW$40        .dwtag  DW_TAG_variable, DW_AT_name("min")
     548                      .dwattr $C$DW$40, DW_AT_TI_symbol_name("_min")
     549                      .dwattr $C$DW$40, DW_AT_type(*$C$DW$T$9)
     550                      .dwattr $C$DW$40, DW_AT_location[DW_OP_breg20 -9]
     551              $C$DW$41        .dwtag  DW_TAG_variable, DW_AT_name("max")
     552                      .dwattr $C$DW$41, DW_AT_TI_symbol_name("_max")
     553                      .dwattr $C$DW$41, DW_AT_type(*$C$DW$T$9)
     554                      .dwattr $C$DW$41, DW_AT_location[DW_OP_breg20 -10]
     555              $C$DW$42        .dwtag  DW_TAG_variable, DW_AT_name("meas")
     556                      .dwattr $C$DW$42, DW_AT_TI_symbol_name("_meas")
     557                      .dwattr $C$DW$42, DW_AT_type(*$C$DW$T$9)
     558                      .dwattr $C$DW$42, DW_AT_location[DW_OP_breg20 -11]
     559 000000ae 7C43          MOV       *-SP[3],AR4           ; [CPU_] |96| 
     560 000000af 9742          MOV       *-SP[2],AH            ; [CPU_] |96| 
     561 000000b0 9641          MOV       *-SP[1],AL            ; [CPU_] |96| 
     562                      .dwpsn  file "../buffer.c",line 102,column 3,is_stmt
     563 000000b1 9243          MOV       AL,*-SP[3]            ; [CPU_] |102| 
     564 000000b2 EC03          BF        $C$L6,EQ              ; [CPU_] |102| 
     565                      ; branchcc occurs ; [] |102| 
     566                      .dwpsn  file "../buffer.c",line 102,column 16,is_stmt
     567 000000b3 0842          ADD       *-SP[2],#2            ; [CPU_] |102| 
         000000b4 0002 
     568 000000b5       $C$L6:    
     569                      .dwpsn  file "../buffer.c",line 103,column 3,is_stmt
     570 000000b5 2D41          MOV       T,*-SP[1]             ; [CPU_] |103| 
TMS320C2000 Assembler PC v6.2.0 Mon Aug 31 10:04:18 2020

Tools Copyright (c) 1996-2013 Texas Instruments Incorporated
buffer.asm                                                           PAGE   12

     571 000000b6 8F00-         MOVL      XAR4,#_MeasBuffer+65  ; [CPU_U] |103| 
         000000b7 0041 
     572 000000b8 8F40-         MOVL      XAR5,#_MeasBuffer+64  ; [CPU_U] |103| 
         000000b9 0040 
     573 000000ba 3546          MPYB      ACC,T,#70             ; [CPU_] |103| 
     574 000000bb 5601          ADDL      XAR4,ACC              ; [CPU_] |103| 
         000000bc 00A4 
     575 000000bd 3546          MPYB      ACC,T,#70             ; [CPU_] |103| 
     576 000000be 5601          ADDL      XAR5,ACC              ; [CPU_] |103| 
         000000bf 00A5 
     577 000000c0 92C5          MOV       AL,*+XAR5[0]          ; [CPU_] |103| 
     578 000000c1 94C4          ADD       AL,*+XAR4[0]          ; [CPU_] |103| 
     579 000000c2 9E42          SUB       AL,*-SP[2]            ; [CPU_] |103| 
     580 000000c3 9644          MOV       *-SP[4],AL            ; [CPU_] |103| 
     581                      .dwpsn  file "../buffer.c",line 105,column 3,is_stmt
     582 000000c4 0200          MOVB      ACC,#0                ; [CPU_] |105| 
     583 000000c5 1E48          MOVL      *-SP[8],ACC           ; [CPU_] |105| 
     584                      .dwpsn  file "../buffer.c",line 106,column 8,is_stmt
     585 000000c6 2B45          MOV       *-SP[5],#0            ; [CPU_] |106| 
     586 000000c7 6F26          B         $C$L11,UNC            ; [CPU_] |106| 
     587                      ; branch occurs ; [] |106| 
     588 000000c8       $C$L7:    
     589                      .dwpsn  file "../buffer.c",line 107,column 5,is_stmt
     590 000000c8 1844          AND       *-SP[4],#0x003f       ; [CPU_] |107| 
         000000c9 003F 
     591                      .dwpsn  file "../buffer.c",line 108,column 5,is_stmt
     592 000000ca 5844          MOVZ      AR0,*-SP[4]           ; [CPU_] |108| 
     593 000000cb 3546          MPYB      ACC,T,#70             ; [CPU_] |108| 
     594 000000cc 8F00-         MOVL      XAR4,#_MeasBuffer     ; [CPU_U] |108| 
         000000cd 0000 
     595 000000ce 5601          ADDL      XAR4,ACC              ; [CPU_] |108| 
         000000cf 00A4 
     596 000000d0 9294          MOV       AL,*+XAR4[AR0]        ; [CPU_] |108| 
     597 000000d1 964B          MOV       *-SP[11],AL           ; [CPU_] |108| 
     598                      .dwpsn  file "../buffer.c",line 109,column 5,is_stmt
     599 000000d2 9245          MOV       AL,*-SP[5]            ; [CPU_] |109| 
     600 000000d3 ED05          BF        $C$L8,NEQ             ; [CPU_] |109| 
     601                      ; branchcc occurs ; [] |109| 
     602                      .dwpsn  file "../buffer.c",line 110,column 7,is_stmt
     603 000000d4 924B          MOV       AL,*-SP[11]           ; [CPU_] |110| 
     604 000000d5 9649          MOV       *-SP[9],AL            ; [CPU_] |110| 
     605                      .dwpsn  file "../buffer.c",line 111,column 7,is_stmt
     606 000000d6 964A          MOV       *-SP[10],AL           ; [CPU_] |111| 
     607                      .dwpsn  file "../buffer.c",line 112,column 5,is_stmt
     608 000000d7 6F0C          B         $C$L10,UNC            ; [CPU_] |112| 
     609                      ; branch occurs ; [] |112| 
     610 000000d8       $C$L8:    
     611                      .dwpsn  file "../buffer.c",line 114,column 7,is_stmt
     612 000000d8 9249          MOV       AL,*-SP[9]            ; [CPU_] |114| 
     613 000000d9 544B          CMP       AL,*-SP[11]           ; [CPU_] |114| 
     614 000000da 6904          B         $C$L9,LOS             ; [CPU_] |114| 
     615                      ; branchcc occurs ; [] |114| 
     616                      .dwpsn  file "../buffer.c",line 114,column 22,is_stmt
     617 000000db 924B          MOV       AL,*-SP[11]           ; [CPU_] |114| 
     618 000000dc 9649          MOV       *-SP[9],AL            ; [CPU_] |114| 
TMS320C2000 Assembler PC v6.2.0 Mon Aug 31 10:04:18 2020

Tools Copyright (c) 1996-2013 Texas Instruments Incorporated
buffer.asm                                                           PAGE   13

     619                      .dwpsn  file "../buffer.c",line 114,column 33,is_stmt
     620 000000dd 6F06          B         $C$L10,UNC            ; [CPU_] |114| 
     621                      ; branch occurs ; [] |114| 
     622 000000de       $C$L9:    
     623                      .dwpsn  file "../buffer.c",line 115,column 12,is_stmt
     624 000000de 924A          MOV       AL,*-SP[10]           ; [CPU_] |115| 
     625 000000df 544B          CMP       AL,*-SP[11]           ; [CPU_] |115| 
     626 000000e0 6703          B         $C$L10,HIS            ; [CPU_] |115| 
     627                      ; branchcc occurs ; [] |115| 
     628                      .dwpsn  file "../buffer.c",line 115,column 27,is_stmt
     629 000000e1 924B          MOV       AL,*-SP[11]           ; [CPU_] |115| 
     630 000000e2 964A          MOV       *-SP[10],AL           ; [CPU_] |115| 
     631 000000e3       $C$L10:    
     632                      .dwpsn  file "../buffer.c",line 117,column 5,is_stmt
     633 000000e3 3546          MPYB      ACC,T,#70             ; [CPU_] |117| 
     634 000000e4 8F00-         MOVL      XAR4,#_MeasBuffer     ; [CPU_U] |117| 
         000000e5 0000 
     635 000000e6 5601          ADDL      XAR4,ACC              ; [CPU_] |117| 
         000000e7 00A4 
     636 000000e8 0E94          MOVU      ACC,*+XAR4[AR0]       ; [CPU_] |117| 
     637 000000e9 0748          ADDL      ACC,*-SP[8]           ; [CPU_] |117| 
     638 000000ea 1E48          MOVL      *-SP[8],ACC           ; [CPU_] |117| 
     639                      .dwpsn  file "../buffer.c",line 118,column 5,is_stmt
     640 000000eb 0A44          INC       *-SP[4]               ; [CPU_] |118| 
     641                      .dwpsn  file "../buffer.c",line 106,column 18,is_stmt
     642 000000ec 0A45          INC       *-SP[5]               ; [CPU_] |106| 
     643 000000ed       $C$L11:    
     644                      .dwpsn  file "../buffer.c",line 106,column 12,is_stmt
     645 000000ed 9242          MOV       AL,*-SP[2]            ; [CPU_] |106| 
     646 000000ee 5445          CMP       AL,*-SP[5]            ; [CPU_] |106| 
     647 000000ef 66D9          B         $C$L7,HI              ; [CPU_] |106| 
     648                      ; branchcc occurs ; [] |106| 
     649                      .dwpsn  file "../buffer.c",line 120,column 3,is_stmt
     650 000000f0 9243          MOV       AL,*-SP[3]            ; [CPU_] |120| 
     651 000000f1 EC07          BF        $C$L12,EQ             ; [CPU_] |120| 
     652                      ; branchcc occurs ; [] |120| 
     653                      .dwpsn  file "../buffer.c",line 121,column 5,is_stmt
     654 000000f2 0E49          MOVU      ACC,*-SP[9]           ; [CPU_] |121| 
     655 000000f3 5641          SUBL      *-SP[8],ACC           ; [CPU_] |121| 
         000000f4 0048 
     656                      .dwpsn  file "../buffer.c",line 122,column 5,is_stmt
     657 000000f5 0E4A          MOVU      ACC,*-SP[10]          ; [CPU_] |122| 
     658 000000f6 5641          SUBL      *-SP[8],ACC           ; [CPU_] |122| 
         000000f7 0048 
     659 000000f8       $C$L12:    
     660                      .dwpsn  file "../buffer.c",line 124,column 3,is_stmt
     661 000000f8 0648          MOVL      ACC,*-SP[8]           ; [CPU_] |124| 
     662                      .dwpsn  file "../buffer.c",line 125,column 1,is_stmt
     663 000000f9 FE8C          SUBB      SP,#12                ; [CPU_U] 
     664                      .dwcfi  cfa_offset, -2
     665              $C$DW$43        .dwtag  DW_TAG_TI_branch
     666                      .dwattr $C$DW$43, DW_AT_low_pc(0x00)
     667                      .dwattr $C$DW$43, DW_AT_TI_return
     668 000000fa 0006          LRETR     ; [CPU_] 
     669                      ; return occurs ; [] 
TMS320C2000 Assembler PC v6.2.0 Mon Aug 31 10:04:18 2020

Tools Copyright (c) 1996-2013 Texas Instruments Incorporated
buffer.asm                                                           PAGE   14

     670                      .dwattr $C$DW$30, DW_AT_TI_end_file("../buffer.c")
     671                      .dwattr $C$DW$30, DW_AT_TI_end_line(0x7d)
     672                      .dwattr $C$DW$30, DW_AT_TI_end_column(0x01)
     673                      .dwendentry
     674                      .dwendtag $C$DW$30
     675              
     676 000000fb               .sect   ".text"
     677                      .global _BUF_Delta
     678              
     679              $C$DW$44        .dwtag  DW_TAG_subprogram, DW_AT_name("BUF_Delta")
     680                      .dwattr $C$DW$44, DW_AT_low_pc(_BUF_Delta)
     681                      .dwattr $C$DW$44, DW_AT_high_pc(0x00)
     682                      .dwattr $C$DW$44, DW_AT_TI_symbol_name("_BUF_Delta")
     683                      .dwattr $C$DW$44, DW_AT_external
     684                      .dwattr $C$DW$44, DW_AT_type(*$C$DW$T$12)
     685                      .dwattr $C$DW$44, DW_AT_TI_begin_file("../buffer.c")
     686                      .dwattr $C$DW$44, DW_AT_TI_begin_line(0x7f)
     687                      .dwattr $C$DW$44, DW_AT_TI_begin_column(0x07)
     688                      .dwattr $C$DW$44, DW_AT_TI_max_frame_size(-8)
     689                      .dwpsn  file "../buffer.c",line 127,column 36,is_stmt,address _BUF_Delta
     690              
     691                      .dwfde $C$DW$CIE, _BUF_Delta
     692              $C$DW$45        .dwtag  DW_TAG_formal_parameter, DW_AT_name("channel")
     693                      .dwattr $C$DW$45, DW_AT_TI_symbol_name("_channel")
     694                      .dwattr $C$DW$45, DW_AT_type(*$C$DW$T$10)
     695                      .dwattr $C$DW$45, DW_AT_location[DW_OP_reg0]
     696              $C$DW$46        .dwtag  DW_TAG_formal_parameter, DW_AT_name("nb")
     697                      .dwattr $C$DW$46, DW_AT_TI_symbol_name("_nb")
     698                      .dwattr $C$DW$46, DW_AT_type(*$C$DW$T$10)
     699                      .dwattr $C$DW$46, DW_AT_location[DW_OP_reg1]
     700              
     701              ;***************************************************************
     702              ;* FNAME: _BUF_Delta                    FR SIZE:   6           *
     703              ;*                                                             *
     704              ;* FUNCTION ENVIRONMENT                                        *
     705              ;*                                                             *
     706              ;* FUNCTION PROPERTIES                                         *
     707              ;*                            0 Parameter,  6 Auto,  0 SOE     *
     708              ;***************************************************************
     709              
     710 000000fb       _BUF_Delta:
     711                      .dwcfi  cfa_offset, -2
     712                      .dwcfi  save_reg_to_mem, 26, 0
     713                      .dwcfi  save_reg_to_reg, 78, 26
     714 000000fb FE06          ADDB      SP,#6                 ; [CPU_U] 
     715                      .dwcfi  cfa_offset, -8
     716              $C$DW$47        .dwtag  DW_TAG_variable, DW_AT_name("channel")
     717                      .dwattr $C$DW$47, DW_AT_TI_symbol_name("_channel")
     718                      .dwattr $C$DW$47, DW_AT_type(*$C$DW$T$10)
     719                      .dwattr $C$DW$47, DW_AT_location[DW_OP_breg20 -1]
     720              $C$DW$48        .dwtag  DW_TAG_variable, DW_AT_name("nb")
     721                      .dwattr $C$DW$48, DW_AT_TI_symbol_name("_nb")
     722                      .dwattr $C$DW$48, DW_AT_type(*$C$DW$T$10)
     723                      .dwattr $C$DW$48, DW_AT_location[DW_OP_breg20 -2]
     724              $C$DW$49        .dwtag  DW_TAG_variable, DW_AT_name("index")
TMS320C2000 Assembler PC v6.2.0 Mon Aug 31 10:04:18 2020

Tools Copyright (c) 1996-2013 Texas Instruments Incorporated
buffer.asm                                                           PAGE   15

     725                      .dwattr $C$DW$49, DW_AT_TI_symbol_name("_index")
     726                      .dwattr $C$DW$49, DW_AT_type(*$C$DW$T$9)
     727                      .dwattr $C$DW$49, DW_AT_location[DW_OP_breg20 -3]
     728              $C$DW$50        .dwtag  DW_TAG_variable, DW_AT_name("delta")
     729                      .dwattr $C$DW$50, DW_AT_TI_symbol_name("_delta")
     730                      .dwattr $C$DW$50, DW_AT_type(*$C$DW$T$12)
     731                      .dwattr $C$DW$50, DW_AT_location[DW_OP_breg20 -6]
     732 000000fc 9742          MOV       *-SP[2],AH            ; [CPU_] |127| 
     733 000000fd 9641          MOV       *-SP[1],AL            ; [CPU_] |127| 
     734                      .dwpsn  file "../buffer.c",line 131,column 3,is_stmt
     735 000000fe 2D41          MOV       T,*-SP[1]             ; [CPU_] |131| 
     736 000000ff 8F00-         MOVL      XAR4,#_MeasBuffer+64  ; [CPU_U] |131| 
         00000100 0040 
     737 00000101 3546          MPYB      ACC,T,#70             ; [CPU_] |131| 
     738 00000102 5601          ADDL      XAR4,ACC              ; [CPU_] |131| 
         00000103 00A4 
     739 00000104 92C4          MOV       AL,*+XAR4[0]          ; [CPU_] |131| 
     740 00000105 5442          CMP       AL,*-SP[2]            ; [CPU_] |131| 
     741 00000106 6703          B         $C$L13,HIS            ; [CPU_] |131| 
     742                      ; branchcc occurs ; [] |131| 
     743                      .dwpsn  file "../buffer.c",line 132,column 5,is_stmt
     744 00000107 0200          MOVB      ACC,#0                ; [CPU_] |132| 
     745 00000108 1E46          MOVL      *-SP[6],ACC           ; [CPU_] |132| 
     746 00000109       $C$L13:    
     747                      .dwpsn  file "../buffer.c",line 134,column 3,is_stmt
     748 00000109 3546          MPYB      ACC,T,#70             ; [CPU_] |134| 
     749 0000010a 8F00-         MOVL      XAR4,#_MeasBuffer+65  ; [CPU_U] |134| 
         0000010b 0041 
     750 0000010c 8F40-         MOVL      XAR5,#_MeasBuffer+64  ; [CPU_U] |134| 
         0000010d 0040 
     751 0000010e 5601          ADDL      XAR4,ACC              ; [CPU_] |134| 
         0000010f 00A4 
     752 00000110 3546          MPYB      ACC,T,#70             ; [CPU_] |134| 
     753 00000111 5601          ADDL      XAR5,ACC              ; [CPU_] |134| 
         00000112 00A5 
     754 00000113 92C5          MOV       AL,*+XAR5[0]          ; [CPU_] |134| 
     755 00000114 94C4          ADD       AL,*+XAR4[0]          ; [CPU_] |134| 
     756 00000115 9CFF          ADDB      AL,#-1                ; [CPU_] |134| 
     757 00000116 9643          MOV       *-SP[3],AL            ; [CPU_] |134| 
     758                      .dwpsn  file "../buffer.c",line 136,column 3,is_stmt
     759 00000117 1843          AND       *-SP[3],#0x003f       ; [CPU_] |136| 
         00000118 003F 
     760                      .dwpsn  file "../buffer.c",line 137,column 3,is_stmt
     761 00000119 5843          MOVZ      AR0,*-SP[3]           ; [CPU_] |137| 
     762 0000011a 3546          MPYB      ACC,T,#70             ; [CPU_] |137| 
     763 0000011b 8F00-         MOVL      XAR4,#_MeasBuffer     ; [CPU_U] |137| 
         0000011c 0000 
     764 0000011d 5601          ADDL      XAR4,ACC              ; [CPU_] |137| 
         0000011e 00A4 
     765 0000011f 0E94          MOVU      ACC,*+XAR4[AR0]       ; [CPU_] |137| 
     766 00000120 1E46          MOVL      *-SP[6],ACC           ; [CPU_] |137| 
     767                      .dwpsn  file "../buffer.c",line 139,column 3,is_stmt
     768 00000121 9242          MOV       AL,*-SP[2]            ; [CPU_] |139| 
     769 00000122 7443          SUB       *-SP[3],AL            ; [CPU_] |139| 
     770                      .dwpsn  file "../buffer.c",line 140,column 3,is_stmt
TMS320C2000 Assembler PC v6.2.0 Mon Aug 31 10:04:18 2020

Tools Copyright (c) 1996-2013 Texas Instruments Incorporated
buffer.asm                                                           PAGE   16

     771 00000123 1843          AND       *-SP[3],#0x003f       ; [CPU_] |140| 
         00000124 003F 
     772                      .dwpsn  file "../buffer.c",line 141,column 3,is_stmt
     773 00000125 5843          MOVZ      AR0,*-SP[3]           ; [CPU_] |141| 
     774 00000126 3546          MPYB      ACC,T,#70             ; [CPU_] |141| 
     775 00000127 8F00-         MOVL      XAR4,#_MeasBuffer     ; [CPU_U] |141| 
         00000128 0000 
     776 00000129 5601          ADDL      XAR4,ACC              ; [CPU_] |141| 
         0000012a 00A4 
     777 0000012b 0E94          MOVU      ACC,*+XAR4[AR0]       ; [CPU_] |141| 
     778 0000012c 5641          SUBL      *-SP[6],ACC           ; [CPU_] |141| 
         0000012d 0046 
     779                      .dwpsn  file "../buffer.c",line 142,column 3,is_stmt
     780 0000012e 0646          MOVL      ACC,*-SP[6]           ; [CPU_] |142| 
     781                      .dwpsn  file "../buffer.c",line 143,column 1,is_stmt
     782 0000012f FE86          SUBB      SP,#6                 ; [CPU_U] 
     783                      .dwcfi  cfa_offset, -2
     784              $C$DW$51        .dwtag  DW_TAG_TI_branch
     785                      .dwattr $C$DW$51, DW_AT_low_pc(0x00)
     786                      .dwattr $C$DW$51, DW_AT_TI_return
     787 00000130 0006          LRETR     ; [CPU_] 
     788                      ; return occurs ; [] 
     789                      .dwattr $C$DW$44, DW_AT_TI_end_file("../buffer.c")
     790                      .dwattr $C$DW$44, DW_AT_TI_end_line(0x8f)
     791                      .dwattr $C$DW$44, DW_AT_TI_end_column(0x01)
     792                      .dwendentry
     793                      .dwendtag $C$DW$44
     794              
     795              
     796              ;***************************************************************
     797              ;* TYPE INFORMATION                                            *
     798              ;***************************************************************
     799              
     800              $C$DW$T$20      .dwtag  DW_TAG_structure_type
     801                      .dwattr $C$DW$T$20, DW_AT_byte_size(0x46)
     802              $C$DW$52        .dwtag  DW_TAG_member
     803                      .dwattr $C$DW$52, DW_AT_type(*$C$DW$T$19)
     804                      .dwattr $C$DW$52, DW_AT_name("meas")
     805                      .dwattr $C$DW$52, DW_AT_TI_symbol_name("_meas")
     806                      .dwattr $C$DW$52, DW_AT_data_member_location[DW_OP_plus_uconst 0x0]
     807                      .dwattr $C$DW$52, DW_AT_accessibility(DW_ACCESS_public)
     808              $C$DW$53        .dwtag  DW_TAG_member
     809                      .dwattr $C$DW$53, DW_AT_type(*$C$DW$T$9)
     810                      .dwattr $C$DW$53, DW_AT_name("count")
     811                      .dwattr $C$DW$53, DW_AT_TI_symbol_name("_count")
     812                      .dwattr $C$DW$53, DW_AT_data_member_location[DW_OP_plus_uconst 0x40]
     813                      .dwattr $C$DW$53, DW_AT_accessibility(DW_ACCESS_public)
     814              $C$DW$54        .dwtag  DW_TAG_member
     815                      .dwattr $C$DW$54, DW_AT_type(*$C$DW$T$9)
     816                      .dwattr $C$DW$54, DW_AT_name("index")
     817                      .dwattr $C$DW$54, DW_AT_TI_symbol_name("_index")
     818                      .dwattr $C$DW$54, DW_AT_data_member_location[DW_OP_plus_uconst 0x41]
     819                      .dwattr $C$DW$54, DW_AT_accessibility(DW_ACCESS_public)
     820              $C$DW$55        .dwtag  DW_TAG_member
     821                      .dwattr $C$DW$55, DW_AT_type(*$C$DW$T$13)
TMS320C2000 Assembler PC v6.2.0 Mon Aug 31 10:04:18 2020

Tools Copyright (c) 1996-2013 Texas Instruments Incorporated
buffer.asm                                                           PAGE   17

     822                      .dwattr $C$DW$55, DW_AT_name("sum")
     823                      .dwattr $C$DW$55, DW_AT_TI_symbol_name("_sum")
     824                      .dwattr $C$DW$55, DW_AT_data_member_location[DW_OP_plus_uconst 0x42]
     825                      .dwattr $C$DW$55, DW_AT_accessibility(DW_ACCESS_public)
     826              $C$DW$56        .dwtag  DW_TAG_member
     827                      .dwattr $C$DW$56, DW_AT_type(*$C$DW$T$9)
     828                      .dwattr $C$DW$56, DW_AT_name("mean")
     829                      .dwattr $C$DW$56, DW_AT_TI_symbol_name("_mean")
     830                      .dwattr $C$DW$56, DW_AT_data_member_location[DW_OP_plus_uconst 0x44]
     831                      .dwattr $C$DW$56, DW_AT_accessibility(DW_ACCESS_public)
     832                      .dwendtag $C$DW$T$20
     833              
     834              $C$DW$T$21      .dwtag  DW_TAG_typedef, DW_AT_name("TMeasBuffer")
     835                      .dwattr $C$DW$T$21, DW_AT_type(*$C$DW$T$20)
     836                      .dwattr $C$DW$T$21, DW_AT_language(DW_LANG_C)
     837              
     838              $C$DW$T$22      .dwtag  DW_TAG_array_type
     839                      .dwattr $C$DW$T$22, DW_AT_type(*$C$DW$T$21)
     840                      .dwattr $C$DW$T$22, DW_AT_language(DW_LANG_C)
     841                      .dwattr $C$DW$T$22, DW_AT_byte_size(0x41a)
     842              $C$DW$57        .dwtag  DW_TAG_subrange_type
     843                      .dwattr $C$DW$57, DW_AT_upper_bound(0x0e)
     844                      .dwendtag $C$DW$T$22
     845              
     846              $C$DW$T$4       .dwtag  DW_TAG_base_type
     847                      .dwattr $C$DW$T$4, DW_AT_encoding(DW_ATE_boolean)
     848                      .dwattr $C$DW$T$4, DW_AT_name("bool")
     849                      .dwattr $C$DW$T$4, DW_AT_byte_size(0x01)
     850              $C$DW$T$5       .dwtag  DW_TAG_base_type
     851                      .dwattr $C$DW$T$5, DW_AT_encoding(DW_ATE_signed_char)
     852                      .dwattr $C$DW$T$5, DW_AT_name("signed char")
     853                      .dwattr $C$DW$T$5, DW_AT_byte_size(0x01)
     854              $C$DW$T$6       .dwtag  DW_TAG_base_type
     855                      .dwattr $C$DW$T$6, DW_AT_encoding(DW_ATE_unsigned_char)
     856                      .dwattr $C$DW$T$6, DW_AT_name("unsigned char")
     857                      .dwattr $C$DW$T$6, DW_AT_byte_size(0x01)
     858              $C$DW$T$7       .dwtag  DW_TAG_base_type
     859                      .dwattr $C$DW$T$7, DW_AT_encoding(DW_ATE_signed_char)
     860                      .dwattr $C$DW$T$7, DW_AT_name("wchar_t")
     861                      .dwattr $C$DW$T$7, DW_AT_byte_size(0x01)
     862              $C$DW$T$8       .dwtag  DW_TAG_base_type
     863                      .dwattr $C$DW$T$8, DW_AT_encoding(DW_ATE_signed)
     864                      .dwattr $C$DW$T$8, DW_AT_name("short")
     865                      .dwattr $C$DW$T$8, DW_AT_byte_size(0x01)
     866              $C$DW$T$9       .dwtag  DW_TAG_base_type
     867                      .dwattr $C$DW$T$9, DW_AT_encoding(DW_ATE_unsigned)
     868                      .dwattr $C$DW$T$9, DW_AT_name("unsigned short")
     869                      .dwattr $C$DW$T$9, DW_AT_byte_size(0x01)
     870              $C$DW$T$26      .dwtag  DW_TAG_typedef, DW_AT_name("Bool")
     871                      .dwattr $C$DW$T$26, DW_AT_type(*$C$DW$T$9)
     872                      .dwattr $C$DW$T$26, DW_AT_language(DW_LANG_C)
     873              
     874              $C$DW$T$19      .dwtag  DW_TAG_array_type
     875                      .dwattr $C$DW$T$19, DW_AT_type(*$C$DW$T$9)
     876                      .dwattr $C$DW$T$19, DW_AT_language(DW_LANG_C)
TMS320C2000 Assembler PC v6.2.0 Mon Aug 31 10:04:18 2020

Tools Copyright (c) 1996-2013 Texas Instruments Incorporated
buffer.asm                                                           PAGE   18

     877                      .dwattr $C$DW$T$19, DW_AT_byte_size(0x40)
     878              $C$DW$58        .dwtag  DW_TAG_subrange_type
     879                      .dwattr $C$DW$58, DW_AT_upper_bound(0x3f)
     880                      .dwendtag $C$DW$T$19
     881              
     882              $C$DW$T$10      .dwtag  DW_TAG_base_type
     883                      .dwattr $C$DW$T$10, DW_AT_encoding(DW_ATE_signed)
     884                      .dwattr $C$DW$T$10, DW_AT_name("int")
     885                      .dwattr $C$DW$T$10, DW_AT_byte_size(0x01)
     886              $C$DW$T$11      .dwtag  DW_TAG_base_type
     887                      .dwattr $C$DW$T$11, DW_AT_encoding(DW_ATE_unsigned)
     888                      .dwattr $C$DW$T$11, DW_AT_name("unsigned int")
     889                      .dwattr $C$DW$T$11, DW_AT_byte_size(0x01)
     890              $C$DW$T$12      .dwtag  DW_TAG_base_type
     891                      .dwattr $C$DW$T$12, DW_AT_encoding(DW_ATE_signed)
     892                      .dwattr $C$DW$T$12, DW_AT_name("long")
     893                      .dwattr $C$DW$T$12, DW_AT_byte_size(0x02)
     894              $C$DW$T$13      .dwtag  DW_TAG_base_type
     895                      .dwattr $C$DW$T$13, DW_AT_encoding(DW_ATE_unsigned)
     896                      .dwattr $C$DW$T$13, DW_AT_name("unsigned long")
     897                      .dwattr $C$DW$T$13, DW_AT_byte_size(0x02)
     898              $C$DW$T$14      .dwtag  DW_TAG_base_type
     899                      .dwattr $C$DW$T$14, DW_AT_encoding(DW_ATE_signed)
     900                      .dwattr $C$DW$T$14, DW_AT_name("long long")
     901                      .dwattr $C$DW$T$14, DW_AT_byte_size(0x04)
     902              $C$DW$T$15      .dwtag  DW_TAG_base_type
     903                      .dwattr $C$DW$T$15, DW_AT_encoding(DW_ATE_unsigned)
     904                      .dwattr $C$DW$T$15, DW_AT_name("unsigned long long")
     905                      .dwattr $C$DW$T$15, DW_AT_byte_size(0x04)
     906              $C$DW$T$16      .dwtag  DW_TAG_base_type
     907                      .dwattr $C$DW$T$16, DW_AT_encoding(DW_ATE_float)
     908                      .dwattr $C$DW$T$16, DW_AT_name("float")
     909                      .dwattr $C$DW$T$16, DW_AT_byte_size(0x02)
     910              $C$DW$T$17      .dwtag  DW_TAG_base_type
     911                      .dwattr $C$DW$T$17, DW_AT_encoding(DW_ATE_float)
     912                      .dwattr $C$DW$T$17, DW_AT_name("double")
     913                      .dwattr $C$DW$T$17, DW_AT_byte_size(0x02)
     914              $C$DW$T$18      .dwtag  DW_TAG_base_type
     915                      .dwattr $C$DW$T$18, DW_AT_encoding(DW_ATE_float)
     916                      .dwattr $C$DW$T$18, DW_AT_name("long double")
     917                      .dwattr $C$DW$T$18, DW_AT_byte_size(0x04)
     918                      .dwattr $C$DW$CU, DW_AT_language(DW_LANG_C)
     919              
     920              ;***************************************************************
     921              ;* DWARF CIE ENTRIES                                           *
     922              ;***************************************************************
     923              
     924              $C$DW$CIE       .dwcie 78
     925                      .dwcfi  cfa_register, 20
     926                      .dwcfi  cfa_offset, 0
     927                      .dwcfi  undefined, 0
     928                      .dwcfi  undefined, 1
     929                      .dwcfi  undefined, 2
     930                      .dwcfi  undefined, 3
     931                      .dwcfi  undefined, 20
TMS320C2000 Assembler PC v6.2.0 Mon Aug 31 10:04:18 2020

Tools Copyright (c) 1996-2013 Texas Instruments Incorporated
buffer.asm                                                           PAGE   19

     932                      .dwcfi  undefined, 21
     933                      .dwcfi  undefined, 22
     934                      .dwcfi  undefined, 23
     935                      .dwcfi  undefined, 24
     936                      .dwcfi  undefined, 25
     937                      .dwcfi  undefined, 26
     938                      .dwcfi  same_value, 28
     939                      .dwcfi  undefined, 29
     940                      .dwcfi  undefined, 30
     941                      .dwcfi  undefined, 31
     942                      .dwcfi  undefined, 32
     943                      .dwcfi  undefined, 33
     944                      .dwcfi  undefined, 34
     945                      .dwcfi  undefined, 35
     946                      .dwcfi  undefined, 36
     947                      .dwcfi  undefined, 37
     948                      .dwcfi  undefined, 38
     949                      .dwcfi  undefined, 75
     950                      .dwcfi  undefined, 76
     951                      .dwcfi  undefined, 77
     952                      .dwcfi  undefined, 4
     953                      .dwcfi  same_value, 6
     954                      .dwcfi  same_value, 8
     955                      .dwcfi  same_value, 10
     956                      .dwcfi  undefined, 12
     957                      .dwcfi  undefined, 14
     958                      .dwcfi  undefined, 16
     959                      .dwcfi  undefined, 17
     960                      .dwcfi  undefined, 18
     961                      .dwcfi  undefined, 19
     962                      .dwcfi  undefined, 5
     963                      .dwcfi  same_value, 7
     964                      .dwcfi  same_value, 9
     965                      .dwcfi  same_value, 11
     966                      .dwcfi  undefined, 13
     967                      .dwcfi  undefined, 15
     968                      .dwcfi  undefined, 43
     969                      .dwcfi  undefined, 44
     970                      .dwcfi  undefined, 47
     971                      .dwcfi  undefined, 48
     972                      .dwcfi  undefined, 51
     973                      .dwcfi  undefined, 52
     974                      .dwcfi  undefined, 55
     975                      .dwcfi  undefined, 56
     976                      .dwcfi  same_value, 59
     977                      .dwcfi  same_value, 60
     978                      .dwcfi  same_value, 63
     979                      .dwcfi  same_value, 64
     980                      .dwcfi  same_value, 67
     981                      .dwcfi  same_value, 68
     982                      .dwcfi  same_value, 71
     983                      .dwcfi  same_value, 72
     984                      .dwcfi  undefined, 73
     985                      .dwcfi  undefined, 74
     986                      .dwcfi  undefined, 39
TMS320C2000 Assembler PC v6.2.0 Mon Aug 31 10:04:18 2020

Tools Copyright (c) 1996-2013 Texas Instruments Incorporated
buffer.asm                                                           PAGE   20

     987                      .dwcfi  undefined, 40
     988                      .dwcfi  undefined, 27
     989                      .dwcfi  undefined, 78
     990                      .dwendentry
     991              
     992              ;***************************************************************
     993              ;* DWARF REGISTER MAP                                          *
     994              ;***************************************************************
     995              
     996              $C$DW$59        .dwtag  DW_TAG_TI_assign_register, DW_AT_name("AL")
     997                      .dwattr $C$DW$59, DW_AT_location[DW_OP_reg0]
     998              $C$DW$60        .dwtag  DW_TAG_TI_assign_register, DW_AT_name("AH")
     999                      .dwattr $C$DW$60, DW_AT_location[DW_OP_reg1]
    1000              $C$DW$61        .dwtag  DW_TAG_TI_assign_register, DW_AT_name("PL")
    1001                      .dwattr $C$DW$61, DW_AT_location[DW_OP_reg2]
    1002              $C$DW$62        .dwtag  DW_TAG_TI_assign_register, DW_AT_name("PH")
    1003                      .dwattr $C$DW$62, DW_AT_location[DW_OP_reg3]
    1004              $C$DW$63        .dwtag  DW_TAG_TI_assign_register, DW_AT_name("SP")
    1005                      .dwattr $C$DW$63, DW_AT_location[DW_OP_reg20]
    1006              $C$DW$64        .dwtag  DW_TAG_TI_assign_register, DW_AT_name("XT")
    1007                      .dwattr $C$DW$64, DW_AT_location[DW_OP_reg21]
    1008              $C$DW$65        .dwtag  DW_TAG_TI_assign_register, DW_AT_name("T")
    1009                      .dwattr $C$DW$65, DW_AT_location[DW_OP_reg22]
    1010              $C$DW$66        .dwtag  DW_TAG_TI_assign_register, DW_AT_name("ST0")
    1011                      .dwattr $C$DW$66, DW_AT_location[DW_OP_reg23]
    1012              $C$DW$67        .dwtag  DW_TAG_TI_assign_register, DW_AT_name("ST1")
    1013                      .dwattr $C$DW$67, DW_AT_location[DW_OP_reg24]
    1014              $C$DW$68        .dwtag  DW_TAG_TI_assign_register, DW_AT_name("PC")
    1015                      .dwattr $C$DW$68, DW_AT_location[DW_OP_reg25]
    1016              $C$DW$69        .dwtag  DW_TAG_TI_assign_register, DW_AT_name("RPC")
    1017                      .dwattr $C$DW$69, DW_AT_location[DW_OP_reg26]
    1018              $C$DW$70        .dwtag  DW_TAG_TI_assign_register, DW_AT_name("FP")
    1019                      .dwattr $C$DW$70, DW_AT_location[DW_OP_reg28]
    1020              $C$DW$71        .dwtag  DW_TAG_TI_assign_register, DW_AT_name("DP")
    1021                      .dwattr $C$DW$71, DW_AT_location[DW_OP_reg29]
    1022              $C$DW$72        .dwtag  DW_TAG_TI_assign_register, DW_AT_name("SXM")
    1023                      .dwattr $C$DW$72, DW_AT_location[DW_OP_reg30]
    1024              $C$DW$73        .dwtag  DW_TAG_TI_assign_register, DW_AT_name("PM")
    1025                      .dwattr $C$DW$73, DW_AT_location[DW_OP_reg31]
    1026              $C$DW$74        .dwtag  DW_TAG_TI_assign_register, DW_AT_name("OVM")
    1027                      .dwattr $C$DW$74, DW_AT_location[DW_OP_regx 0x20]
    1028              $C$DW$75        .dwtag  DW_TAG_TI_assign_register, DW_AT_name("PAGE0")
    1029                      .dwattr $C$DW$75, DW_AT_location[DW_OP_regx 0x21]
    1030              $C$DW$76        .dwtag  DW_TAG_TI_assign_register, DW_AT_name("AMODE")
    1031                      .dwattr $C$DW$76, DW_AT_location[DW_OP_regx 0x22]
    1032              $C$DW$77        .dwtag  DW_TAG_TI_assign_register, DW_AT_name("INTM")
    1033                      .dwattr $C$DW$77, DW_AT_location[DW_OP_regx 0x23]
    1034              $C$DW$78        .dwtag  DW_TAG_TI_assign_register, DW_AT_name("IFR")
    1035                      .dwattr $C$DW$78, DW_AT_location[DW_OP_regx 0x24]
    1036              $C$DW$79        .dwtag  DW_TAG_TI_assign_register, DW_AT_name("IER")
    1037                      .dwattr $C$DW$79, DW_AT_location[DW_OP_regx 0x25]
    1038              $C$DW$80        .dwtag  DW_TAG_TI_assign_register, DW_AT_name("V")
    1039                      .dwattr $C$DW$80, DW_AT_location[DW_OP_regx 0x26]
    1040              $C$DW$81        .dwtag  DW_TAG_TI_assign_register, DW_AT_name("PSEUDOH")
    1041                      .dwattr $C$DW$81, DW_AT_location[DW_OP_regx 0x4c]
TMS320C2000 Assembler PC v6.2.0 Mon Aug 31 10:04:18 2020

Tools Copyright (c) 1996-2013 Texas Instruments Incorporated
buffer.asm                                                           PAGE   21

    1042              $C$DW$82        .dwtag  DW_TAG_TI_assign_register, DW_AT_name("VOL")
    1043                      .dwattr $C$DW$82, DW_AT_location[DW_OP_regx 0x4d]
    1044              $C$DW$83        .dwtag  DW_TAG_TI_assign_register, DW_AT_name("AR0")
    1045                      .dwattr $C$DW$83, DW_AT_location[DW_OP_reg4]
    1046              $C$DW$84        .dwtag  DW_TAG_TI_assign_register, DW_AT_name("AR1")
    1047                      .dwattr $C$DW$84, DW_AT_location[DW_OP_reg6]
    1048              $C$DW$85        .dwtag  DW_TAG_TI_assign_register, DW_AT_name("AR2")
    1049                      .dwattr $C$DW$85, DW_AT_location[DW_OP_reg8]
    1050              $C$DW$86        .dwtag  DW_TAG_TI_assign_register, DW_AT_name("AR3")
    1051                      .dwattr $C$DW$86, DW_AT_location[DW_OP_reg10]
    1052              $C$DW$87        .dwtag  DW_TAG_TI_assign_register, DW_AT_name("AR4")
    1053                      .dwattr $C$DW$87, DW_AT_location[DW_OP_reg12]
    1054              $C$DW$88        .dwtag  DW_TAG_TI_assign_register, DW_AT_name("AR5")
    1055                      .dwattr $C$DW$88, DW_AT_location[DW_OP_reg14]
    1056              $C$DW$89        .dwtag  DW_TAG_TI_assign_register, DW_AT_name("AR6")
    1057                      .dwattr $C$DW$89, DW_AT_location[DW_OP_reg16]
    1058              $C$DW$90        .dwtag  DW_TAG_TI_assign_register, DW_AT_name("XAR6")
    1059                      .dwattr $C$DW$90, DW_AT_location[DW_OP_reg17]
    1060              $C$DW$91        .dwtag  DW_TAG_TI_assign_register, DW_AT_name("AR7")
    1061                      .dwattr $C$DW$91, DW_AT_location[DW_OP_reg18]
    1062              $C$DW$92        .dwtag  DW_TAG_TI_assign_register, DW_AT_name("XAR7")
    1063                      .dwattr $C$DW$92, DW_AT_location[DW_OP_reg19]
    1064              $C$DW$93        .dwtag  DW_TAG_TI_assign_register, DW_AT_name("XAR0")
    1065                      .dwattr $C$DW$93, DW_AT_location[DW_OP_reg5]
    1066              $C$DW$94        .dwtag  DW_TAG_TI_assign_register, DW_AT_name("XAR1")
    1067                      .dwattr $C$DW$94, DW_AT_location[DW_OP_reg7]
    1068              $C$DW$95        .dwtag  DW_TAG_TI_assign_register, DW_AT_name("XAR2")
    1069                      .dwattr $C$DW$95, DW_AT_location[DW_OP_reg9]
    1070              $C$DW$96        .dwtag  DW_TAG_TI_assign_register, DW_AT_name("XAR3")
    1071                      .dwattr $C$DW$96, DW_AT_location[DW_OP_reg11]
    1072              $C$DW$97        .dwtag  DW_TAG_TI_assign_register, DW_AT_name("XAR4")
    1073                      .dwattr $C$DW$97, DW_AT_location[DW_OP_reg13]
    1074              $C$DW$98        .dwtag  DW_TAG_TI_assign_register, DW_AT_name("XAR5")
    1075                      .dwattr $C$DW$98, DW_AT_location[DW_OP_reg15]
    1076              $C$DW$99        .dwtag  DW_TAG_TI_assign_register, DW_AT_name("R0HL")
    1077                      .dwattr $C$DW$99, DW_AT_location[DW_OP_regx 0x2b]
    1078              $C$DW$100       .dwtag  DW_TAG_TI_assign_register, DW_AT_name("R0H")
    1079                      .dwattr $C$DW$100, DW_AT_location[DW_OP_regx 0x2c]
    1080              $C$DW$101       .dwtag  DW_TAG_TI_assign_register, DW_AT_name("R1HL")
    1081                      .dwattr $C$DW$101, DW_AT_location[DW_OP_regx 0x2f]
    1082              $C$DW$102       .dwtag  DW_TAG_TI_assign_register, DW_AT_name("R1H")
    1083                      .dwattr $C$DW$102, DW_AT_location[DW_OP_regx 0x30]
    1084              $C$DW$103       .dwtag  DW_TAG_TI_assign_register, DW_AT_name("R2HL")
    1085                      .dwattr $C$DW$103, DW_AT_location[DW_OP_regx 0x33]
    1086              $C$DW$104       .dwtag  DW_TAG_TI_assign_register, DW_AT_name("R2H")
    1087                      .dwattr $C$DW$104, DW_AT_location[DW_OP_regx 0x34]
    1088              $C$DW$105       .dwtag  DW_TAG_TI_assign_register, DW_AT_name("R3HL")
    1089                      .dwattr $C$DW$105, DW_AT_location[DW_OP_regx 0x37]
    1090              $C$DW$106       .dwtag  DW_TAG_TI_assign_register, DW_AT_name("R3H")
    1091                      .dwattr $C$DW$106, DW_AT_location[DW_OP_regx 0x38]
    1092              $C$DW$107       .dwtag  DW_TAG_TI_assign_register, DW_AT_name("R4HL")
    1093                      .dwattr $C$DW$107, DW_AT_location[DW_OP_regx 0x3b]
    1094              $C$DW$108       .dwtag  DW_TAG_TI_assign_register, DW_AT_name("R4H")
    1095                      .dwattr $C$DW$108, DW_AT_location[DW_OP_regx 0x3c]
    1096              $C$DW$109       .dwtag  DW_TAG_TI_assign_register, DW_AT_name("R5HL")
TMS320C2000 Assembler PC v6.2.0 Mon Aug 31 10:04:18 2020

Tools Copyright (c) 1996-2013 Texas Instruments Incorporated
buffer.asm                                                           PAGE   22

    1097                      .dwattr $C$DW$109, DW_AT_location[DW_OP_regx 0x3f]
    1098              $C$DW$110       .dwtag  DW_TAG_TI_assign_register, DW_AT_name("R5H")
    1099                      .dwattr $C$DW$110, DW_AT_location[DW_OP_regx 0x40]
    1100              $C$DW$111       .dwtag  DW_TAG_TI_assign_register, DW_AT_name("R6HL")
    1101                      .dwattr $C$DW$111, DW_AT_location[DW_OP_regx 0x43]
    1102              $C$DW$112       .dwtag  DW_TAG_TI_assign_register, DW_AT_name("R6H")
    1103                      .dwattr $C$DW$112, DW_AT_location[DW_OP_regx 0x44]
    1104              $C$DW$113       .dwtag  DW_TAG_TI_assign_register, DW_AT_name("R7HL")
    1105                      .dwattr $C$DW$113, DW_AT_location[DW_OP_regx 0x47]
    1106              $C$DW$114       .dwtag  DW_TAG_TI_assign_register, DW_AT_name("R7H")
    1107                      .dwattr $C$DW$114, DW_AT_location[DW_OP_regx 0x48]
    1108              $C$DW$115       .dwtag  DW_TAG_TI_assign_register, DW_AT_name("RBL")
    1109                      .dwattr $C$DW$115, DW_AT_location[DW_OP_regx 0x49]
    1110              $C$DW$116       .dwtag  DW_TAG_TI_assign_register, DW_AT_name("RB")
    1111                      .dwattr $C$DW$116, DW_AT_location[DW_OP_regx 0x4a]
    1112              $C$DW$117       .dwtag  DW_TAG_TI_assign_register, DW_AT_name("STFL")
    1113                      .dwattr $C$DW$117, DW_AT_location[DW_OP_regx 0x27]
    1114              $C$DW$118       .dwtag  DW_TAG_TI_assign_register, DW_AT_name("STF")
    1115                      .dwattr $C$DW$118, DW_AT_location[DW_OP_regx 0x28]
    1116              $C$DW$119       .dwtag  DW_TAG_TI_assign_register, DW_AT_name("FPUHAZ")
    1117                      .dwattr $C$DW$119, DW_AT_location[DW_OP_reg27]
    1118              $C$DW$120       .dwtag  DW_TAG_TI_assign_register, DW_AT_name("CIE_RETA")
    1119                      .dwattr $C$DW$120, DW_AT_location[DW_OP_regx 0x4e]
    1120                      .dwendtag $C$DW$CU
    1121              

No Assembly Errors, No Assembly Warnings
