TMS320C2000 Assembler PC v6.2.0 Mon Aug 31 10:04:20 2020

Tools Copyright (c) 1996-2013 Texas Instruments Incorporated
mmscfg_c.asm                                                         PAGE    1

       1              ;***************************************************************
       2              ;* TMS320C2000 C/C++ Codegen                         PC v6.2.0 *
       3              ;* Date/Time created: Mon Aug 31 10:04:19 2020                 *
       4              ;***************************************************************
       5                      .compiler_opts --float_support=fpu32 --hll_source=on --mem_model:code=flat --mem_model:data=large --o
       6        0002  FP      .set    XAR2
       7              
       8              $C$DW$CU        .dwtag  DW_TAG_compile_unit
       9                      .dwattr $C$DW$CU, DW_AT_name("mmscfg_c.c")
      10                      .dwattr $C$DW$CU, DW_AT_producer("TMS320C2000 C/C++ Codegen PC v6.2.0 Copyright (c) 1996-2013 Texas I
      11                      .dwattr $C$DW$CU, DW_AT_TI_version(0x01)
      12                      .dwattr $C$DW$CU, DW_AT_comp_dir("C:\Users\aen17\Desktop\Working\SVN\Repository\R_Module_48V_Standard
      13              ;       C:\ti\ccsv5\tools\compiler\c2000_6.2.0\bin\ac2000.exe -@C:\\Users\\ADMINI~1\\AppData\\Local\\Temp\\06
      14              
      15              ;***************************************************************
      16              ;* TYPE INFORMATION                                            *
      17              ;***************************************************************
      18              $C$DW$T$4       .dwtag  DW_TAG_base_type
      19                      .dwattr $C$DW$T$4, DW_AT_encoding(DW_ATE_boolean)
      20                      .dwattr $C$DW$T$4, DW_AT_name("bool")
      21                      .dwattr $C$DW$T$4, DW_AT_byte_size(0x01)
      22              $C$DW$T$5       .dwtag  DW_TAG_base_type
      23                      .dwattr $C$DW$T$5, DW_AT_encoding(DW_ATE_signed_char)
      24                      .dwattr $C$DW$T$5, DW_AT_name("signed char")
      25                      .dwattr $C$DW$T$5, DW_AT_byte_size(0x01)
      26              $C$DW$T$6       .dwtag  DW_TAG_base_type
      27                      .dwattr $C$DW$T$6, DW_AT_encoding(DW_ATE_unsigned_char)
      28                      .dwattr $C$DW$T$6, DW_AT_name("unsigned char")
      29                      .dwattr $C$DW$T$6, DW_AT_byte_size(0x01)
      30              $C$DW$T$7       .dwtag  DW_TAG_base_type
      31                      .dwattr $C$DW$T$7, DW_AT_encoding(DW_ATE_signed_char)
      32                      .dwattr $C$DW$T$7, DW_AT_name("wchar_t")
      33                      .dwattr $C$DW$T$7, DW_AT_byte_size(0x01)
      34              $C$DW$T$8       .dwtag  DW_TAG_base_type
      35                      .dwattr $C$DW$T$8, DW_AT_encoding(DW_ATE_signed)
      36                      .dwattr $C$DW$T$8, DW_AT_name("short")
      37                      .dwattr $C$DW$T$8, DW_AT_byte_size(0x01)
      38              $C$DW$T$9       .dwtag  DW_TAG_base_type
      39                      .dwattr $C$DW$T$9, DW_AT_encoding(DW_ATE_unsigned)
      40                      .dwattr $C$DW$T$9, DW_AT_name("unsigned short")
      41                      .dwattr $C$DW$T$9, DW_AT_byte_size(0x01)
      42              $C$DW$T$10      .dwtag  DW_TAG_base_type
      43                      .dwattr $C$DW$T$10, DW_AT_encoding(DW_ATE_signed)
      44                      .dwattr $C$DW$T$10, DW_AT_name("int")
      45                      .dwattr $C$DW$T$10, DW_AT_byte_size(0x01)
      46              $C$DW$T$11      .dwtag  DW_TAG_base_type
      47                      .dwattr $C$DW$T$11, DW_AT_encoding(DW_ATE_unsigned)
      48                      .dwattr $C$DW$T$11, DW_AT_name("unsigned int")
      49                      .dwattr $C$DW$T$11, DW_AT_byte_size(0x01)
      50              $C$DW$T$12      .dwtag  DW_TAG_base_type
      51                      .dwattr $C$DW$T$12, DW_AT_encoding(DW_ATE_signed)
      52                      .dwattr $C$DW$T$12, DW_AT_name("long")
      53                      .dwattr $C$DW$T$12, DW_AT_byte_size(0x02)
      54              $C$DW$T$13      .dwtag  DW_TAG_base_type
      55                      .dwattr $C$DW$T$13, DW_AT_encoding(DW_ATE_unsigned)
TMS320C2000 Assembler PC v6.2.0 Mon Aug 31 10:04:20 2020

Tools Copyright (c) 1996-2013 Texas Instruments Incorporated
mmscfg_c.asm                                                         PAGE    2

      56                      .dwattr $C$DW$T$13, DW_AT_name("unsigned long")
      57                      .dwattr $C$DW$T$13, DW_AT_byte_size(0x02)
      58              $C$DW$T$14      .dwtag  DW_TAG_base_type
      59                      .dwattr $C$DW$T$14, DW_AT_encoding(DW_ATE_signed)
      60                      .dwattr $C$DW$T$14, DW_AT_name("long long")
      61                      .dwattr $C$DW$T$14, DW_AT_byte_size(0x04)
      62              $C$DW$T$15      .dwtag  DW_TAG_base_type
      63                      .dwattr $C$DW$T$15, DW_AT_encoding(DW_ATE_unsigned)
      64                      .dwattr $C$DW$T$15, DW_AT_name("unsigned long long")
      65                      .dwattr $C$DW$T$15, DW_AT_byte_size(0x04)
      66              $C$DW$T$16      .dwtag  DW_TAG_base_type
      67                      .dwattr $C$DW$T$16, DW_AT_encoding(DW_ATE_float)
      68                      .dwattr $C$DW$T$16, DW_AT_name("float")
      69                      .dwattr $C$DW$T$16, DW_AT_byte_size(0x02)
      70              $C$DW$T$17      .dwtag  DW_TAG_base_type
      71                      .dwattr $C$DW$T$17, DW_AT_encoding(DW_ATE_float)
      72                      .dwattr $C$DW$T$17, DW_AT_name("double")
      73                      .dwattr $C$DW$T$17, DW_AT_byte_size(0x02)
      74              $C$DW$T$18      .dwtag  DW_TAG_base_type
      75                      .dwattr $C$DW$T$18, DW_AT_encoding(DW_ATE_float)
      76                      .dwattr $C$DW$T$18, DW_AT_name("long double")
      77                      .dwattr $C$DW$T$18, DW_AT_byte_size(0x04)
      78              
      79              ;***************************************************************
      80              ;* DWARF CIE ENTRIES                                           *
      81              ;***************************************************************
      82              
      83              $C$DW$CIE       .dwcie 78
      84                      .dwcfi  cfa_register, 20
      85                      .dwcfi  cfa_offset, 0
      86                      .dwcfi  undefined, 0
      87                      .dwcfi  undefined, 1
      88                      .dwcfi  undefined, 2
      89                      .dwcfi  undefined, 3
      90                      .dwcfi  undefined, 20
      91                      .dwcfi  undefined, 21
      92                      .dwcfi  undefined, 22
      93                      .dwcfi  undefined, 23
      94                      .dwcfi  undefined, 24
      95                      .dwcfi  undefined, 25
      96                      .dwcfi  undefined, 26
      97                      .dwcfi  undefined, 28
      98                      .dwcfi  undefined, 29
      99                      .dwcfi  undefined, 30
     100                      .dwcfi  undefined, 31
     101                      .dwcfi  undefined, 32
     102                      .dwcfi  undefined, 33
     103                      .dwcfi  undefined, 34
     104                      .dwcfi  undefined, 35
     105                      .dwcfi  undefined, 36
     106                      .dwcfi  undefined, 37
     107                      .dwcfi  undefined, 38
     108                      .dwcfi  undefined, 75
     109                      .dwcfi  undefined, 76
     110                      .dwcfi  undefined, 77
TMS320C2000 Assembler PC v6.2.0 Mon Aug 31 10:04:20 2020

Tools Copyright (c) 1996-2013 Texas Instruments Incorporated
mmscfg_c.asm                                                         PAGE    3

     111                      .dwcfi  undefined, 4
     112                      .dwcfi  undefined, 6
     113                      .dwcfi  undefined, 8
     114                      .dwcfi  undefined, 10
     115                      .dwcfi  undefined, 12
     116                      .dwcfi  undefined, 14
     117                      .dwcfi  undefined, 16
     118                      .dwcfi  undefined, 17
     119                      .dwcfi  undefined, 18
     120                      .dwcfi  undefined, 19
     121                      .dwcfi  undefined, 5
     122                      .dwcfi  undefined, 7
     123                      .dwcfi  undefined, 9
     124                      .dwcfi  undefined, 11
     125                      .dwcfi  undefined, 13
     126                      .dwcfi  undefined, 15
     127                      .dwcfi  undefined, 43
     128                      .dwcfi  undefined, 44
     129                      .dwcfi  undefined, 47
     130                      .dwcfi  undefined, 48
     131                      .dwcfi  undefined, 51
     132                      .dwcfi  undefined, 52
     133                      .dwcfi  undefined, 55
     134                      .dwcfi  undefined, 56
     135                      .dwcfi  undefined, 59
     136                      .dwcfi  undefined, 60
     137                      .dwcfi  undefined, 63
     138                      .dwcfi  undefined, 64
     139                      .dwcfi  undefined, 67
     140                      .dwcfi  undefined, 68
     141                      .dwcfi  undefined, 71
     142                      .dwcfi  undefined, 72
     143                      .dwcfi  undefined, 73
     144                      .dwcfi  undefined, 74
     145                      .dwcfi  undefined, 39
     146                      .dwcfi  undefined, 40
     147                      .dwcfi  undefined, 27
     148                      .dwcfi  undefined, 78
     149                      .dwendentry
     150              
     151              ;***************************************************************
     152              ;* DWARF REGISTER MAP                                          *
     153              ;***************************************************************
     154              
     155              $C$DW$1 .dwtag  DW_TAG_TI_assign_register, DW_AT_name("AL")
     156                      .dwattr $C$DW$1, DW_AT_location[DW_OP_reg0]
     157              $C$DW$2 .dwtag  DW_TAG_TI_assign_register, DW_AT_name("AH")
     158                      .dwattr $C$DW$2, DW_AT_location[DW_OP_reg1]
     159              $C$DW$3 .dwtag  DW_TAG_TI_assign_register, DW_AT_name("PL")
     160                      .dwattr $C$DW$3, DW_AT_location[DW_OP_reg2]
     161              $C$DW$4 .dwtag  DW_TAG_TI_assign_register, DW_AT_name("PH")
     162                      .dwattr $C$DW$4, DW_AT_location[DW_OP_reg3]
     163              $C$DW$5 .dwtag  DW_TAG_TI_assign_register, DW_AT_name("SP")
     164                      .dwattr $C$DW$5, DW_AT_location[DW_OP_reg20]
     165              $C$DW$6 .dwtag  DW_TAG_TI_assign_register, DW_AT_name("XT")
TMS320C2000 Assembler PC v6.2.0 Mon Aug 31 10:04:20 2020

Tools Copyright (c) 1996-2013 Texas Instruments Incorporated
mmscfg_c.asm                                                         PAGE    4

     166                      .dwattr $C$DW$6, DW_AT_location[DW_OP_reg21]
     167              $C$DW$7 .dwtag  DW_TAG_TI_assign_register, DW_AT_name("T")
     168                      .dwattr $C$DW$7, DW_AT_location[DW_OP_reg22]
     169              $C$DW$8 .dwtag  DW_TAG_TI_assign_register, DW_AT_name("ST0")
     170                      .dwattr $C$DW$8, DW_AT_location[DW_OP_reg23]
     171              $C$DW$9 .dwtag  DW_TAG_TI_assign_register, DW_AT_name("ST1")
     172                      .dwattr $C$DW$9, DW_AT_location[DW_OP_reg24]
     173              $C$DW$10        .dwtag  DW_TAG_TI_assign_register, DW_AT_name("PC")
     174                      .dwattr $C$DW$10, DW_AT_location[DW_OP_reg25]
     175              $C$DW$11        .dwtag  DW_TAG_TI_assign_register, DW_AT_name("RPC")
     176                      .dwattr $C$DW$11, DW_AT_location[DW_OP_reg26]
     177              $C$DW$12        .dwtag  DW_TAG_TI_assign_register, DW_AT_name("FP")
     178                      .dwattr $C$DW$12, DW_AT_location[DW_OP_reg28]
     179              $C$DW$13        .dwtag  DW_TAG_TI_assign_register, DW_AT_name("DP")
     180                      .dwattr $C$DW$13, DW_AT_location[DW_OP_reg29]
     181              $C$DW$14        .dwtag  DW_TAG_TI_assign_register, DW_AT_name("SXM")
     182                      .dwattr $C$DW$14, DW_AT_location[DW_OP_reg30]
     183              $C$DW$15        .dwtag  DW_TAG_TI_assign_register, DW_AT_name("PM")
     184                      .dwattr $C$DW$15, DW_AT_location[DW_OP_reg31]
     185              $C$DW$16        .dwtag  DW_TAG_TI_assign_register, DW_AT_name("OVM")
     186                      .dwattr $C$DW$16, DW_AT_location[DW_OP_regx 0x20]
     187              $C$DW$17        .dwtag  DW_TAG_TI_assign_register, DW_AT_name("PAGE0")
     188                      .dwattr $C$DW$17, DW_AT_location[DW_OP_regx 0x21]
     189              $C$DW$18        .dwtag  DW_TAG_TI_assign_register, DW_AT_name("AMODE")
     190                      .dwattr $C$DW$18, DW_AT_location[DW_OP_regx 0x22]
     191              $C$DW$19        .dwtag  DW_TAG_TI_assign_register, DW_AT_name("INTM")
     192                      .dwattr $C$DW$19, DW_AT_location[DW_OP_regx 0x23]
     193              $C$DW$20        .dwtag  DW_TAG_TI_assign_register, DW_AT_name("IFR")
     194                      .dwattr $C$DW$20, DW_AT_location[DW_OP_regx 0x24]
     195              $C$DW$21        .dwtag  DW_TAG_TI_assign_register, DW_AT_name("IER")
     196                      .dwattr $C$DW$21, DW_AT_location[DW_OP_regx 0x25]
     197              $C$DW$22        .dwtag  DW_TAG_TI_assign_register, DW_AT_name("V")
     198                      .dwattr $C$DW$22, DW_AT_location[DW_OP_regx 0x26]
     199              $C$DW$23        .dwtag  DW_TAG_TI_assign_register, DW_AT_name("PSEUDO")
     200                      .dwattr $C$DW$23, DW_AT_location[DW_OP_regx 0x4b]
     201              $C$DW$24        .dwtag  DW_TAG_TI_assign_register, DW_AT_name("PSEUDOH")
     202                      .dwattr $C$DW$24, DW_AT_location[DW_OP_regx 0x4c]
     203              $C$DW$25        .dwtag  DW_TAG_TI_assign_register, DW_AT_name("VOL")
     204                      .dwattr $C$DW$25, DW_AT_location[DW_OP_regx 0x4d]
     205              $C$DW$26        .dwtag  DW_TAG_TI_assign_register, DW_AT_name("AR0")
     206                      .dwattr $C$DW$26, DW_AT_location[DW_OP_reg4]
     207              $C$DW$27        .dwtag  DW_TAG_TI_assign_register, DW_AT_name("AR1")
     208                      .dwattr $C$DW$27, DW_AT_location[DW_OP_reg6]
     209              $C$DW$28        .dwtag  DW_TAG_TI_assign_register, DW_AT_name("AR2")
     210                      .dwattr $C$DW$28, DW_AT_location[DW_OP_reg8]
     211              $C$DW$29        .dwtag  DW_TAG_TI_assign_register, DW_AT_name("AR3")
     212                      .dwattr $C$DW$29, DW_AT_location[DW_OP_reg10]
     213              $C$DW$30        .dwtag  DW_TAG_TI_assign_register, DW_AT_name("AR4")
     214                      .dwattr $C$DW$30, DW_AT_location[DW_OP_reg12]
     215              $C$DW$31        .dwtag  DW_TAG_TI_assign_register, DW_AT_name("AR5")
     216                      .dwattr $C$DW$31, DW_AT_location[DW_OP_reg14]
     217              $C$DW$32        .dwtag  DW_TAG_TI_assign_register, DW_AT_name("AR6")
     218                      .dwattr $C$DW$32, DW_AT_location[DW_OP_reg16]
     219              $C$DW$33        .dwtag  DW_TAG_TI_assign_register, DW_AT_name("XAR6")
     220                      .dwattr $C$DW$33, DW_AT_location[DW_OP_reg17]
TMS320C2000 Assembler PC v6.2.0 Mon Aug 31 10:04:20 2020

Tools Copyright (c) 1996-2013 Texas Instruments Incorporated
mmscfg_c.asm                                                         PAGE    5

     221              $C$DW$34        .dwtag  DW_TAG_TI_assign_register, DW_AT_name("AR7")
     222                      .dwattr $C$DW$34, DW_AT_location[DW_OP_reg18]
     223              $C$DW$35        .dwtag  DW_TAG_TI_assign_register, DW_AT_name("XAR7")
     224                      .dwattr $C$DW$35, DW_AT_location[DW_OP_reg19]
     225              $C$DW$36        .dwtag  DW_TAG_TI_assign_register, DW_AT_name("XAR0")
     226                      .dwattr $C$DW$36, DW_AT_location[DW_OP_reg5]
     227              $C$DW$37        .dwtag  DW_TAG_TI_assign_register, DW_AT_name("XAR1")
     228                      .dwattr $C$DW$37, DW_AT_location[DW_OP_reg7]
     229              $C$DW$38        .dwtag  DW_TAG_TI_assign_register, DW_AT_name("XAR2")
     230                      .dwattr $C$DW$38, DW_AT_location[DW_OP_reg9]
     231              $C$DW$39        .dwtag  DW_TAG_TI_assign_register, DW_AT_name("XAR3")
     232                      .dwattr $C$DW$39, DW_AT_location[DW_OP_reg11]
     233              $C$DW$40        .dwtag  DW_TAG_TI_assign_register, DW_AT_name("XAR4")
     234                      .dwattr $C$DW$40, DW_AT_location[DW_OP_reg13]
     235              $C$DW$41        .dwtag  DW_TAG_TI_assign_register, DW_AT_name("XAR5")
     236                      .dwattr $C$DW$41, DW_AT_location[DW_OP_reg15]
     237              $C$DW$42        .dwtag  DW_TAG_TI_assign_register, DW_AT_name("R0HL")
     238                      .dwattr $C$DW$42, DW_AT_location[DW_OP_regx 0x2b]
     239              $C$DW$43        .dwtag  DW_TAG_TI_assign_register, DW_AT_name("R0H")
     240                      .dwattr $C$DW$43, DW_AT_location[DW_OP_regx 0x2c]
     241              $C$DW$44        .dwtag  DW_TAG_TI_assign_register, DW_AT_name("R1HL")
     242                      .dwattr $C$DW$44, DW_AT_location[DW_OP_regx 0x2f]
     243              $C$DW$45        .dwtag  DW_TAG_TI_assign_register, DW_AT_name("R1H")
     244                      .dwattr $C$DW$45, DW_AT_location[DW_OP_regx 0x30]
     245              $C$DW$46        .dwtag  DW_TAG_TI_assign_register, DW_AT_name("R2HL")
     246                      .dwattr $C$DW$46, DW_AT_location[DW_OP_regx 0x33]
     247              $C$DW$47        .dwtag  DW_TAG_TI_assign_register, DW_AT_name("R2H")
     248                      .dwattr $C$DW$47, DW_AT_location[DW_OP_regx 0x34]
     249              $C$DW$48        .dwtag  DW_TAG_TI_assign_register, DW_AT_name("R3HL")
     250                      .dwattr $C$DW$48, DW_AT_location[DW_OP_regx 0x37]
     251              $C$DW$49        .dwtag  DW_TAG_TI_assign_register, DW_AT_name("R3H")
     252                      .dwattr $C$DW$49, DW_AT_location[DW_OP_regx 0x38]
     253              $C$DW$50        .dwtag  DW_TAG_TI_assign_register, DW_AT_name("R4HL")
     254                      .dwattr $C$DW$50, DW_AT_location[DW_OP_regx 0x3b]
     255              $C$DW$51        .dwtag  DW_TAG_TI_assign_register, DW_AT_name("R4H")
     256                      .dwattr $C$DW$51, DW_AT_location[DW_OP_regx 0x3c]
     257              $C$DW$52        .dwtag  DW_TAG_TI_assign_register, DW_AT_name("R5HL")
     258                      .dwattr $C$DW$52, DW_AT_location[DW_OP_regx 0x3f]
     259              $C$DW$53        .dwtag  DW_TAG_TI_assign_register, DW_AT_name("R5H")
     260                      .dwattr $C$DW$53, DW_AT_location[DW_OP_regx 0x40]
     261              $C$DW$54        .dwtag  DW_TAG_TI_assign_register, DW_AT_name("R6HL")
     262                      .dwattr $C$DW$54, DW_AT_location[DW_OP_regx 0x43]
     263              $C$DW$55        .dwtag  DW_TAG_TI_assign_register, DW_AT_name("R6H")
     264                      .dwattr $C$DW$55, DW_AT_location[DW_OP_regx 0x44]
     265              $C$DW$56        .dwtag  DW_TAG_TI_assign_register, DW_AT_name("R7HL")
     266                      .dwattr $C$DW$56, DW_AT_location[DW_OP_regx 0x47]
     267              $C$DW$57        .dwtag  DW_TAG_TI_assign_register, DW_AT_name("R7H")
     268                      .dwattr $C$DW$57, DW_AT_location[DW_OP_regx 0x48]
     269              $C$DW$58        .dwtag  DW_TAG_TI_assign_register, DW_AT_name("RBL")
     270                      .dwattr $C$DW$58, DW_AT_location[DW_OP_regx 0x49]
     271              $C$DW$59        .dwtag  DW_TAG_TI_assign_register, DW_AT_name("RB")
     272                      .dwattr $C$DW$59, DW_AT_location[DW_OP_regx 0x4a]
     273              $C$DW$60        .dwtag  DW_TAG_TI_assign_register, DW_AT_name("STFL")
     274                      .dwattr $C$DW$60, DW_AT_location[DW_OP_regx 0x27]
     275              $C$DW$61        .dwtag  DW_TAG_TI_assign_register, DW_AT_name("STF")
TMS320C2000 Assembler PC v6.2.0 Mon Aug 31 10:04:20 2020

Tools Copyright (c) 1996-2013 Texas Instruments Incorporated
mmscfg_c.asm                                                         PAGE    6

     276                      .dwattr $C$DW$61, DW_AT_location[DW_OP_regx 0x28]
     277              $C$DW$62        .dwtag  DW_TAG_TI_assign_register, DW_AT_name("FPUHAZ")
     278                      .dwattr $C$DW$62, DW_AT_location[DW_OP_reg27]
     279              $C$DW$63        .dwtag  DW_TAG_TI_assign_register, DW_AT_name("CIE_RETA")
     280                      .dwattr $C$DW$63, DW_AT_location[DW_OP_regx 0x4e]
     281                      .dwendtag $C$DW$CU
     282              

No Assembly Errors, No Assembly Warnings
