TMS320C2000 Assembler PC v6.2.0 Mon Aug 31 10:04:27 2020

Tools Copyright (c) 1996-2013 Texas Instruments Incorporated
crc32.asm                                                            PAGE    1

       1              ;***************************************************************
       2              ;* TMS320C2000 C/C++ Codegen                         PC v6.2.0 *
       3              ;* Date/Time created: Mon Aug 31 10:04:27 2020                 *
       4              ;***************************************************************
       5                      .compiler_opts --float_support=fpu32 --hll_source=on --mem_model:code=flat --mem_model:data=large --o
       6        0002  FP      .set    XAR2
       7              
       8              $C$DW$CU        .dwtag  DW_TAG_compile_unit
       9                      .dwattr $C$DW$CU, DW_AT_name("../LIB2806x/source/crc32.c")
      10                      .dwattr $C$DW$CU, DW_AT_producer("TMS320C2000 C/C++ Codegen PC v6.2.0 Copyright (c) 1996-2013 Texas I
      11                      .dwattr $C$DW$CU, DW_AT_TI_version(0x01)
      12                      .dwattr $C$DW$CU, DW_AT_comp_dir("C:\Users\aen17\Desktop\Working\SVN\Repository\R_Module_48V_Standard
      13              
      14              $C$DW$1 .dwtag  DW_TAG_subprogram, DW_AT_name("__byte")
      15                      .dwattr $C$DW$1, DW_AT_TI_symbol_name("___byte")
      16                      .dwattr $C$DW$1, DW_AT_type(*$C$DW$T$25)
      17                      .dwattr $C$DW$1, DW_AT_declaration
      18                      .dwattr $C$DW$1, DW_AT_external
      19              $C$DW$2 .dwtag  DW_TAG_formal_parameter
      20                      .dwattr $C$DW$2, DW_AT_type(*$C$DW$T$25)
      21              $C$DW$3 .dwtag  DW_TAG_formal_parameter
      22                      .dwattr $C$DW$3, DW_AT_type(*$C$DW$T$11)
      23                      .dwendtag $C$DW$1
      24              
      25                      .global _crc32_table
      26 00000000       _crc32_table:   .usect  "CRC32_TABLE",512,1,1
      27              $C$DW$4 .dwtag  DW_TAG_variable, DW_AT_name("crc32_table")
      28                      .dwattr $C$DW$4, DW_AT_TI_symbol_name("_crc32_table")
      29                      .dwattr $C$DW$4, DW_AT_location[DW_OP_addr _crc32_table]
      30                      .dwattr $C$DW$4, DW_AT_type(*$C$DW$T$28)
      31                      .dwattr $C$DW$4, DW_AT_external
      32              ;       C:\ti\ccsv5\tools\compiler\c2000_6.2.0\bin\ac2000.exe -@C:\\Users\\ADMINI~1\\AppData\\Local\\Temp\\11
      33 00000000               .sect   ".text"
      34                      .global _genCRC32Table
      35              
      36              $C$DW$5 .dwtag  DW_TAG_subprogram, DW_AT_name("genCRC32Table")
      37                      .dwattr $C$DW$5, DW_AT_low_pc(_genCRC32Table)
      38                      .dwattr $C$DW$5, DW_AT_high_pc(0x00)
      39                      .dwattr $C$DW$5, DW_AT_TI_symbol_name("_genCRC32Table")
      40                      .dwattr $C$DW$5, DW_AT_external
      41                      .dwattr $C$DW$5, DW_AT_TI_begin_file("../LIB2806x/source/crc32.c")
      42                      .dwattr $C$DW$5, DW_AT_TI_begin_line(0x30)
      43                      .dwattr $C$DW$5, DW_AT_TI_begin_column(0x07)
      44                      .dwattr $C$DW$5, DW_AT_TI_max_frame_size(-2)
      45                      .dwpsn  file "../LIB2806x/source/crc32.c",line 50,column 1,is_stmt,address _genCRC32Table
      46              
      47                      .dwfde $C$DW$CIE, _genCRC32Table
      48              
      49              ;***************************************************************
      50              ;* FNAME: _genCRC32Table                FR SIZE:   0           *
      51              ;*                                                             *
      52              ;* FUNCTION ENVIRONMENT                                        *
      53              ;*                                                             *
      54              ;* FUNCTION PROPERTIES                                         *
      55              ;*                            0 Parameter,  0 Auto,  0 SOE     *
TMS320C2000 Assembler PC v6.2.0 Mon Aug 31 10:04:27 2020

Tools Copyright (c) 1996-2013 Texas Instruments Incorporated
crc32.asm                                                            PAGE    2

      56              ;***************************************************************
      57              
      58 00000000       _genCRC32Table:
      59                      .dwcfi  cfa_offset, -2
      60                      .dwcfi  save_reg_to_mem, 26, 0
      61                      .dwcfi  save_reg_to_reg, 78, 26
      62              ;* AR4   assigned to _i
      63              $C$DW$6 .dwtag  DW_TAG_variable, DW_AT_name("i")
      64                      .dwattr $C$DW$6, DW_AT_TI_symbol_name("_i")
      65                      .dwattr $C$DW$6, DW_AT_type(*$C$DW$T$9)
      66                      .dwattr $C$DW$6, DW_AT_location[DW_OP_reg12]
      67              ;* AR6   assigned to _j
      68              $C$DW$7 .dwtag  DW_TAG_variable, DW_AT_name("j")
      69                      .dwattr $C$DW$7, DW_AT_TI_symbol_name("_j")
      70                      .dwattr $C$DW$7, DW_AT_type(*$C$DW$T$9)
      71                      .dwattr $C$DW$7, DW_AT_location[DW_OP_reg16]
      72              ;* AR7   assigned to _crc32_accum
      73              $C$DW$8 .dwtag  DW_TAG_variable, DW_AT_name("crc32_accum")
      74                      .dwattr $C$DW$8, DW_AT_TI_symbol_name("_crc32_accum")
      75                      .dwattr $C$DW$8, DW_AT_type(*$C$DW$T$13)
      76                      .dwattr $C$DW$8, DW_AT_location[DW_OP_reg18]
      77                      .dwpsn  file "../LIB2806x/source/crc32.c",line 53,column 9,is_stmt
      78 00000000 D400          MOVB      XAR4,#0               ; [CPU_] |53| 
      79                      .dwpsn  file "../LIB2806x/source/crc32.c",line 53,column 17,is_stmt
      80 00000001 1BA4          CMP       AR4,#256              ; [CPU_] |53| 
         00000002 0100 
      81 00000003 6728          B         $C$L6,HIS             ; [CPU_] |53| 
      82                      ; branchcc occurs ; [] |53| 
      83 00000004       $C$L1:    
      84                      .dwpsn  file "../LIB2806x/source/crc32.c",line 56,column 5,is_stmt
      85 00000004 0EA4          MOVU      ACC,AR4               ; [CPU_] |56| 
      86 00000005 28AC          MOV       T,#24                 ; [CPU_] |56| 
         00000006 0018 
      87 00000007 563B          LSLL      ACC,T                 ; [CPU_] |56| 
      88 00000008 1EA7          MOVL      XAR7,ACC              ; [CPU_] |56| 
      89                      .dwpsn  file "../LIB2806x/source/crc32.c",line 57,column 11,is_stmt
      90 00000009 BE00          MOVB      XAR6,#0               ; [CPU_] |57| 
      91                      .dwpsn  file "../LIB2806x/source/crc32.c",line 57,column 19,is_stmt
      92 0000000a 92A6          MOV       AL,AR6                ; [CPU_] 
      93 0000000b 5208          CMPB      AL,#8                 ; [CPU_] |57| 
      94 0000000c 6714          B         $C$L5,HIS             ; [CPU_] |57| 
      95                      ; branchcc occurs ; [] |57| 
      96 0000000d       $C$L2:    
      97                      .dwpsn  file "../LIB2806x/source/crc32.c",line 59,column 7,is_stmt
      98 0000000d 06A7          MOVL      ACC,XAR7              ; [CPU_] 
      99 0000000e 5608          AND       ACC,#32768 << 16      ; [CPU_] |59| 
         0000000f 8000 
     100 00000010 EC09          BF        $C$L3,EQ              ; [CPU_] |59| 
     101                      ; branchcc occurs ; [] |59| 
     102                      .dwpsn  file "../LIB2806x/source/crc32.c",line 60,column 9,is_stmt
     103 00000011 06A7          MOVL      ACC,XAR7              ; [CPU_] 
     104 00000012 FF30          LSL       ACC,1                 ; [CPU_] |60| 
     105 00000013 1CA9          XOR       AL,#7607              ; [CPU_] |60| 
         00000014 1DB7 
     106 00000015 1CA8          XOR       AH,#1217              ; [CPU_] |60| 
TMS320C2000 Assembler PC v6.2.0 Mon Aug 31 10:04:27 2020

Tools Copyright (c) 1996-2013 Texas Instruments Incorporated
crc32.asm                                                            PAGE    3

         00000016 04C1 
     107 00000017 1EA7          MOVL      XAR7,ACC              ; [CPU_] |60| 
     108 00000018 6F04          B         $C$L4,UNC             ; [CPU_] |60| 
     109                      ; branch occurs ; [] |60| 
     110 00000019       $C$L3:    
     111                      .dwpsn  file "../LIB2806x/source/crc32.c",line 62,column 9,is_stmt
     112 00000019 06A7          MOVL      ACC,XAR7              ; [CPU_] 
     113 0000001a FF30          LSL       ACC,1                 ; [CPU_] |62| 
     114 0000001b 1EA7          MOVL      XAR7,ACC              ; [CPU_] |62| 
     115 0000001c       $C$L4:    
     116                      .dwpsn  file "../LIB2806x/source/crc32.c",line 57,column 27,is_stmt
     117 0000001c DE01          ADDB      XAR6,#1               ; [CPU_] |57| 
     118                      .dwpsn  file "../LIB2806x/source/crc32.c",line 57,column 19,is_stmt
     119 0000001d 92A6          MOV       AL,AR6                ; [CPU_] 
     120 0000001e 5208          CMPB      AL,#8                 ; [CPU_] |57| 
     121 0000001f 68EE          B         $C$L2,LO              ; [CPU_] |57| 
     122                      ; branchcc occurs ; [] |57| 
     123 00000020       $C$L5:    
     124                      .dwpsn  file "../LIB2806x/source/crc32.c",line 64,column 5,is_stmt
     125 00000020 0EA4          MOVU      ACC,AR4               ; [CPU_] |64| 
     126 00000021 8F40-         MOVL      XAR5,#_crc32_table    ; [CPU_U] |64| 
         00000022 0000 
     127 00000023 FF30          LSL       ACC,1                 ; [CPU_] |64| 
     128 00000024 5601          ADDL      XAR5,ACC              ; [CPU_] |64| 
         00000025 00A5 
     129 00000026 C3C5          MOVL      *+XAR5[0],XAR7        ; [CPU_] |64| 
     130                      .dwpsn  file "../LIB2806x/source/crc32.c",line 53,column 27,is_stmt
     131 00000027 DC01          ADDB      XAR4,#1               ; [CPU_] |53| 
     132                      .dwpsn  file "../LIB2806x/source/crc32.c",line 53,column 17,is_stmt
     133 00000028 1BA4          CMP       AR4,#256              ; [CPU_] |53| 
         00000029 0100 
     134 0000002a 68DA          B         $C$L1,LO              ; [CPU_] |53| 
     135                      ; branchcc occurs ; [] |53| 
     136                      .dwpsn  file "../LIB2806x/source/crc32.c",line 66,column 1,is_stmt
     137              $C$L6:    
     138              $C$DW$9 .dwtag  DW_TAG_TI_branch
     139                      .dwattr $C$DW$9, DW_AT_low_pc(0x00)
     140                      .dwattr $C$DW$9, DW_AT_TI_return
     141 0000002b 0006          LRETR     ; [CPU_] 
     142                      ; return occurs ; [] 
     143                      .dwattr $C$DW$5, DW_AT_TI_end_file("../LIB2806x/source/crc32.c")
     144                      .dwattr $C$DW$5, DW_AT_TI_end_line(0x42)
     145                      .dwattr $C$DW$5, DW_AT_TI_end_column(0x01)
     146                      .dwendentry
     147                      .dwendtag $C$DW$5
     148              
     149 0000002c               .sect   ".text"
     150                      .global _getCRC32_cpu
     151              
     152              $C$DW$10        .dwtag  DW_TAG_subprogram, DW_AT_name("getCRC32_cpu")
     153                      .dwattr $C$DW$10, DW_AT_low_pc(_getCRC32_cpu)
     154                      .dwattr $C$DW$10, DW_AT_high_pc(0x00)
     155                      .dwattr $C$DW$10, DW_AT_TI_symbol_name("_getCRC32_cpu")
     156                      .dwattr $C$DW$10, DW_AT_external
     157                      .dwattr $C$DW$10, DW_AT_type(*$C$DW$T$13)
TMS320C2000 Assembler PC v6.2.0 Mon Aug 31 10:04:27 2020

Tools Copyright (c) 1996-2013 Texas Instruments Incorporated
crc32.asm                                                            PAGE    4

     158                      .dwattr $C$DW$10, DW_AT_TI_begin_file("../LIB2806x/source/crc32.c")
     159                      .dwattr $C$DW$10, DW_AT_TI_begin_line(0x54)
     160                      .dwattr $C$DW$10, DW_AT_TI_begin_column(0x08)
     161                      .dwattr $C$DW$10, DW_AT_TI_max_frame_size(-12)
     162                      .dwpsn  file "../LIB2806x/source/crc32.c",line 86,column 1,is_stmt,address _getCRC32_cpu
     163              
     164                      .dwfde $C$DW$CIE, _getCRC32_cpu
     165              $C$DW$11        .dwtag  DW_TAG_formal_parameter, DW_AT_name("input_crc32_accum")
     166                      .dwattr $C$DW$11, DW_AT_TI_symbol_name("_input_crc32_accum")
     167                      .dwattr $C$DW$11, DW_AT_type(*$C$DW$T$13)
     168                      .dwattr $C$DW$11, DW_AT_location[DW_OP_reg0]
     169              $C$DW$12        .dwtag  DW_TAG_formal_parameter, DW_AT_name("msg")
     170                      .dwattr $C$DW$12, DW_AT_TI_symbol_name("_msg")
     171                      .dwattr $C$DW$12, DW_AT_type(*$C$DW$T$22)
     172                      .dwattr $C$DW$12, DW_AT_location[DW_OP_reg12]
     173              $C$DW$13        .dwtag  DW_TAG_formal_parameter, DW_AT_name("parity")
     174                      .dwattr $C$DW$13, DW_AT_TI_symbol_name("_parity")
     175                      .dwattr $C$DW$13, DW_AT_type(*$C$DW$T$20)
     176                      .dwattr $C$DW$13, DW_AT_location[DW_OP_reg14]
     177              $C$DW$14        .dwtag  DW_TAG_formal_parameter, DW_AT_name("rxLen")
     178                      .dwattr $C$DW$14, DW_AT_TI_symbol_name("_rxLen")
     179                      .dwattr $C$DW$14, DW_AT_type(*$C$DW$T$9)
     180                      .dwattr $C$DW$14, DW_AT_location[DW_OP_breg20 -13]
     181              
     182              ;***************************************************************
     183              ;* FNAME: _getCRC32_cpu                 FR SIZE:  10           *
     184              ;*                                                             *
     185              ;* FUNCTION ENVIRONMENT                                        *
     186              ;*                                                             *
     187              ;* FUNCTION PROPERTIES                                         *
     188              ;*                            0 Parameter, 10 Auto,  0 SOE     *
     189              ;***************************************************************
     190              
     191 0000002c       _getCRC32_cpu:
     192                      .dwcfi  cfa_offset, -2
     193                      .dwcfi  save_reg_to_mem, 26, 0
     194                      .dwcfi  save_reg_to_reg, 78, 26
     195 0000002c FE0A          ADDB      SP,#10                ; [CPU_U] 
     196                      .dwcfi  cfa_offset, -12
     197              $C$DW$15        .dwtag  DW_TAG_variable, DW_AT_name("input_crc32_accum")
     198                      .dwattr $C$DW$15, DW_AT_TI_symbol_name("_input_crc32_accum")
     199                      .dwattr $C$DW$15, DW_AT_type(*$C$DW$T$13)
     200                      .dwattr $C$DW$15, DW_AT_location[DW_OP_breg20 -2]
     201              $C$DW$16        .dwtag  DW_TAG_variable, DW_AT_name("msg")
     202                      .dwattr $C$DW$16, DW_AT_TI_symbol_name("_msg")
     203                      .dwattr $C$DW$16, DW_AT_type(*$C$DW$T$22)
     204                      .dwattr $C$DW$16, DW_AT_location[DW_OP_breg20 -4]
     205              $C$DW$17        .dwtag  DW_TAG_variable, DW_AT_name("parity")
     206                      .dwattr $C$DW$17, DW_AT_TI_symbol_name("_parity")
     207                      .dwattr $C$DW$17, DW_AT_type(*$C$DW$T$20)
     208                      .dwattr $C$DW$17, DW_AT_location[DW_OP_breg20 -5]
     209              ;* AH    assigned to _i
     210              $C$DW$18        .dwtag  DW_TAG_variable, DW_AT_name("i")
     211                      .dwattr $C$DW$18, DW_AT_TI_symbol_name("_i")
     212                      .dwattr $C$DW$18, DW_AT_type(*$C$DW$T$9)
TMS320C2000 Assembler PC v6.2.0 Mon Aug 31 10:04:27 2020

Tools Copyright (c) 1996-2013 Texas Instruments Incorporated
crc32.asm                                                            PAGE    5

     213                      .dwattr $C$DW$18, DW_AT_location[DW_OP_reg1]
     214              ;* AR6   assigned to _j
     215              $C$DW$19        .dwtag  DW_TAG_variable, DW_AT_name("j")
     216                      .dwattr $C$DW$19, DW_AT_TI_symbol_name("_j")
     217                      .dwattr $C$DW$19, DW_AT_type(*$C$DW$T$9)
     218                      .dwattr $C$DW$19, DW_AT_location[DW_OP_reg16]
     219              $C$DW$20        .dwtag  DW_TAG_variable, DW_AT_name("crc32_accum")
     220                      .dwattr $C$DW$20, DW_AT_TI_symbol_name("_crc32_accum")
     221                      .dwattr $C$DW$20, DW_AT_type(*$C$DW$T$13)
     222                      .dwattr $C$DW$20, DW_AT_location[DW_OP_breg20 -8]
     223              $C$DW$21        .dwtag  DW_TAG_variable, DW_AT_name("pdata")
     224                      .dwattr $C$DW$21, DW_AT_TI_symbol_name("_pdata")
     225                      .dwattr $C$DW$21, DW_AT_type(*$C$DW$T$24)
     226                      .dwattr $C$DW$21, DW_AT_location[DW_OP_breg20 -10]
     227 0000002d 7D45          MOV       *-SP[5],AR5           ; [CPU_] |86| 
     228 0000002e A844          MOVL      *-SP[4],XAR4          ; [CPU_] |86| 
     229 0000002f 1E42          MOVL      *-SP[2],ACC           ; [CPU_] |86| 
     230                      .dwpsn  file "../LIB2806x/source/crc32.c",line 93,column 3,is_stmt
     231 00000030 0642          MOVL      ACC,*-SP[2]           ; [CPU_] |93| 
     232 00000031 1E48          MOVL      *-SP[8],ACC           ; [CPU_] |93| 
     233                      .dwpsn  file "../LIB2806x/source/crc32.c",line 94,column 3,is_stmt
     234 00000032 0644          MOVL      ACC,*-SP[4]           ; [CPU_] |94| 
     235 00000033 1E4A          MOVL      *-SP[10],ACC          ; [CPU_] |94| 
     236                      .dwpsn  file "../LIB2806x/source/crc32.c",line 96,column 8,is_stmt
     237 00000034 BE00          MOVB      XAR6,#0               ; [CPU_] |96| 
     238 00000035 28AC          MOV       T,#24                 ; [CPU_] |98| 
         00000036 0018 
     239 00000037 6F14          B         $C$L8,UNC             ; [CPU_] |96| 
     240                      ; branch occurs ; [] |96| 
     241 00000038       $C$L7:    
     242                      .dwpsn  file "../LIB2806x/source/crc32.c",line 98,column 5,is_stmt
     243 00000038 8A4A          MOVL      XAR4,*-SP[10]         ; [CPU_] |98| 
     244 00000039 5845          MOVZ      AR0,*-SP[5]           ; [CPU_] |98| 
     245 0000003a 0648          MOVL      ACC,*-SP[8]           ; [CPU_] |98| 
     246 0000003b 5622          LSRL      ACC,T                 ; [CPU_] |98| 
     247 0000003c C794          MOVB      AH.LSB,*+XAR4[AR0]    ; [CPU_] |98| 
     248 0000003d 71A9          XOR       AH,AL                 ; [CPU_] |98| 
     249                      .dwpsn  file "../LIB2806x/source/crc32.c",line 99,column 5,is_stmt
     250 0000003e 0EA8          MOVU      ACC,AH                ; [CPU_] |99| 
     251 0000003f 8F00-         MOVL      XAR4,#_crc32_table    ; [CPU_U] |99| 
         00000040 0000 
     252 00000041 FF30          LSL       ACC,1                 ; [CPU_] |99| 
     253 00000042 5601          ADDL      XAR4,ACC              ; [CPU_] |99| 
         00000043 00A4 
     254 00000044 0648          MOVL      ACC,*-SP[8]           ; [CPU_] |99| 
     255 00000045 FF37          LSL       ACC,8                 ; [CPU_] |99| 
     256 00000046 70C4          XOR       AL,*+XAR4[0]          ; [CPU_] |99| 
     257 00000047 71CC          XOR       AH,*+XAR4[1]          ; [CPU_] |99| 
     258 00000048 1E48          MOVL      *-SP[8],ACC           ; [CPU_] |99| 
     259                      .dwpsn  file "../LIB2806x/source/crc32.c",line 96,column 26,is_stmt
     260 00000049 DE01          ADDB      XAR6,#1               ; [CPU_] |96| 
     261 0000004a 0A45          INC       *-SP[5]               ; [CPU_] |96| 
     262 0000004b       $C$L8:    
     263                      .dwpsn  file "../LIB2806x/source/crc32.c",line 96,column 15,is_stmt
     264 0000004b 92A6          MOV       AL,AR6                ; [CPU_] |96| 
TMS320C2000 Assembler PC v6.2.0 Mon Aug 31 10:04:27 2020

Tools Copyright (c) 1996-2013 Texas Instruments Incorporated
crc32.asm                                                            PAGE    6

     265 0000004c 544D          CMP       AL,*-SP[13]           ; [CPU_] |96| 
     266 0000004d 68EB          B         $C$L7,LO              ; [CPU_] |96| 
     267                      ; branchcc occurs ; [] |96| 
     268                      .dwpsn  file "../LIB2806x/source/crc32.c",line 101,column 3,is_stmt
     269 0000004e 0648          MOVL      ACC,*-SP[8]           ; [CPU_] |101| 
     270                      .dwpsn  file "../LIB2806x/source/crc32.c",line 102,column 1,is_stmt
     271 0000004f FE8A          SUBB      SP,#10                ; [CPU_U] 
     272                      .dwcfi  cfa_offset, -2
     273              $C$DW$22        .dwtag  DW_TAG_TI_branch
     274                      .dwattr $C$DW$22, DW_AT_low_pc(0x00)
     275                      .dwattr $C$DW$22, DW_AT_TI_return
     276 00000050 0006          LRETR     ; [CPU_] 
     277                      ; return occurs ; [] 
     278                      .dwattr $C$DW$10, DW_AT_TI_end_file("../LIB2806x/source/crc32.c")
     279                      .dwattr $C$DW$10, DW_AT_TI_end_line(0x66)
     280                      .dwattr $C$DW$10, DW_AT_TI_end_column(0x01)
     281                      .dwendentry
     282                      .dwendtag $C$DW$10
     283              
     284              
     285              ;***************************************************************
     286              ;* TYPE INFORMATION                                            *
     287              ;***************************************************************
     288              
     289              $C$DW$T$19      .dwtag  DW_TAG_enumeration_type
     290                      .dwattr $C$DW$T$19, DW_AT_byte_size(0x01)
     291              $C$DW$23        .dwtag  DW_TAG_enumerator, DW_AT_name("EVEN"), DW_AT_const_value(0x00)
     292              $C$DW$24        .dwtag  DW_TAG_enumerator, DW_AT_name("ODD"), DW_AT_const_value(0x01)
     293                      .dwendtag $C$DW$T$19
     294              
     295              $C$DW$T$20      .dwtag  DW_TAG_typedef, DW_AT_name("parity_t")
     296                      .dwattr $C$DW$T$20, DW_AT_type(*$C$DW$T$19)
     297                      .dwattr $C$DW$T$20, DW_AT_language(DW_LANG_C)
     298              $C$DW$T$4       .dwtag  DW_TAG_base_type
     299                      .dwattr $C$DW$T$4, DW_AT_encoding(DW_ATE_boolean)
     300                      .dwattr $C$DW$T$4, DW_AT_name("bool")
     301                      .dwattr $C$DW$T$4, DW_AT_byte_size(0x01)
     302              $C$DW$T$5       .dwtag  DW_TAG_base_type
     303                      .dwattr $C$DW$T$5, DW_AT_encoding(DW_ATE_signed_char)
     304                      .dwattr $C$DW$T$5, DW_AT_name("signed char")
     305                      .dwattr $C$DW$T$5, DW_AT_byte_size(0x01)
     306              $C$DW$T$6       .dwtag  DW_TAG_base_type
     307                      .dwattr $C$DW$T$6, DW_AT_encoding(DW_ATE_unsigned_char)
     308                      .dwattr $C$DW$T$6, DW_AT_name("unsigned char")
     309                      .dwattr $C$DW$T$6, DW_AT_byte_size(0x01)
     310              $C$DW$T$7       .dwtag  DW_TAG_base_type
     311                      .dwattr $C$DW$T$7, DW_AT_encoding(DW_ATE_signed_char)
     312                      .dwattr $C$DW$T$7, DW_AT_name("wchar_t")
     313                      .dwattr $C$DW$T$7, DW_AT_byte_size(0x01)
     314              $C$DW$T$8       .dwtag  DW_TAG_base_type
     315                      .dwattr $C$DW$T$8, DW_AT_encoding(DW_ATE_signed)
     316                      .dwattr $C$DW$T$8, DW_AT_name("short")
     317                      .dwattr $C$DW$T$8, DW_AT_byte_size(0x01)
     318              $C$DW$T$9       .dwtag  DW_TAG_base_type
     319                      .dwattr $C$DW$T$9, DW_AT_encoding(DW_ATE_unsigned)
TMS320C2000 Assembler PC v6.2.0 Mon Aug 31 10:04:27 2020

Tools Copyright (c) 1996-2013 Texas Instruments Incorporated
crc32.asm                                                            PAGE    7

     320                      .dwattr $C$DW$T$9, DW_AT_name("unsigned short")
     321                      .dwattr $C$DW$T$9, DW_AT_byte_size(0x01)
     322              $C$DW$T$22      .dwtag  DW_TAG_pointer_type
     323                      .dwattr $C$DW$T$22, DW_AT_type(*$C$DW$T$9)
     324                      .dwattr $C$DW$T$22, DW_AT_address_class(0x16)
     325              $C$DW$T$10      .dwtag  DW_TAG_base_type
     326                      .dwattr $C$DW$T$10, DW_AT_encoding(DW_ATE_signed)
     327                      .dwattr $C$DW$T$10, DW_AT_name("int")
     328                      .dwattr $C$DW$T$10, DW_AT_byte_size(0x01)
     329              $C$DW$T$23      .dwtag  DW_TAG_typedef, DW_AT_name("SINT16")
     330                      .dwattr $C$DW$T$23, DW_AT_type(*$C$DW$T$10)
     331                      .dwattr $C$DW$T$23, DW_AT_language(DW_LANG_C)
     332              $C$DW$T$24      .dwtag  DW_TAG_pointer_type
     333                      .dwattr $C$DW$T$24, DW_AT_type(*$C$DW$T$23)
     334                      .dwattr $C$DW$T$24, DW_AT_address_class(0x16)
     335              $C$DW$T$25      .dwtag  DW_TAG_pointer_type
     336                      .dwattr $C$DW$T$25, DW_AT_type(*$C$DW$T$10)
     337                      .dwattr $C$DW$T$25, DW_AT_address_class(0x16)
     338              $C$DW$T$11      .dwtag  DW_TAG_base_type
     339                      .dwattr $C$DW$T$11, DW_AT_encoding(DW_ATE_unsigned)
     340                      .dwattr $C$DW$T$11, DW_AT_name("unsigned int")
     341                      .dwattr $C$DW$T$11, DW_AT_byte_size(0x01)
     342              $C$DW$T$12      .dwtag  DW_TAG_base_type
     343                      .dwattr $C$DW$T$12, DW_AT_encoding(DW_ATE_signed)
     344                      .dwattr $C$DW$T$12, DW_AT_name("long")
     345                      .dwattr $C$DW$T$12, DW_AT_byte_size(0x02)
     346              $C$DW$T$13      .dwtag  DW_TAG_base_type
     347                      .dwattr $C$DW$T$13, DW_AT_encoding(DW_ATE_unsigned)
     348                      .dwattr $C$DW$T$13, DW_AT_name("unsigned long")
     349                      .dwattr $C$DW$T$13, DW_AT_byte_size(0x02)
     350              
     351              $C$DW$T$28      .dwtag  DW_TAG_array_type
     352                      .dwattr $C$DW$T$28, DW_AT_type(*$C$DW$T$13)
     353                      .dwattr $C$DW$T$28, DW_AT_language(DW_LANG_C)
     354                      .dwattr $C$DW$T$28, DW_AT_byte_size(0x200)
     355              $C$DW$25        .dwtag  DW_TAG_subrange_type
     356                      .dwattr $C$DW$25, DW_AT_upper_bound(0xff)
     357                      .dwendtag $C$DW$T$28
     358              
     359              $C$DW$T$14      .dwtag  DW_TAG_base_type
     360                      .dwattr $C$DW$T$14, DW_AT_encoding(DW_ATE_signed)
     361                      .dwattr $C$DW$T$14, DW_AT_name("long long")
     362                      .dwattr $C$DW$T$14, DW_AT_byte_size(0x04)
     363              $C$DW$T$15      .dwtag  DW_TAG_base_type
     364                      .dwattr $C$DW$T$15, DW_AT_encoding(DW_ATE_unsigned)
     365                      .dwattr $C$DW$T$15, DW_AT_name("unsigned long long")
     366                      .dwattr $C$DW$T$15, DW_AT_byte_size(0x04)
     367              $C$DW$T$16      .dwtag  DW_TAG_base_type
     368                      .dwattr $C$DW$T$16, DW_AT_encoding(DW_ATE_float)
     369                      .dwattr $C$DW$T$16, DW_AT_name("float")
     370                      .dwattr $C$DW$T$16, DW_AT_byte_size(0x02)
     371              $C$DW$T$17      .dwtag  DW_TAG_base_type
     372                      .dwattr $C$DW$T$17, DW_AT_encoding(DW_ATE_float)
     373                      .dwattr $C$DW$T$17, DW_AT_name("double")
     374                      .dwattr $C$DW$T$17, DW_AT_byte_size(0x02)
TMS320C2000 Assembler PC v6.2.0 Mon Aug 31 10:04:27 2020

Tools Copyright (c) 1996-2013 Texas Instruments Incorporated
crc32.asm                                                            PAGE    8

     375              $C$DW$T$18      .dwtag  DW_TAG_base_type
     376                      .dwattr $C$DW$T$18, DW_AT_encoding(DW_ATE_float)
     377                      .dwattr $C$DW$T$18, DW_AT_name("long double")
     378                      .dwattr $C$DW$T$18, DW_AT_byte_size(0x04)
     379                      .dwattr $C$DW$CU, DW_AT_language(DW_LANG_C)
     380              
     381              ;***************************************************************
     382              ;* DWARF CIE ENTRIES                                           *
     383              ;***************************************************************
     384              
     385              $C$DW$CIE       .dwcie 78
     386                      .dwcfi  cfa_register, 20
     387                      .dwcfi  cfa_offset, 0
     388                      .dwcfi  undefined, 0
     389                      .dwcfi  undefined, 1
     390                      .dwcfi  undefined, 2
     391                      .dwcfi  undefined, 3
     392                      .dwcfi  undefined, 20
     393                      .dwcfi  undefined, 21
     394                      .dwcfi  undefined, 22
     395                      .dwcfi  undefined, 23
     396                      .dwcfi  undefined, 24
     397                      .dwcfi  undefined, 25
     398                      .dwcfi  undefined, 26
     399                      .dwcfi  same_value, 28
     400                      .dwcfi  undefined, 29
     401                      .dwcfi  undefined, 30
     402                      .dwcfi  undefined, 31
     403                      .dwcfi  undefined, 32
     404                      .dwcfi  undefined, 33
     405                      .dwcfi  undefined, 34
     406                      .dwcfi  undefined, 35
     407                      .dwcfi  undefined, 36
     408                      .dwcfi  undefined, 37
     409                      .dwcfi  undefined, 38
     410                      .dwcfi  undefined, 75
     411                      .dwcfi  undefined, 76
     412                      .dwcfi  undefined, 77
     413                      .dwcfi  undefined, 4
     414                      .dwcfi  same_value, 6
     415                      .dwcfi  same_value, 8
     416                      .dwcfi  same_value, 10
     417                      .dwcfi  undefined, 12
     418                      .dwcfi  undefined, 14
     419                      .dwcfi  undefined, 16
     420                      .dwcfi  undefined, 17
     421                      .dwcfi  undefined, 18
     422                      .dwcfi  undefined, 19
     423                      .dwcfi  undefined, 5
     424                      .dwcfi  same_value, 7
     425                      .dwcfi  same_value, 9
     426                      .dwcfi  same_value, 11
     427                      .dwcfi  undefined, 13
     428                      .dwcfi  undefined, 15
     429                      .dwcfi  undefined, 43
TMS320C2000 Assembler PC v6.2.0 Mon Aug 31 10:04:27 2020

Tools Copyright (c) 1996-2013 Texas Instruments Incorporated
crc32.asm                                                            PAGE    9

     430                      .dwcfi  undefined, 44
     431                      .dwcfi  undefined, 47
     432                      .dwcfi  undefined, 48
     433                      .dwcfi  undefined, 51
     434                      .dwcfi  undefined, 52
     435                      .dwcfi  undefined, 55
     436                      .dwcfi  undefined, 56
     437                      .dwcfi  same_value, 59
     438                      .dwcfi  same_value, 60
     439                      .dwcfi  same_value, 63
     440                      .dwcfi  same_value, 64
     441                      .dwcfi  same_value, 67
     442                      .dwcfi  same_value, 68
     443                      .dwcfi  same_value, 71
     444                      .dwcfi  same_value, 72
     445                      .dwcfi  undefined, 73
     446                      .dwcfi  undefined, 74
     447                      .dwcfi  undefined, 39
     448                      .dwcfi  undefined, 40
     449                      .dwcfi  undefined, 27
     450                      .dwcfi  undefined, 78
     451                      .dwendentry
     452              
     453              ;***************************************************************
     454              ;* DWARF REGISTER MAP                                          *
     455              ;***************************************************************
     456              
     457              $C$DW$26        .dwtag  DW_TAG_TI_assign_register, DW_AT_name("AL")
     458                      .dwattr $C$DW$26, DW_AT_location[DW_OP_reg0]
     459              $C$DW$27        .dwtag  DW_TAG_TI_assign_register, DW_AT_name("AH")
     460                      .dwattr $C$DW$27, DW_AT_location[DW_OP_reg1]
     461              $C$DW$28        .dwtag  DW_TAG_TI_assign_register, DW_AT_name("PL")
     462                      .dwattr $C$DW$28, DW_AT_location[DW_OP_reg2]
     463              $C$DW$29        .dwtag  DW_TAG_TI_assign_register, DW_AT_name("PH")
     464                      .dwattr $C$DW$29, DW_AT_location[DW_OP_reg3]
     465              $C$DW$30        .dwtag  DW_TAG_TI_assign_register, DW_AT_name("SP")
     466                      .dwattr $C$DW$30, DW_AT_location[DW_OP_reg20]
     467              $C$DW$31        .dwtag  DW_TAG_TI_assign_register, DW_AT_name("XT")
     468                      .dwattr $C$DW$31, DW_AT_location[DW_OP_reg21]
     469              $C$DW$32        .dwtag  DW_TAG_TI_assign_register, DW_AT_name("T")
     470                      .dwattr $C$DW$32, DW_AT_location[DW_OP_reg22]
     471              $C$DW$33        .dwtag  DW_TAG_TI_assign_register, DW_AT_name("ST0")
     472                      .dwattr $C$DW$33, DW_AT_location[DW_OP_reg23]
     473              $C$DW$34        .dwtag  DW_TAG_TI_assign_register, DW_AT_name("ST1")
     474                      .dwattr $C$DW$34, DW_AT_location[DW_OP_reg24]
     475              $C$DW$35        .dwtag  DW_TAG_TI_assign_register, DW_AT_name("PC")
     476                      .dwattr $C$DW$35, DW_AT_location[DW_OP_reg25]
     477              $C$DW$36        .dwtag  DW_TAG_TI_assign_register, DW_AT_name("RPC")
     478                      .dwattr $C$DW$36, DW_AT_location[DW_OP_reg26]
     479              $C$DW$37        .dwtag  DW_TAG_TI_assign_register, DW_AT_name("FP")
     480                      .dwattr $C$DW$37, DW_AT_location[DW_OP_reg28]
     481              $C$DW$38        .dwtag  DW_TAG_TI_assign_register, DW_AT_name("DP")
     482                      .dwattr $C$DW$38, DW_AT_location[DW_OP_reg29]
     483              $C$DW$39        .dwtag  DW_TAG_TI_assign_register, DW_AT_name("SXM")
     484                      .dwattr $C$DW$39, DW_AT_location[DW_OP_reg30]
TMS320C2000 Assembler PC v6.2.0 Mon Aug 31 10:04:27 2020

Tools Copyright (c) 1996-2013 Texas Instruments Incorporated
crc32.asm                                                            PAGE   10

     485              $C$DW$40        .dwtag  DW_TAG_TI_assign_register, DW_AT_name("PM")
     486                      .dwattr $C$DW$40, DW_AT_location[DW_OP_reg31]
     487              $C$DW$41        .dwtag  DW_TAG_TI_assign_register, DW_AT_name("OVM")
     488                      .dwattr $C$DW$41, DW_AT_location[DW_OP_regx 0x20]
     489              $C$DW$42        .dwtag  DW_TAG_TI_assign_register, DW_AT_name("PAGE0")
     490                      .dwattr $C$DW$42, DW_AT_location[DW_OP_regx 0x21]
     491              $C$DW$43        .dwtag  DW_TAG_TI_assign_register, DW_AT_name("AMODE")
     492                      .dwattr $C$DW$43, DW_AT_location[DW_OP_regx 0x22]
     493              $C$DW$44        .dwtag  DW_TAG_TI_assign_register, DW_AT_name("INTM")
     494                      .dwattr $C$DW$44, DW_AT_location[DW_OP_regx 0x23]
     495              $C$DW$45        .dwtag  DW_TAG_TI_assign_register, DW_AT_name("IFR")
     496                      .dwattr $C$DW$45, DW_AT_location[DW_OP_regx 0x24]
     497              $C$DW$46        .dwtag  DW_TAG_TI_assign_register, DW_AT_name("IER")
     498                      .dwattr $C$DW$46, DW_AT_location[DW_OP_regx 0x25]
     499              $C$DW$47        .dwtag  DW_TAG_TI_assign_register, DW_AT_name("V")
     500                      .dwattr $C$DW$47, DW_AT_location[DW_OP_regx 0x26]
     501              $C$DW$48        .dwtag  DW_TAG_TI_assign_register, DW_AT_name("PSEUDOH")
     502                      .dwattr $C$DW$48, DW_AT_location[DW_OP_regx 0x4c]
     503              $C$DW$49        .dwtag  DW_TAG_TI_assign_register, DW_AT_name("VOL")
     504                      .dwattr $C$DW$49, DW_AT_location[DW_OP_regx 0x4d]
     505              $C$DW$50        .dwtag  DW_TAG_TI_assign_register, DW_AT_name("AR0")
     506                      .dwattr $C$DW$50, DW_AT_location[DW_OP_reg4]
     507              $C$DW$51        .dwtag  DW_TAG_TI_assign_register, DW_AT_name("AR1")
     508                      .dwattr $C$DW$51, DW_AT_location[DW_OP_reg6]
     509              $C$DW$52        .dwtag  DW_TAG_TI_assign_register, DW_AT_name("AR2")
     510                      .dwattr $C$DW$52, DW_AT_location[DW_OP_reg8]
     511              $C$DW$53        .dwtag  DW_TAG_TI_assign_register, DW_AT_name("AR3")
     512                      .dwattr $C$DW$53, DW_AT_location[DW_OP_reg10]
     513              $C$DW$54        .dwtag  DW_TAG_TI_assign_register, DW_AT_name("AR4")
     514                      .dwattr $C$DW$54, DW_AT_location[DW_OP_reg12]
     515              $C$DW$55        .dwtag  DW_TAG_TI_assign_register, DW_AT_name("AR5")
     516                      .dwattr $C$DW$55, DW_AT_location[DW_OP_reg14]
     517              $C$DW$56        .dwtag  DW_TAG_TI_assign_register, DW_AT_name("AR6")
     518                      .dwattr $C$DW$56, DW_AT_location[DW_OP_reg16]
     519              $C$DW$57        .dwtag  DW_TAG_TI_assign_register, DW_AT_name("XAR6")
     520                      .dwattr $C$DW$57, DW_AT_location[DW_OP_reg17]
     521              $C$DW$58        .dwtag  DW_TAG_TI_assign_register, DW_AT_name("AR7")
     522                      .dwattr $C$DW$58, DW_AT_location[DW_OP_reg18]
     523              $C$DW$59        .dwtag  DW_TAG_TI_assign_register, DW_AT_name("XAR7")
     524                      .dwattr $C$DW$59, DW_AT_location[DW_OP_reg19]
     525              $C$DW$60        .dwtag  DW_TAG_TI_assign_register, DW_AT_name("XAR0")
     526                      .dwattr $C$DW$60, DW_AT_location[DW_OP_reg5]
     527              $C$DW$61        .dwtag  DW_TAG_TI_assign_register, DW_AT_name("XAR1")
     528                      .dwattr $C$DW$61, DW_AT_location[DW_OP_reg7]
     529              $C$DW$62        .dwtag  DW_TAG_TI_assign_register, DW_AT_name("XAR2")
     530                      .dwattr $C$DW$62, DW_AT_location[DW_OP_reg9]
     531              $C$DW$63        .dwtag  DW_TAG_TI_assign_register, DW_AT_name("XAR3")
     532                      .dwattr $C$DW$63, DW_AT_location[DW_OP_reg11]
     533              $C$DW$64        .dwtag  DW_TAG_TI_assign_register, DW_AT_name("XAR4")
     534                      .dwattr $C$DW$64, DW_AT_location[DW_OP_reg13]
     535              $C$DW$65        .dwtag  DW_TAG_TI_assign_register, DW_AT_name("XAR5")
     536                      .dwattr $C$DW$65, DW_AT_location[DW_OP_reg15]
     537              $C$DW$66        .dwtag  DW_TAG_TI_assign_register, DW_AT_name("R0HL")
     538                      .dwattr $C$DW$66, DW_AT_location[DW_OP_regx 0x2b]
     539              $C$DW$67        .dwtag  DW_TAG_TI_assign_register, DW_AT_name("R0H")
TMS320C2000 Assembler PC v6.2.0 Mon Aug 31 10:04:27 2020

Tools Copyright (c) 1996-2013 Texas Instruments Incorporated
crc32.asm                                                            PAGE   11

     540                      .dwattr $C$DW$67, DW_AT_location[DW_OP_regx 0x2c]
     541              $C$DW$68        .dwtag  DW_TAG_TI_assign_register, DW_AT_name("R1HL")
     542                      .dwattr $C$DW$68, DW_AT_location[DW_OP_regx 0x2f]
     543              $C$DW$69        .dwtag  DW_TAG_TI_assign_register, DW_AT_name("R1H")
     544                      .dwattr $C$DW$69, DW_AT_location[DW_OP_regx 0x30]
     545              $C$DW$70        .dwtag  DW_TAG_TI_assign_register, DW_AT_name("R2HL")
     546                      .dwattr $C$DW$70, DW_AT_location[DW_OP_regx 0x33]
     547              $C$DW$71        .dwtag  DW_TAG_TI_assign_register, DW_AT_name("R2H")
     548                      .dwattr $C$DW$71, DW_AT_location[DW_OP_regx 0x34]
     549              $C$DW$72        .dwtag  DW_TAG_TI_assign_register, DW_AT_name("R3HL")
     550                      .dwattr $C$DW$72, DW_AT_location[DW_OP_regx 0x37]
     551              $C$DW$73        .dwtag  DW_TAG_TI_assign_register, DW_AT_name("R3H")
     552                      .dwattr $C$DW$73, DW_AT_location[DW_OP_regx 0x38]
     553              $C$DW$74        .dwtag  DW_TAG_TI_assign_register, DW_AT_name("R4HL")
     554                      .dwattr $C$DW$74, DW_AT_location[DW_OP_regx 0x3b]
     555              $C$DW$75        .dwtag  DW_TAG_TI_assign_register, DW_AT_name("R4H")
     556                      .dwattr $C$DW$75, DW_AT_location[DW_OP_regx 0x3c]
     557              $C$DW$76        .dwtag  DW_TAG_TI_assign_register, DW_AT_name("R5HL")
     558                      .dwattr $C$DW$76, DW_AT_location[DW_OP_regx 0x3f]
     559              $C$DW$77        .dwtag  DW_TAG_TI_assign_register, DW_AT_name("R5H")
     560                      .dwattr $C$DW$77, DW_AT_location[DW_OP_regx 0x40]
     561              $C$DW$78        .dwtag  DW_TAG_TI_assign_register, DW_AT_name("R6HL")
     562                      .dwattr $C$DW$78, DW_AT_location[DW_OP_regx 0x43]
     563              $C$DW$79        .dwtag  DW_TAG_TI_assign_register, DW_AT_name("R6H")
     564                      .dwattr $C$DW$79, DW_AT_location[DW_OP_regx 0x44]
     565              $C$DW$80        .dwtag  DW_TAG_TI_assign_register, DW_AT_name("R7HL")
     566                      .dwattr $C$DW$80, DW_AT_location[DW_OP_regx 0x47]
     567              $C$DW$81        .dwtag  DW_TAG_TI_assign_register, DW_AT_name("R7H")
     568                      .dwattr $C$DW$81, DW_AT_location[DW_OP_regx 0x48]
     569              $C$DW$82        .dwtag  DW_TAG_TI_assign_register, DW_AT_name("RBL")
     570                      .dwattr $C$DW$82, DW_AT_location[DW_OP_regx 0x49]
     571              $C$DW$83        .dwtag  DW_TAG_TI_assign_register, DW_AT_name("RB")
     572                      .dwattr $C$DW$83, DW_AT_location[DW_OP_regx 0x4a]
     573              $C$DW$84        .dwtag  DW_TAG_TI_assign_register, DW_AT_name("STFL")
     574                      .dwattr $C$DW$84, DW_AT_location[DW_OP_regx 0x27]
     575              $C$DW$85        .dwtag  DW_TAG_TI_assign_register, DW_AT_name("STF")
     576                      .dwattr $C$DW$85, DW_AT_location[DW_OP_regx 0x28]
     577              $C$DW$86        .dwtag  DW_TAG_TI_assign_register, DW_AT_name("FPUHAZ")
     578                      .dwattr $C$DW$86, DW_AT_location[DW_OP_reg27]
     579              $C$DW$87        .dwtag  DW_TAG_TI_assign_register, DW_AT_name("CIE_RETA")
     580                      .dwattr $C$DW$87, DW_AT_location[DW_OP_regx 0x4e]
     581                      .dwendtag $C$DW$CU
     582              

No Assembly Errors, No Assembly Warnings
